Name,WeightClassKg,Division,Sex,Best3SquatKg,Best3BenchKg,Best3DeadliftKg,TotalKg,Event,Equipment,Place
N. Power,,Open,F,,,,345,SBD,Single-ply,1
S. Wood,,Open,F,,,,335,SBD,Single-ply,2
T. Petron,,Open,F,,,,215,SBD,Single-ply,3
Dan James,60,Open,M,,,,547.5,SBD,Single-ply,1
J. Bruno,60,Open,M,,,,400,SBD,Single-ply,2
W. Lui,60,Open,M,,,,397.5,SBD,Single-ply,3
Clinton Kaliberg,67.5,Open,M,,,,472.5,SBD,Single-ply,1
J. Allen,67.5,Open,M,,,,450,SBD,Single-ply,2
Bryan White,67.5,Open,M,,,,432.5,SBD,Single-ply,3
B. Dobransky,67.5,Open,M,,,,432.5,SBD,Single-ply,4
J. Caccamoe,67.5,Open,M,,,,395,SBD,Single-ply,5
S. DePaala,67.5,Open,M,,,,,SBD,Single-ply,DQ
K. Wyberg,75,Open,M,,,,575,SBD,Single-ply,2
Z. Grzelewski,75,Open,M,,,,512.5,SBD,Single-ply,3
R. Masengill,75,Open,M,,,,510,SBD,Single-ply,4
D. Covington,75,Open,M,,,,490,SBD,Single-ply,5
D. Henderson,75,Open,M,,,,875,SBD,Single-ply,1
L. LeBrun,75,Open,M,,,,442.5,SBD,Single-ply,6
C. LaPrade,75,Open,M,,,,387.5,SBD,Single-ply,7
Raimo Paananen,75,Open,M,,,,215,SBD,Single-ply,8
R. DeSilva,82.5,Open,M,,,,615,SBD,Single-ply,1
T. Dunbar,82.5,Open,M,,,,590,SBD,Single-ply,2
R. Nolan,82.5,Open,M,,,,517.5,SBD,Single-ply,3
D. Smith,82.5,Open,M,,,,495,SBD,Single-ply,4
T. Tallet,82.5,Open,M,,,,422.5,SBD,Single-ply,5
J. Petrick,90,Open,M,,,,717.5,SBD,Single-ply,1
F. DeMuth,90,Open,M,,,,597.5,SBD,Single-ply,2
L. Kurisko,90,Open,M,,,,587.5,SBD,Single-ply,3
P. O'Brien,90,Open,M,,,,572.5,SBD,Single-ply,4
R. Roy,90,Open,M,,,,495,SBD,Single-ply,5
Karl Hult,100,Open,M,,,,750,SBD,Single-ply,1
R. Tymkin,100,Open,M,,,,660,SBD,Single-ply,2
D. Stark,100,Open,M,,,,657.5,SBD,Single-ply,3
Erwin Ferstl,100,Open,M,,,,625,SBD,Single-ply,4
J. Coombs,100,Open,M,,,,507.5,SBD,Single-ply,5
T. Foley,100+,Open,M,,,,695,SBD,Single-ply,1
B. Martenson,100+,Open,M,,,,565,SBD,Single-ply,2
Terry Milani,100+,Open,M,,,,557.5,SBD,Single-ply,3
D. Kershaw,100+,Open,M,,,,550,SBD,Single-ply,4
