Division,WeightClassKg,Place,Name,Team,BodyweightKg,Best3SquatKg,Best3BenchKg,Best3DeadliftKg,TotalKg,Equipment,Event,Sex
Boys,55.79,1,Randall Holland,Clute Brazoswood,51.89,131.54,83.91,142.88,358.34,Single-ply,SBD,M
Boys,51.71,2,George Bankhead,Freeport Brazosport,50.71,120.2,54.43,124.74,299.37,Single-ply,SBD,M
Boys,51.71,3,Kelton Walker,Angleton,51.62,61.23,56.7,86.18,204.12,Single-ply,SBD,M
Boys,55.79,1,David Vega,Freeport Brazosport,52.34,154.22,97.52,181.44,433.18,Single-ply,SBD,M
Boys,55.79,2,Greg Gomez,West Columbia,55.61,131.54,74.84,140.61,347,Single-ply,SBD,M
Boys,59.87,3,Edgar Trevino,Clute Brazoswood,55.88,122.47,63.5,138.35,324.32,Single-ply,SBD,M
Boys,55.79,4,Chris Player,Manvel,52.44,102.06,65.77,129.27,297.1,Single-ply,SBD,M
Boys,59.87,1,Cody Viteritto,Alvin,59.24,149.69,111.13,172.37,433.18,Single-ply,SBD,M
Boys,67.13,2,Jonathan Nelson,Clute Brazoswood,60.06,149.69,72.57,165.56,387.82,Single-ply,SBD,M
Boys,59.87,3,Eduardo Trevino,Clute Brazoswood,58.69,140.61,81.65,158.76,381.02,Single-ply,SBD,M
Boys,59.87,4,DeMarco Corner,Manvel,56.06,129.27,77.11,145.15,351.53,Single-ply,SBD,M
Boys,67.13,5,Leonardo Gonzalez,Alvin,60.06,122.47,74.84,142.88,340.19,Single-ply,SBD,M
Boys,59.87,6,Chris Boyd,Freeport Brazosport,59.69,120.2,72.57,136.08,328.85,Single-ply,SBD,M
Boys,59.87,7,Tyler Smith,West Columbia,58.06,113.4,72.57,117.93,303.91,Single-ply,SBD,M
Boys,59.87,8,Troyvelle Gibbs,Angleton,56.7,74.84,43.09,92.99,210.92,Single-ply,SBD,M
Boys,74.84,1,Brad LaMach,West Columbia,67.22,188.24,106.59,183.7,478.54,Single-ply,SBD,M
Boys,67.13,2,Brice LaMach,West Columbia,66.22,188.24,115.67,170.1,474,Single-ply,SBD,M
Boys,67.13,3,Ted Gonzalez,Manvel,65.68,149.69,106.59,188.24,444.52,Single-ply,SBD,M
Boys,67.13,4,Jake Hertzing,Clute Brazoswood,63.68,170.1,88.45,174.63,433.18,Single-ply,SBD,M
Boys,74.84,5,Jonathan Laysard,Manvel,67.22,136.08,90.72,172.37,399.16,Single-ply,SBD,M
Boys,67.13,6,Nick Rodriguez,Manvel,65.86,161.03,90.72,145.15,396.89,Single-ply,SBD,M
Boys,67.13,7,Hershie Ward,Angleton,60.33,72.57,43.09,95.25,210.92,Single-ply,SBD,M
Boys,74.84,1,Kaylon Melacon,Manvel,74.84,204.12,124.74,222.26,551.11,Single-ply,SBD,M
Boys,74.84,2,Nick Fields,Freeport Brazosport,72.39,188.24,120.2,231.33,539.77,Single-ply,SBD,M
Boys,74.84,3,Martin Banda,Manvel,71.03,190.51,99.79,185.97,476.27,Single-ply,SBD,M
Boys,74.84,4,John McDowell #2,Alvin,69.76,185.97,106.59,167.83,460.4,Single-ply,SBD,M
Boys,74.84,5,Indy Henderson,Clute Brazoswood,74.66,163.29,92.99,174.63,430.91,Single-ply,SBD,M
Boys,74.84,6,Dustin Wellman,Clute Brazoswood,73.3,174.63,83.91,170.1,428.64,Single-ply,SBD,M
Boys,74.84,7,Cole White,Freeport Brazosport,71.3,147.42,86.18,170.1,403.7,Single-ply,SBD,M
Boys,74.84,8,Daniel Allen,Alvin,74.12,140.61,74.84,170.1,385.55,Single-ply,SBD,M
Boys,74.84,9,Matthew Oropeza,Angleton,67.68,108.86,83.91,108.86,301.64,Single-ply,SBD,M
Boys,74.84,DQ,Hayden Trask,Manvel,72.21,,,,,Single-ply,SBD,M
Boys,82.1,1,Jay Boniaby,Clute Brazoswood,81.1,231.33,106.59,176.9,514.83,Single-ply,SBD,M
Boys,82.1,2,Jimmy Hatcher,Alvin,75.84,197.31,104.33,183.7,485.34,Single-ply,SBD,M
Boys,82.1,DQ,William Heath,Manvel,80.74,,,,,Single-ply,SBD,M
Boys,82.1,DQ,Victor Green,Manvel,80.38,136.08,,,,Single-ply,SBD,M
Boys,89.81,1,Dalton Duke,West Columbia,86.55,190.51,115.67,215.46,521.63,Single-ply,SBD,M
Boys,89.81,2,Oscar Guzman,Manvel,84.46,188.24,120.2,192.78,501.22,Single-ply,SBD,M
Boys,89.81,3,Kevin Keeney,Freeport Brazosport,89.81,195.04,115.67,183.7,494.42,Single-ply,SBD,M
Boys,89.81,4,Tj Austin,Angleton,86.27,158.76,113.4,204.12,476.27,Single-ply,SBD,M
Boys,89.81,5,Bryant Tinoco,Alvin,85.18,163.29,111.13,158.76,433.18,Single-ply,SBD,M
Boys,89.81,6,Ezray Thompson,Angleton,86.09,147.42,88.45,170.1,405.97,Single-ply,SBD,M
Boys,89.81,7,Linc Croxton,Alvin,83.64,142.88,104.33,156.49,403.7,Single-ply,SBD,M
Boys,89.81,8,Connor Copeland,West Columbia,84.64,129.27,97.52,176.9,403.7,Single-ply,SBD,M
Boys,89.81,DQ,Elliott Lowry,Manvel,83.28,192.78,108.86,,,Single-ply,SBD,M
Boys,99.79,DQ,Khristian Blaylock,Clute Brazoswood,89.99,,,,,Single-ply,SBD,M
Boys,99.79,1,Rickey Lunford,Clute Brazoswood,90.08,238.14,142.88,226.8,607.81,Single-ply,SBD,M
Boys,99.79,2,Jorge Colon,Clute Brazoswood,98.61,233.6,142.88,183.7,560.19,Single-ply,SBD,M
Boys,99.79,3,Brady Hudson,Alvin,97.25,199.58,140.61,199.58,539.77,Single-ply,SBD,M
Boys,109.77,4,Quinton Bell,West Columbia,99.97,190.51,129.27,219.99,539.77,Single-ply,SBD,M
Boys,99.79,5,Marvin Chizer,Angleton,97.07,183.7,102.06,226.8,512.56,Single-ply,SBD,M
Boys,109.77,6,Cody Gonzales,Manvel,99.97,190.51,113.4,195.04,498.95,Single-ply,SBD,M
Boys,99.79,7,Juan Nava,Freeport Brazosport,91.72,174.63,122.47,192.78,489.88,Single-ply,SBD,M
Boys,99.79,8,Anthony Hollis,Alvin,95.16,190.51,99.79,195.04,485.34,Single-ply,SBD,M
Boys,99.79,9,Quinton Bailey,Angleton,93.62,163.29,83.91,226.8,474,Single-ply,SBD,M
Boys,99.79,10,David Nunez,Freeport Brazosport,99.52,151.95,106.59,156.49,415.04,Single-ply,SBD,M
Boys,109.77,1,Rodney Hall,Angleton,100.61,256.28,142.88,235.87,635.03,Single-ply,SBD,M
Boys,109.77,2,Simon Curiel,Manvel,105.6,206.38,124.74,242.67,573.79,Single-ply,SBD,M
Boys,109.77,3,Gunnar Girod,Clute Brazoswood,109.23,204.12,124.74,210.92,539.77,Single-ply,SBD,M
Boys,109.77,4,Brian Keo,Alvin,108.05,215.46,108.86,188.24,512.56,Single-ply,SBD,M
Boys,109.77,5,Kevin Coulter,West Columbia,101.51,188.24,102.06,219.99,510.29,Single-ply,SBD,M
Boys,109.77,6,Chris Shepherd,Alvin,102.6,204.12,108.86,192.78,505.76,Single-ply,SBD,M
Boys,109.77,7,Chris Gomez,Freeport Brazosport,100.52,183.7,104.33,192.78,480.81,Single-ply,SBD,M
Boys,109.77,8,Josh Seabolt,Angleton,104.69,181.44,97.52,172.37,451.32,Single-ply,SBD,M
Boys,124.74,1,Rj Earls,Clute Brazoswood,117.21,258.55,149.69,206.38,614.62,Single-ply,SBD,M
Boys,124.74,2,John Aluzio,Freeport Brazosport,119.2,204.12,142.88,197.31,544.31,Single-ply,SBD,M
Boys,124.74,3,Ray Madrigal,Freeport Brazosport,112.31,188.24,142.88,208.65,539.77,Single-ply,SBD,M
Boys,124.74,4,Taylor Romero,Manvel,116.75,204.12,92.99,242.67,539.77,Single-ply,SBD,M
Boys,124.74,5,Alfredo Abrego,Manvel,120.29,195.04,136.08,206.38,537.51,Single-ply,SBD,M
Boys,124.74,6,Rawlstan Decoteau,Angleton,124.74,195.04,140.61,195.04,530.7,Single-ply,SBD,M
Boys,124.74,DQ,Eric Christ,Manvel,120.66,,,,,Single-ply,SBD,M
Boys,124.74+,1,Anthony Madrigal,Freeport Brazosport,139.34,278.96,183.7,251.74,714.41,Single-ply,SBD,M
Boys,124.74+,2,Travis Romero,Manvel,139.71,249.48,149.69,240.4,639.57,Single-ply,SBD,M
Boys,124.74+,3,Trey Teague,Freeport Brazosport,147.96,272.16,131.54,229.06,632.76,Single-ply,SBD,M
Boys,124.74+,4,Trey Cassidy,Angleton,125.74,204.12,158.76,210.92,573.79,Single-ply,SBD,M
Boys,124.74+,5,Ray Mendoza,Freeport Brazosport,145.42,256.28,108.86,185.97,551.11,Single-ply,SBD,M
Boys,124.74+,6,Bryce Reed,Manvel,139.71,181.44,113.4,226.8,521.63,Single-ply,SBD,M
Boys,,NS,James Welborn,West Columbia,,,,,,Single-ply,SBD,M
Boys,,NS,Justin Hussey,West Columbia,,,,,,Single-ply,SBD,M
Boys,,NS,Tanner Peavey,Angleton,,,,,,Single-ply,SBD,M
