Place,Name,State,WeightClassKg,BodyweightKg,BirthDate,Age,Squat1Kg,Squat2Kg,Squat3Kg,Best3SquatKg,Bench1Kg,Bench2Kg,Bench3Kg,Best3BenchKg,Deadlift1Kg,Deadlift2Kg,Deadlift3Kg,Best3DeadliftKg,TotalKg,Event,Equipment,Sex,Division,Tested
1,Spencer Haro,ID,75,73.6,,13,-80,80,-85,80,35,40,-42.5,40,87.5,100,107.5,107.5,227.5,SBD,Raw,F,Juniors 13-15,Yes
DQ,Sarah Mcleran,ID,82.5,77.2,,21,-150,-150,-150,,75,80,82.5,82.5,155,170,-182.5,170,,SBD,Raw,F,Juniors 20-23,Yes
1,Lindsey Taylor,NV,60,58.7,,31,120,125,-132.5,125,72.5,-77.5,-77.5,72.5,140,-145,-145,140,337.5,SBD,Raw,F,Open,Yes
1,Jamie Neussendorfer,ID,67.5,67.5,,43,102.5,110,117.5,117.5,67.5,72.5,75,75,135,150,-155,150,342.5,SBD,Raw,F,Open,Yes
2,Erica Cowan,NV,67.5,67,,35,95,102.5,-110,102.5,60,65,67.5,67.5,112.5,120,122.5,122.5,292.5,SBD,Raw,F,Open,Yes
3,Rachel Massey,ID,67.5,66,,33,70,-97.5,-97.5,70,57.5,60,62.5,62.5,97.5,105,-110,105,237.5,SBD,Raw,F,Open,Yes
4,Kristina Jensen,ID,67.5,67.1,,43,62.5,70,-75,70,37.5,42.5,-47.5,42.5,65,75,90,90,202.5,SBD,Raw,F,Open,Yes
1,Amanda Kimball,ID,90+,99.2,,42,-50,-57.5,57.5,57.5,45,52.5,57.5,57.5,102.5,115,127.5,127.5,242.5,SBD,Raw,F,Open,Yes
1,Erica Cowan,NV,67.5,67,,35,95,102.5,-110,102.5,60,65,67.5,67.5,112.5,120,122.5,122.5,292.5,SBD,Raw,F,Submasters 35-39,Yes
1,Jamie Neussendorfer,ID,67.5,67.5,,43,102.5,110,117.5,117.5,67.5,72.5,75,75,135,150,-155,150,342.5,SBD,Raw,F,Masters 40-44,Yes
2,Kristina Jensen,ID,67.5,67.1,,43,62.5,70,-75,70,37.5,42.5,-47.5,42.5,65,75,90,90,202.5,SBD,Raw,F,Masters 40-44,Yes
1,Buffy Bennett,OR,75,69.7,,45,42.5,-50,50,50,42.5,47.5,57.5,57.5,75,82.5,105,105,212.5,SBD,Raw,F,Masters 45-49,Yes
1,Amanda Kimball,ID,90+,99.2,,42,-50,-57.5,57.5,57.5,45,52.5,57.5,57.5,102.5,115,127.5,127.5,242.5,SBD,Raw,F,Masters 40-44,Yes
1,Andrew DeLeon,OR,60,59.2,,22,132.5,-137.5,-137.5,132.5,75,-82.5,-82.5,75,135,147.5,167.5,167.5,375,SBD,Raw,M,Juniors 20-23,Yes
DQ,Jeremiah Marines,OR,75,74.7,,15,-142.5,-142.5,-142.5,,80,82.5,-85,82.5,167.5,177.5,190,190,,SBD,Raw,M,Juniors 13-15,Yes
1,Vance Morales,ID,110,106.8,,18,197.5,-210,-210,197.5,112.5,122.5,132.5,132.5,205,220,227.5,227.5,557.5,SBD,Raw,M,Juniors 18-19,Yes
1,Kyle Gallas,ID,75,74.4,,28,165,172.5,182.5,182.5,-125,127.5,140.5,140.5,207.5,212.5,-222.5,212.5,535.5,SBD,Raw,M,Open,Yes
1,Bryan Hannan,ID,82.5,80,,30,200,220,230,230,137.5,145,147.5,147.5,237.5,-252.5,-252.5,237.5,615,SBD,Raw,M,Open,Yes
2,Blake Franklin,ID,82.5,80.3,,24,142.5,152.5,157.5,157.5,100,105,-110,105,-185,195,202.5,202.5,465,SBD,Raw,M,Open,Yes
1,Travis Spengler,ID,90,88.2,,25,187.5,195,-197.5,195,-150,150,-152.5,150,-235,-235,235,235,580,SBD,Raw,M,Open,Yes
1,Daniel Cervantes,OR,100,95.1,,29,80,,,80,80,,,80,80,,,80,240,SBD,Raw,M,Open,Yes
DQ,Jonathan Long,NV,100,97.9,,41,197.5,-215,-215,197.5,-137.5,-137.5,-140,,205,210,-212.5,210,,SBD,Raw,M,Open,Yes
1,Logan Baldwin,ID,110,106.2,,24,165,190,202.5,202.5,142.5,157.5,-162.5,157.5,182.5,197.5,222.5,222.5,582.5,SBD,Raw,M,Open,Yes
1,Antonio Corona,ID,125,118.3,,37,185,200,210,210,142.5,152.5,155,155,197.5,212.5,227.5,227.5,592.5,SBD,Raw,M,Open,Yes
2,Francisco Villegas,OR,125,119.2,,25,-182.5,-182.5,182.5,182.5,120,125,-130,125,192.5,210,-215,210,517.5,SBD,Raw,M,Open,Yes
1,Thomas White,OR,140,136.5,,33,255,-260,-272.5,255,197.5,200,210,210,215,247.5,272.5,272.5,737.5,SBD,Raw,M,Open,Yes
2,Wes Wingrove,ID,140,138.7,,25,212.5,227.5,-232.5,227.5,170,-182.5,-182.5,170,240,257.5,272.5,272.5,670,SBD,Raw,M,Open,Yes
1,Brandon Fleming,ID,140,131.4,,39,192.5,205,215,215,170,177.5,182.5,182.5,227.5,240,242.5,242.5,640,SBD,Raw,M,Submasters 35-39,Yes
DQ,Jonathan Long,NV,100,97.9,,41,197.5,-215,-215,197.5,-137.5,-137.5,-140,,205,210,-212.5,210,,SBD,Raw,M,Masters 40-44,Yes
1,Brian Floyd,ID,110,105.1,,45,172.5,187.5,195,195,122.5,132.5,137.5,137.5,180,192.5,202.5,202.5,535,SBD,Raw,M,Masters 45-49,Yes
1,Rylee Young,ID,67.5,65.5,,25,122.5,-140,147.5,147.5,55,62.5,-67.5,62.5,132.5,145,-152.5,145,355,SBD,Wraps,F,Open,Yes
1,David Rangel,OR,90,89.5,,28,230,240,252.5,252.5,-145,152.5,162.5,162.5,235,245,-255,245,660,SBD,Wraps,M,Open,Yes
1,Trevor Hall,ID,110,106,,36,-230,-240,240,240,150,157.5,-170,157.5,220,227.5,235,235,632.5,SBD,Wraps,M,Open,Yes
2,Robert Figueroa,OR,110,101.5,,30,252.5,272.5,277.5,277.5,80,,,80,262.5,-280,-285,262.5,620,SBD,Wraps,M,Open,Yes
DQ,Luis Martinez,ID,110,109.5,,33,-227.5,-237.5,-237.5,,142.5,150,-155,150,227.5,-240,-247.5,227.5,,SBD,Wraps,M,Open,Yes
1,Parker Schibel,ID,125,119.6,,24,240,252.5,267.5,267.5,140,150,-160,150,230,242.5,255,255,672.5,SBD,Wraps,M,Open,Yes
1,Joseph Lopez,OR,140,135.6,,19,227.5,-240,240,240,107.5,115,-127.5,115,217.5,227.5,-237.5,227.5,582.5,SBD,Wraps,M,Open,Yes
1,Trevor Hall,ID,110,106,,36,-230,-240,240,240,150,157.5,-170,157.5,220,227.5,235,235,632.5,SBD,Wraps,M,Submasters 35-39,Yes
1,Michael Coleman,ID,82.5,81.5,,41,152.5,160,175,175,-120,122.5,-132.5,122.5,195,-207.5,-207.5,195,492.5,SBD,Wraps,M,Masters 40-44,Yes
1,Robert Kerstetter,ID,110,104.9,,42,217.5,230,237.5,237.5,-85,102.5,130,130,217.5,230,237.5,237.5,605,SBD,Wraps,M,Masters 40-44,Yes
1,Sam Ferguson,UT,125,124.1,,36,,,,,175,182.5,-185,182.5,,,,,182.5,B,Raw,M,Open,Yes
1,Sam Ferguson,UT,125,124.1,,36,,,,,175,182.5,-185,182.5,,,,,182.5,B,Raw,M,Submasters 35-39,Yes
1,Michael Coleman,ID,82.5,81.5,,41,,,,,-120,122.5,-132.5,122.5,,,,,122.5,B,Raw,M,Masters 40-44,Yes
1,Brandi Neill,OR,90+,95.9,,42,,,,,,,,,130,137.5,147.5,147.5,147.5,D,Raw,F,Masters 40-44,Yes
1,Jake Brown,ID,90,88,,33,,,,,,,,,185,202.5,215,215,215,D,Raw,M,Open,Yes
1,Sam Ferguson,UT,125,124.1,,36,,,,,,,,,260,272.5,-277.5,272.5,272.5,D,Raw,M,Open,Yes
1,Sam Ferguson,UT,125,124.1,,36,,,,,,,,,260,272.5,-277.5,272.5,272.5,D,Raw,M,Submasters 35-39,Yes
1,Wesley Beach,ID,110,107.7,,50,,,,,,,,,-292.5,310,320,320,320,D,Single-ply,M,Open,Yes
1,Wesley Beach,ID,110,107.7,,50,,,,,,,,,-292.5,310,320,320,320,D,Single-ply,M,Masters 50-54,Yes
