Division,WeightClassKg,Place,Name,Team,BodyweightKg,Best3SquatKg,Best3BenchKg,Best3DeadliftKg,TotalKg,Equipment,Event,Sex
Boys,51.71,1,Damian Tamez,Fort Worth Boswell,48.81,88.45,56.7,131.54,276.69,Single-ply,SBD,M
Boys,51.71,2,Kyle Hendrix,Weatherford,51.53,88.45,63.5,99.79,251.74,Single-ply,SBD,M
Boys,51.71,3,Dennis Mema,Saginaw,49.35,81.65,43.09,102.06,226.8,Single-ply,SBD,M
Boys,51.71,4,Heath Jones,Aledo,49.53,74.84,45.36,72.57,192.78,Single-ply,SBD,M
Boys,51.71,DQ,Connor Moore,White Settlement Brewer,51.53,,,,,Single-ply,SBD,M
Boys,59.87,1,Arnold Delgidillo,White Settlement Brewer,55.97,127.01,77.11,136.08,340.19,Single-ply,SBD,M
Boys,59.87,2,Zach Bodine,Weatherford,55.97,120.2,79.38,122.47,322.05,Single-ply,SBD,M
Boys,59.87,3,DeLonte Christmas,Fort Worth Boswell,55.97,122.47,77.11,120.2,319.78,Single-ply,SBD,M
Boys,55.79,4,Christian Youngblood,Aledo,54.57,111.13,61.23,129.27,301.64,Single-ply,SBD,M
Boys,55.79,5,Felipe Hernández #5,Saginaw,55.52,117.93,65.77,115.67,299.37,Single-ply,SBD,M
Boys,55.79,6,Nicholas Roark-Smith,Fort Worth Chisholm Trail,53.16,113.4,47.63,108.86,269.89,Single-ply,SBD,M
Boys,59.87,1,Fred Brownlee,Weatherford,59.87,158.76,95.25,163.29,417.3,Single-ply,SBD,M
Boys,59.87,2,Zach Cain,Granbury,59.33,142.88,86.18,142.88,371.95,Single-ply,SBD,M
Boys,59.87,3,Nick Thomas #4,Weatherford,59.42,136.08,72.57,149.69,358.34,Single-ply,SBD,M
Boys,59.87,4,Ezekiel Mitchell,Springtown,59.6,142.88,61.23,149.69,353.8,Single-ply,SBD,M
Boys,59.87,5,Michael Frantzen,Fort Worth Chisholm Trail,59.69,129.27,56.7,138.35,324.32,Single-ply,SBD,M
Boys,67.13,6,Jay Weatherly,Aledo,59.96,124.74,65.77,129.27,319.78,Single-ply,SBD,M
Boys,59.87,DQ,Dylan Moore,Azle,57.24,111.13,58.97,,,Single-ply,SBD,M
Boys,59.87,DQ,Anthony Cuevas,Saginaw,59.78,,,,,Single-ply,SBD,M
Boys,59.87,DQ,Tameron Clark,Fort Worth Chisholm Trail,59.15,108.86,,,,Single-ply,SBD,M
Boys,67.13,1,Kyius McNeal,Fort Worth Boswell,66.77,163.29,95.25,208.65,467.2,Single-ply,SBD,M
Boys,67.13,2,Tre Kindle,Fort Worth Boswell,64.95,167.83,108.86,181.44,458.13,Single-ply,SBD,M
Boys,74.84,3,Gage McQuade,Fort Worth Boswell,67.31,192.78,102.06,151.95,446.79,Single-ply,SBD,M
Boys,74.84,4,Clayton Walker,Springtown,67.31,172.37,74.84,172.37,419.57,Single-ply,SBD,M
Boys,67.13,5,Eugene Geis,Granbury,62.14,120.2,68.04,136.08,324.32,Single-ply,SBD,M
Boys,67.13,6,Trey Johnson,Springtown,60.78,113.4,63.5,108.86,285.76,Single-ply,SBD,M
Boys,67.13,DQ,Marquis Sanders,Saginaw,65.68,174.63,,,,Single-ply,SBD,M
Boys,67.13,DQ,Richardo Camas,Weatherford,65.32,,,,,Single-ply,SBD,M
Boys,67.13,DQ,Demitrius Hutcherson,Azle,61.87,,,,,Single-ply,SBD,M
Boys,67.13,DQ,Kenneth McCleveland,Fort Worth Chisholm Trail,65.77,122.47,,,,Single-ply,SBD,M
Boys,74.84,1,Josh Williams,Azle,70.22,185.97,90.72,183.7,460.4,Single-ply,SBD,M
Boys,74.84,2,Dusty Shauer,Weatherford,72.3,176.9,99.79,176.9,453.59,Single-ply,SBD,M
Boys,74.84,3,Jaytron Phillips,Fort Worth Chisholm Trail,73.66,165.56,88.45,181.44,435.45,Single-ply,SBD,M
Boys,74.84,4,Phillip Schneider,Springtown,69.67,154.22,90.72,142.88,387.82,Single-ply,SBD,M
Boys,74.84,5,Marc Joseph,Fort Worth Chisholm Trail,68.95,136.08,74.84,170.1,381.02,Single-ply,SBD,M
Boys,74.84,6,Reed Bertram,Aledo,72.67,136.08,97.52,127.01,360.61,Single-ply,SBD,M
Boys,74.84,7,Brennen Barrs,White Settlement Brewer,71.3,131.54,83.91,142.88,358.34,Single-ply,SBD,M
Boys,74.84,DQ,Lewis Blackwell,Saginaw,71.67,167.83,97.52,,,Single-ply,SBD,M
Boys,74.84,DQ,Sam Allen,Granbury,73.75,158.76,,,,Single-ply,SBD,M
Boys,82.1,DQ,Jesse Valdez,Granbury,74.93,161.03,,,,Single-ply,SBD,M
Boys,74.84,DQ,DJ Allen,Fort Worth Boswell,74.48,,,,,Single-ply,SBD,M
Boys,82.1,1,Jacob Moutray,Azle,81.92,213.19,115.67,179.17,508.02,Single-ply,SBD,M
Boys,82.1,2,Dustin Martinez,Fort Worth Boswell,78.83,181.44,124.74,192.78,498.95,Single-ply,SBD,M
Boys,82.1,3,Daniel Valdez,Granbury,78.38,201.85,99.79,176.9,478.54,Single-ply,SBD,M
Boys,82.1,4,Lane Brown,Fort Worth Chisholm Trail,75.75,136.08,81.65,181.44,399.16,Single-ply,SBD,M
Boys,82.1,DQ,Benji Perez,White Settlement Brewer,76.11,,,,,Single-ply,SBD,M
Boys,82.1,DQ,Kevin Perotti,White Settlement Brewer,76.38,,,,,Single-ply,SBD,M
Boys,82.1,DQ,Brady Sims,Aledo,77.93,136.08,,,,Single-ply,SBD,M
Boys,89.81,1,Juan Diaz,Saginaw,85.18,204.12,136.08,197.31,537.51,Single-ply,SBD,M
Boys,89.81,2,Mike Milson,Granbury,87,192.78,145.15,195.04,532.97,Single-ply,SBD,M
Boys,89.81,3,Stephan Smith,Saginaw,87.54,208.65,111.13,206.38,526.17,Single-ply,SBD,M
Boys,89.81,4,Tristan Williams,Aledo,86.18,183.7,136.08,188.24,508.02,Single-ply,SBD,M
Boys,89.81,5,Garrett Hadley,Weatherford,86.91,181.44,122.47,197.31,501.22,Single-ply,SBD,M
Boys,89.81,6,Robert Dease,Springtown,86.45,192.78,99.79,174.63,467.2,Single-ply,SBD,M
Boys,89.81,7,Kalil Jones,Fort Worth Chisholm Trail,83.46,127.01,72.57,165.56,365.14,Single-ply,SBD,M
Boys,89.81,DQ,Robbie Williams,White Settlement Brewer,89.45,,,,,Single-ply,SBD,M
Boys,89.81,DQ,Tanner Dennis,Aledo,89.54,161.03,,,,Single-ply,SBD,M
Boys,99.79,1,Clayton Hensley,Weatherford,98.07,226.8,158.76,231.33,616.89,Single-ply,SBD,M
Boys,109.77,2,Kaleb Keys,Springtown,99.97,222.26,136.08,213.19,571.53,Single-ply,SBD,M
Boys,99.79,3,Stephen Evans,White Settlement Brewer,99.25,231.33,122.47,188.24,542.04,Single-ply,SBD,M
Boys,99.79,4,Kent Sanner,Weatherford,95.62,190.51,124.74,215.46,530.7,Single-ply,SBD,M
Boys,99.79,5,Caleb Buchanan,Aledo,94.66,201.85,124.74,188.24,514.83,Single-ply,SBD,M
Boys,99.79,6,Justin Sanchez,Fort Worth Boswell,95.89,190.51,111.13,206.38,508.02,Single-ply,SBD,M
Boys,99.79,7,Brandon Lane,Granbury,98.07,181.44,122.47,204.12,508.02,Single-ply,SBD,M
Boys,99.79,8,Zach Hyles,Aledo,94.89,185.97,122.47,188.24,496.68,Single-ply,SBD,M
Boys,99.79,9,Chase Shipman,Granbury,90.36,181.44,113.4,195.04,489.88,Single-ply,SBD,M
Boys,99.79,10,Daniel Hernandez,Fort Worth Chisholm Trail,93.44,176.9,90.72,176.9,444.52,Single-ply,SBD,M
Boys,99.79,DQ,Devin Casillas,White Settlement Brewer,93.26,190.51,,,,Single-ply,SBD,M
Boys,99.79,DQ,Jobani Chavez,Springtown,93.35,,,,,Single-ply,SBD,M
Boys,99.79,DQ,Cale Hatfield,Saginaw,96.07,,,,,Single-ply,SBD,M
Boys,109.77,1,Jay Powell,Weatherford,103.06,219.99,127.01,226.8,573.79,Single-ply,SBD,M
Boys,109.77,2,Zach Applewhite,Fort Worth Boswell,107.32,217.72,156.49,197.31,571.53,Single-ply,SBD,M
Boys,109.77,3,Daniel Martinez,White Settlement Brewer,108.77,231.33,120.2,213.19,564.72,Single-ply,SBD,M
Boys,109.77,4,Landon Lambert,Granbury,107.5,204.12,120.2,226.8,551.11,Single-ply,SBD,M
Boys,109.77,5,Landon Todd,Azle,108.14,213.19,127.01,197.31,537.51,Single-ply,SBD,M
Boys,109.77,6,Quentin Wruble,Aledo,103.42,195.04,127.01,197.31,519.36,Single-ply,SBD,M
Boys,109.77,7,Eron Williams,Saginaw,104.42,176.9,127.01,176.9,480.81,Single-ply,SBD,M
Boys,109.77,8,Tyler Chappell,Springtown,101.6,181.44,95.25,195.04,471.74,Single-ply,SBD,M
Boys,109.77,DQ,Benny Galvan,Azle,107.14,217.72,129.27,,,Single-ply,SBD,M
Boys,124.74,DQ,Garrett Tidwell,Azle,109.95,208.65,,,,Single-ply,SBD,M
Boys,109.77,DQ,Tommy Spaulding,White Settlement Brewer,108.32,235.87,120.2,,,Single-ply,SBD,M
Boys,109.77,DQ,Joseph Lee,Fort Worth Chisholm Trail,101.6,181.44,,,,Single-ply,SBD,M
Boys,124.74,1,Wylie Reinhardt,Saginaw,121.56,258.55,147.42,249.48,655.44,Single-ply,SBD,M
Boys,124.74,2,Preston Bradham,Aledo,124.1,217.72,158.76,172.37,548.85,Single-ply,SBD,M
Boys,124.74,3,Eli Guerra,Fort Worth Boswell,114.85,199.58,142.88,204.12,546.58,Single-ply,SBD,M
Boys,124.74,4,Glynn Evans,Azle,120.29,224.53,124.74,197.31,546.58,Single-ply,SBD,M
Boys,124.74,5,Gavin Edgecomb,Springtown,111.77,226.8,104.33,197.31,528.44,Single-ply,SBD,M
Boys,124.74,6,Logan Todd,Azle,116.12,199.58,127.01,197.31,523.9,Single-ply,SBD,M
Boys,124.74,7,Jordan Papke,Granbury,119.39,176.9,122.47,181.44,480.81,Single-ply,SBD,M
Boys,124.74,8,Briley Pena,Granbury,116.12,165.56,90.72,167.83,424.11,Single-ply,SBD,M
Boys,124.74+,1,Corbin Bullington,Aledo,157.22,249.48,147.42,254.01,650.91,Single-ply,SBD,M
Boys,124.74+,2,Alec Puente,Azle,143.34,249.48,142.88,229.06,621.42,Single-ply,SBD,M
Boys,124.74+,3,Zac Wirts,White Settlement Brewer,129.27,235.87,154.22,226.8,616.89,Single-ply,SBD,M
Boys,124.74+,4,Josh Hernandez,Fort Worth Boswell,129.36,260.82,127.01,226.8,614.62,Single-ply,SBD,M
Boys,124.74+,5,Jace Ford,Weatherford,135.9,249.48,138.35,226.8,614.62,Single-ply,SBD,M
Boys,124.74+,6,Lincoln Roquemore,Azle,137.44,229.06,120.2,197.31,546.58,Single-ply,SBD,M
Boys,124.74+,DQ,Brandon Brooks,Springtown,164.93,226.8,127.01,,,Single-ply,SBD,M
Boys,124.74+,DQ,Joe Rosas,Saginaw,143.61,288.03,170.1,,,Single-ply,SBD,M
Boys,124.74+,DQ,Chandler Pavlik,Fort Worth Chisholm Trail,129.82,108.86,88.45,,,Single-ply,SBD,M
