Division,WeightClassKg,Place,Name,Team,BodyweightKg,Best3SquatKg,Best3BenchKg,Best3DeadliftKg,TotalKg,Equipment,Event,Sex,BirthDate
Boys,51.71,1,Aaron Tobias,Bastrop Cedar Creek,51.26,151.95,77.11,156.49,385.55,Single-ply,SBD,M,
Boys,51.71,2,Onesimo Esquivel,San Marcos,51.17,124.74,63.5,140.61,328.85,Single-ply,SBD,M,
Boys,51.71,3,Emilio Rangel,Buda Johnson,48.26,117.93,68.04,129.27,315.25,Single-ply,SBD,M,
Boys,51.71,4,Corey Casey,Del Valle,50.62,102.06,70.31,136.08,308.44,Single-ply,SBD,M,
Boys,51.71,5,Colin Baumann,Kyle Lehman,50.26,90.72,58.97,131.54,281.23,Single-ply,SBD,M,
Boys,51.71,6,Cade Borchert,Lockhart,51.62,95.25,47.63,108.86,251.74,Single-ply,SBD,M,
Boys,55.79,1,Jose Rios,Dripping Springs,55.52,219.99,97.52,219.99,537.51,Single-ply,SBD,M,
Boys,55.79,2,Brayden Bromonsky,Kyle Lehman,54.98,195.04,111.13,206.38,512.56,Single-ply,SBD,M,
Boys,55.79,3,Jesus Recio,Kyle Lehman,55.79,147.42,106.59,167.83,421.84,Single-ply,SBD,M,
Boys,55.79,4,Eric Esquivel,Kyle Lehman,55.43,142.88,86.18,161.03,390.09,Single-ply,SBD,M,
Boys,55.79,5,Julian Enriquez,Buda Johnson,55.16,138.35,77.11,147.42,362.87,Single-ply,SBD,M,
Boys,55.79,6,Alan Cruz,Buda Johnson,52.16,124.74,61.23,145.15,331.12,Single-ply,SBD,M,
Boys,55.79,7,Randy Reyes,Elgin,54.52,127.01,61.23,122.47,310.71,Single-ply,SBD,M,
Boys,55.79,8,Jeremiah Harvey,Elgin,51.89,102.06,65.77,113.4,281.23,Single-ply,SBD,M,
Boys,55.79,9,Joseph Capetillo,Lockhart,52.62,102.06,54.43,113.4,269.89,Single-ply,SBD,M,
Boys,55.79,10,Emmanuel Alvarado,Bastrop,55.7,102.06,45.36,102.06,249.48,Single-ply,SBD,M,
Boys,59.87,1,Jacob Vasquez,Kyle Lehman,59.51,226.8,92.99,226.8,546.58,Single-ply,SBD,M,
Boys,59.87,2,Jay Swain,Manor,59.87,154.22,74.84,197.31,426.38,Single-ply,SBD,M,
Boys,59.87,3,Nicholas Nguyen,Bastrop,58.42,154.22,88.45,163.29,405.97,Single-ply,SBD,M,
Boys,59.87,4,Gabriel Vargas,Killeen Ellison,59.24,151.95,88.45,156.49,396.89,Single-ply,SBD,M,
Boys,59.87,5,Christian Jeanes,Kyle Lehman,59.33,138.35,88.45,161.03,387.82,Single-ply,SBD,M,
Boys,59.87,6,Dylan Duran,San Marcos,58.79,142.88,83.91,149.69,376.48,Single-ply,SBD,M,
Boys,59.87,7,Dalton Garcia,Kyle Lehman,58.97,138.35,74.84,154.22,367.41,Single-ply,SBD,M,
Boys,59.87,8,Ion Collins,Manor,57.7,142.88,65.77,151.95,360.61,Single-ply,SBD,M,
Boys,59.87,9,Ismael Jacinto,Liberty Hill,57.97,120.2,72.57,136.08,328.85,Single-ply,SBD,M,
Boys,59.87,10,Lincoln Wiech,Pflugerville Connally,58.24,102.06,63.5,158.76,324.32,Single-ply,SBD,M,
Boys,59.87,11,Mason Fitch,Liberty Hill,58.06,117.93,68.04,124.74,310.71,Single-ply,SBD,M,
Boys,59.87,12,Markeon Ellis,Austin Navarro Early College,56.88,92.99,52.16,124.74,269.89,Single-ply,SBD,M,
Boys,59.87,DQ,Jha' Mauri Erilus,Killeen Ellison,57.61,,,,,Single-ply,SBD,M,
Boys,67.13,1,Ivan Venegas,Dripping Springs,62.78,238.14,142.88,238.14,619.15,Single-ply,SBD,M,
Boys,67.13,2,Diego Macedo,Kyle Lehman,66.77,206.38,106.59,199.58,512.56,Single-ply,SBD,M,
Boys,67.13,3,Jacob Reece,Bastrop,65.68,192.78,115.67,195.04,503.49,Single-ply,SBD,M,
Boys,67.13,4,Rolando Valenzuela,Kyle Lehman,66.68,183.7,113.4,195.04,492.15,Single-ply,SBD,M,
Boys,67.13,5,Joel Scott,Taylor,66.59,195.04,102.06,188.24,485.34,Single-ply,SBD,M,
Boys,67.13,6,Max Garcia,Kyle Lehman,67.13,179.17,111.13,188.24,478.54,Single-ply,SBD,M,
Boys,67.13,7,Joey Mojica,Kyle Lehman,67.04,174.63,106.59,190.51,471.74,Single-ply,SBD,M,
Boys,67.13,8,Avery Marshaal,Manor,66.5,181.44,92.99,183.7,458.13,Single-ply,SBD,M,
Boys,67.13,9,James Eckford,Liberty Hill,65.14,165.56,106.59,163.29,435.45,Single-ply,SBD,M,
Boys,67.13,10,Zachariah Decker,San Marcos,65.14,174.63,86.18,167.83,428.64,Single-ply,SBD,M,
Boys,67.13,11,Roman Mason,Pflugerville Connally,64.41,156.49,88.45,174.63,419.57,Single-ply,SBD,M,
Boys,67.13,12,Jarian Green,Killeen Ellison,63.14,124.74,102.06,183.7,410.5,Single-ply,SBD,M,
Boys,67.13,13,Gabe Driscoll,Del Valle,61.69,156.49,74.84,167.83,399.16,Single-ply,SBD,M,
Boys,67.13,14,Jaret Martinez,Liberty Hill,63.96,147.42,92.99,145.15,385.55,Single-ply,SBD,M,
Boys,67.13,15,Alexis Gonzalez,Bastrop Cedar Creek,66.5,122.47,102.06,151.95,376.48,Single-ply,SBD,M,
Boys,67.13,16,Jason Penick,Thorndale,66.04,142.88,68.04,151.95,362.87,Single-ply,SBD,M,
Boys,67.13,17,Joseph Rodriguez,Del Valle,63.41,111.13,83.91,156.49,351.53,Single-ply,SBD,M,
Boys,67.13,18,Joseph Williams,Killeen Shoemaker,66.59,117.93,83.91,147.42,349.27,Single-ply,SBD,M,
Boys,67.13,19,Joseph Suarez,Lockhart,65.32,115.67,54.43,170.1,340.19,Single-ply,SBD,M,
Boys,67.13,20,Santiago Ayala,Lockhart,66.86,102.06,102.06,136.08,340.19,Single-ply,SBD,M,
Boys,67.13,21,Jalon Banks,Hutto,63.78,122.47,68.04,142.88,333.39,Single-ply,SBD,M,
Boys,67.13,22,Tyler Leonardis,Buda Johnson,64.68,127.01,65.77,136.08,328.85,Single-ply,SBD,M,
Boys,67.13,23,James Rowell,Killeen Ellison,64.59,113.4,65.77,124.74,303.91,Single-ply,SBD,M,
Boys,67.13,24,Michael Hernandez,Austin Navarro Early College,62.6,88.45,52.16,113.4,254.01,Single-ply,SBD,M,
Boys,67.13,DQ,Jy'Aire Gobar,Hutto,60.06,,,,,Single-ply,SBD,M,
Boys,74.84,1,Juan Rios,Dripping Springs,71.49,294.84,161.03,294.84,750.7,Single-ply,SBD,M,
Boys,74.84,2,Christian Caballero,Buda Hays,74.57,217.72,140.61,256.28,614.62,Single-ply,SBD,M,
Boys,74.84,3,Zane Bolding,Hutto,74.57,208.65,124.74,213.19,546.58,Single-ply,SBD,M,
Boys,74.84,4,Declan Trevethan,Buda Hays,74.12,210.92,115.67,213.19,539.77,Single-ply,SBD,M,
Boys,74.84,5,Benjamin White,Bastrop Cedar Creek,74.66,188.24,113.4,226.8,528.44,Single-ply,SBD,M,
Boys,74.84,6,Juan de la Cruz,Liberty Hill,74.66,185.97,129.27,174.63,489.88,Single-ply,SBD,M,
Boys,74.84,7,Lavonta Benford,Manor,72.67,192.78,104.33,190.51,487.61,Single-ply,SBD,M,
Boys,74.84,8,Oscar Garza,Elgin,74.57,197.31,102.06,185.97,485.34,Single-ply,SBD,M,
Boys,74.84,9,Ethan Allen,Kyle Lehman,73.21,172.37,113.4,183.7,469.47,Single-ply,SBD,M,
Boys,74.84,10,Colby Johnson,Elgin,70.85,176.9,102.06,176.9,455.86,Single-ply,SBD,M,
Boys,74.84,11,Robert Branch,Lockhart,69.04,158.76,102.06,190.51,451.32,Single-ply,SBD,M,
Boys,74.84,12,Kevin Garza,Kyle Lehman,73.3,188.24,99.79,161.03,449.06,Single-ply,SBD,M,
Boys,74.84,13,Ashton Durst,Buda Johnson,73.48,174.63,92.99,174.63,442.25,Single-ply,SBD,M,
Boys,74.84,14,Raul Villarreal,Buda Hays,72.94,156.49,111.13,167.83,435.45,Single-ply,SBD,M,
Boys,74.84,15,Joseph Nguyen,Pflugerville Connally,71.85,170.1,97.52,165.56,433.18,Single-ply,SBD,M,
Boys,74.84,16,John Wigger,San Marcos,73.57,151.95,95.25,174.63,421.84,Single-ply,SBD,M,
Boys,74.84,17,Luke Huddleston,Liberty Hill,70.67,167.83,92.99,149.69,410.5,Single-ply,SBD,M,
Boys,74.84,18,Jesael Batres,Lockhart,74.12,158.76,74.84,174.63,408.23,Single-ply,SBD,M,
Boys,74.84,19,Greg Davis,Taylor,74.84,124.74,120.2,158.76,403.7,Single-ply,SBD,M,
Boys,74.84,20,Luke Townsend,Bastrop Cedar Creek,70.85,151.95,88.45,158.76,399.16,Single-ply,SBD,M,
Boys,74.84,21,Joseph Rosales,Buda Johnson,71.21,167.83,68.04,163.29,399.16,Single-ply,SBD,M,
Boys,74.84,22,Samuel Machala,Taylor,71.21,136.08,81.65,163.29,381.02,Single-ply,SBD,M,
Boys,74.84,23,Sean McKinney,Lockhart,69.67,136.08,77.11,149.69,362.87,Single-ply,SBD,M,
Boys,74.84,24,Travis Bryant,Austin Lake Travis,74.84,115.67,70.31,124.74,310.71,Single-ply,SBD,M,
Boys,74.84,25,Sebastian Reina,San Marcos,73.57,102.06,70.31,124.74,297.1,Single-ply,SBD,M,
Boys,74.84,DQ,Joshua Tisdale,Hutto,71.58,,,,,Single-ply,SBD,M,
Boys,74.84,DQ,Chandler Brill,Kyle Lehman,72.67,219.99,,,,Single-ply,SBD,M,
Boys,82.1,1,Luis Trujillo,Elgin,81.37,226.8,142.88,226.8,596.47,Single-ply,SBD,M,
Boys,82.1,2,Abdias Castillo,Elgin,81.19,210.92,129.27,219.99,560.19,Single-ply,SBD,M,
Boys,82.1,3,Marcus Oliva,Lockhart,76.02,201.85,145.15,204.12,551.11,Single-ply,SBD,M,
Boys,82.1,4,Devin Owens,Killeen Shoemaker,76.57,204.12,117.93,222.26,544.31,Single-ply,SBD,M,
Boys,82.1,5,Aaron Vega,Elgin,81.01,197.31,133.81,190.51,521.63,Single-ply,SBD,M,
Boys,82.1,6,Bradley Gonzales,Buda Johnson,80.56,199.58,117.93,197.31,514.83,Single-ply,SBD,M,
Boys,82.1,7,Jabrion White,Manor,80.83,195.04,113.4,206.38,514.83,Single-ply,SBD,M,
Boys,82.1,8,Jacob Carter,Buda Johnson,80.38,190.51,106.59,183.7,480.81,Single-ply,SBD,M,
Boys,82.1,9,Allan Romero,Del Valle,82.01,183.7,99.79,190.51,474,Single-ply,SBD,M,
Boys,82.1,10,Joseph Duron,Lockhart,75.93,201.85,83.91,179.17,464.93,Single-ply,SBD,M,
Boys,82.1,11,Sam Heidler,Buda Hays,77.75,176.9,88.45,188.24,453.59,Single-ply,SBD,M,
Boys,82.1,12,Jaeden Wendel,Lockhart,78.47,172.37,90.72,190.51,453.59,Single-ply,SBD,M,
Boys,82.1,13,Cesar Hernandez,Lockhart,78.2,183.7,97.52,170.1,451.32,Single-ply,SBD,M,
Boys,82.1,14,Aden Ramirez,Pflugerville Connally,75.11,174.63,74.84,192.78,442.25,Single-ply,SBD,M,
Boys,82.1,15,Codey Ball,Taylor,75.3,167.83,129.27,136.08,433.18,Single-ply,SBD,M,
Boys,82.1,16,Kendall Contreras,Liberty Hill,75.39,142.88,97.52,185.97,426.38,Single-ply,SBD,M,
Boys,82.1,17,David Ohko,Hutto,79.56,151.95,88.45,151.95,392.36,Single-ply,SBD,M,
Boys,82.1,18,Juan Hernandez,Austin Navarro Early College,80.01,102.06,45.36,136.08,283.5,Single-ply,SBD,M,
Boys,82.1,DQ,John Free Carden,Buda Hays,82.01,210.92,,,,Single-ply,SBD,M,
Boys,82.1,DQ,Jude Dennis,Bastrop,81.92,,,,,Single-ply,SBD,M,
Boys,89.81,1,Christopher Aguirre,Buda Hays,88.9,256.28,147.42,265.35,669.05,Single-ply,SBD,M,
Boys,89.81,2,Seth Sanchez,Kyle Lehman,89.09,238.14,140.61,278.96,657.71,Single-ply,SBD,M,
Boys,89.81,3,Andrew Rodriguez,Kyle Lehman,87.54,254.01,142.88,226.8,623.69,Single-ply,SBD,M,
Boys,89.81,4,Christian Lopez,Bastrop,87.27,219.99,149.69,222.26,591.94,Single-ply,SBD,M,
Boys,89.81,5,Javier Preciado,Hutto,85.09,208.65,138.35,215.46,562.45,Single-ply,SBD,M,
Boys,89.81,6,Logan Gaskey,Bastrop,88.9,197.31,124.74,226.8,548.85,Single-ply,SBD,M,
Boys,89.81,7,Marco Reyes,Kyle Lehman,89.54,192.78,136.08,208.65,537.51,Single-ply,SBD,M,
Boys,89.81,8,Andrew Vargas,Del Valle,85.18,190.51,140.61,185.97,517.1,Single-ply,SBD,M,
Boys,89.81,9,Wyatt Leschber,Dripping Springs,89.81,190.51,113.4,204.12,508.02,Single-ply,SBD,M,
Boys,89.81,10,Kaleb Brown,Del Valle,85.46,190.51,124.74,188.24,503.49,Single-ply,SBD,M,
Boys,89.81,11,Jaden Taylor,Taylor,89.63,183.7,124.74,183.7,492.15,Single-ply,SBD,M,
Boys,89.81,12,Javier Sifuentes,Lockhart,84.55,181.44,106.59,185.97,474,Single-ply,SBD,M,
Boys,89.81,13,Joshua Arispe,Buda Hays,85.82,188.24,111.13,174.63,474,Single-ply,SBD,M,
Boys,89.81,14,Wesley Erwin,Austin Lake Travis,87.09,183.7,115.67,174.63,474,Single-ply,SBD,M,
Boys,89.81,15,Gabriel Arrisola,Kyle Lehman,87.45,156.49,79.38,183.7,419.57,Single-ply,SBD,M,
Boys,89.81,16,Fredi Marin,Austin Navarro Early College,89.27,145.15,92.99,181.44,419.57,Single-ply,SBD,M,
Boys,89.81,17,Billy Tischler,Bastrop,82.28,151.95,95.25,170.1,417.3,Single-ply,SBD,M,
Boys,89.81,18,Thomas Garcia,Lockhart,89.09,142.88,99.79,158.76,401.43,Single-ply,SBD,M,
Boys,89.81,19,Joseph Laine,Buda Hays,87.54,142.88,88.45,163.29,394.63,Single-ply,SBD,M,
Boys,89.81,20,Matthew Moore,Killeen Ellison,86.55,142.88,81.65,158.76,383.29,Single-ply,SBD,M,
Boys,89.81,21,Kendrick Richardson,Bastrop,86.82,142.88,79.38,151.95,374.21,Single-ply,SBD,M,
Boys,89.81,22,Sterling Degeest,Austin Lake Travis,85.82,124.74,102.06,124.74,351.53,Single-ply,SBD,M,
Boys,89.81,23,Chris Parker #4,Killeen Shoemaker,89.54,117.93,88.45,131.54,337.93,Single-ply,SBD,M,
Boys,99.79,1,Cirillo Gonzalez,Manor,95.53,238.14,161.03,256.28,655.44,Single-ply,SBD,M,
Boys,99.79,2,Arik Blanco,Taylor,97.52,247.21,142.88,208.65,598.74,Single-ply,SBD,M,
Boys,99.79,3,James Williams,Killeen Ellison,92.62,233.6,124.74,238.14,596.47,Single-ply,SBD,M,
Boys,99.79,4,Caleb Esparnza,Kyle Lehman,96.52,238.14,131.54,195.04,564.72,Single-ply,SBD,M,
Boys,99.79,5,Roston Razo,Taylor,91.63,201.85,111.13,226.8,539.77,Single-ply,SBD,M,
Boys,99.79,6,Tavi Dunlap,Del Valle,95.07,190.51,131.54,217.72,539.77,Single-ply,SBD,M,
Boys,99.79,7,Avian Veals,Elgin,94.62,190.51,131.54,215.46,537.51,Single-ply,SBD,M,
Boys,99.79,8,Carcello Jones,Del Valle,97.16,197.31,127.01,204.12,528.44,Single-ply,SBD,M,
Boys,99.79,9,Clayton Sherman,Bastrop,95.62,176.9,113.4,197.31,487.61,Single-ply,SBD,M,
Boys,99.79,10,Tristan Boorman,Buda Johnson,93.35,190.51,111.13,172.37,474,Single-ply,SBD,M,
Boys,99.79,11,Seth Chavana,Taylor,97.07,174.63,92.99,183.7,451.32,Single-ply,SBD,M,
Boys,99.79,12,Alex Talavera,Austin Navarro Early College,99.16,149.69,115.67,165.56,430.91,Single-ply,SBD,M,
Boys,99.79,13,Nathan Rodriguez,Buda Hays,98.61,158.76,97.52,170.1,426.38,Single-ply,SBD,M,
Boys,99.79,14,Benjamin Pactanac,San Marcos,99.7,163.29,79.38,174.63,417.3,Single-ply,SBD,M,
Boys,99.79,15,Riley Owen,Lockhart,99.06,151.95,88.45,147.42,387.82,Single-ply,SBD,M,
Boys,99.79,16,Diego Sosa,Lockhart,96.52,136.08,95.25,154.22,385.55,Single-ply,SBD,M,
Boys,99.79,17,Tanner Castillo,Lockhart,96.16,133.81,68.04,149.69,351.53,Single-ply,SBD,M,
Boys,99.79,18,Parker Smith,Hutto,93.26,104.33,74.84,167.83,347,Single-ply,SBD,M,
Boys,99.79,19,Derik Rivas,Lockhart,93.08,138.35,77.11,127.01,342.46,Single-ply,SBD,M,
Boys,99.79,20,Ramon Sánchez,Austin Navarro Early College,93.71,120.2,65.77,142.88,328.85,Single-ply,SBD,M,
Boys,99.79,21,John Biegel,Austin Lake Travis,95.62,102.06,102.06,88.45,292.57,Single-ply,SBD,M,
Boys,99.79,22,Blaine Mueller,Elgin,96.16,102.06,61.23,92.99,256.28,Single-ply,SBD,M,
Boys,99.79,DQ,Fisher Felton,Austin Lake Travis,99.06,,,,,Single-ply,SBD,M,
Boys,99.79,DQ,Ezekiel Sherridan,Killeen Ellison,98.52,,,,,Single-ply,SBD,M,
Boys,99.79,DQ,Isaiah Justice,Killeen Shoemaker,90.9,165.56,,,,Single-ply,SBD,M,
Boys,99.79,DQ,Millicent Grear,Pflugerville Connally,96.52,195.04,,,,Single-ply,SBD,M,
Boys,109.77,1,Tajha Brooks,Manor,105.87,244.94,149.69,260.82,655.44,Single-ply,SBD,M,
Boys,109.77,2,Amir Solomon,Killeen Ellison,107.86,242.67,147.42,249.48,639.57,Single-ply,SBD,M,
Boys,109.77,3,William Rangel,Bastrop Cedar Creek,108.32,263.08,142.88,217.72,623.69,Single-ply,SBD,M,
Boys,109.77,4,Cade Edwards,Bastrop Cedar Creek,107.5,249.48,154.22,213.19,616.89,Single-ply,SBD,M,
Boys,109.77,5,Juan Mora,Hutto,102.97,226.8,124.74,229.06,580.6,Single-ply,SBD,M,
Boys,109.77,6,Nate Erickson,Dripping Springs,106.59,226.8,127.01,197.31,551.11,Single-ply,SBD,M,
Boys,109.77,7,Esau Ortiz,Taylor,103.24,190.51,154.22,192.78,537.51,Single-ply,SBD,M,
Boys,109.77,8,Jose Espinosa,Del Valle,103.69,208.65,131.54,181.44,521.63,Single-ply,SBD,M,
Boys,109.77,9,Case Jordan,Buda Johnson,100.24,210.92,92.99,204.12,508.02,Single-ply,SBD,M,
Boys,109.77,10,Leuntae Glee,Killeen Shoemaker,101.51,206.38,111.13,188.24,505.76,Single-ply,SBD,M,
Boys,109.77,11,Wilfred Minor,Manor,100.33,181.44,106.59,197.31,485.34,Single-ply,SBD,M,
Boys,109.77,12,Nick Hanks,Hutto,103.87,188.24,92.99,181.44,462.66,Single-ply,SBD,M,
Boys,109.77,13,Garrett Zuma,Buda Johnson,105.6,176.9,83.91,183.7,444.52,Single-ply,SBD,M,
Boys,109.77,14,Ben Brezinski,Austin Lake Travis,107.68,154.22,113.4,165.56,433.18,Single-ply,SBD,M,
Boys,109.77,15,Damian Cruz-Galvan,San Marcos,102.6,136.08,74.84,181.44,392.36,Single-ply,SBD,M,
Boys,109.77,16,Gabe Dienhart,Bastrop,102.69,142.88,74.84,165.56,383.29,Single-ply,SBD,M,
Boys,109.77,17,Josh Mireles,Lockhart,105.6,136.08,74.84,151.95,362.87,Single-ply,SBD,M,
Boys,109.77,18,Wilbert Martin,Killeen Shoemaker,105.96,111.13,86.18,145.15,342.46,Single-ply,SBD,M,
Boys,109.77,19,Jack Garner,Dripping Springs,101.88,108.86,65.77,147.42,322.05,Single-ply,SBD,M,
Boys,124.74,1,Ty Thorton,Manor,119.84,226.8,149.69,254.01,630.49,Single-ply,SBD,M,
Boys,124.74,2,Easthan Mendez,San Marcos,124.65,235.87,136.08,242.67,614.62,Single-ply,SBD,M,
Boys,124.74,3,David Sillero,Lockhart,110.22,240.4,165.56,206.38,612.35,Single-ply,SBD,M,
Boys,124.74,4,Audric Hardaway,Manor,122.47,192.78,136.08,226.8,555.65,Single-ply,SBD,M,
Boys,124.74,5,Diego Salazar,Pflugerville Connally,117.21,222.26,102.06,224.53,548.85,Single-ply,SBD,M,
Boys,124.74,6,Andrew Sinor,Bastrop Cedar Creek,122.92,222.26,113.4,204.12,539.77,Single-ply,SBD,M,
Boys,124.74,7,Jordan Moreno,Pflugerville Connally,114.58,204.12,142.88,188.24,535.24,Single-ply,SBD,M,
Boys,124.74,8,Jackson Harrison,Liberty Hill,115.94,229.06,120.2,179.17,528.44,Single-ply,SBD,M,
Boys,124.74,9,Jayen Nguyen,Austin Lake Travis,119.29,206.38,111.13,208.65,526.17,Single-ply,SBD,M,
Boys,124.74,10,Keegan Klaus-Ryan,Liberty Hill,111.49,217.72,133.81,172.37,523.9,Single-ply,SBD,M,
Boys,124.74,11,De'Kedrick Sterns,Del Valle,114.31,185.97,127.01,204.12,517.1,Single-ply,SBD,M,
Boys,124.74,12,Kevin Morales,San Marcos,122.56,197.31,106.59,206.38,510.29,Single-ply,SBD,M,
Boys,124.74,13,Chris Adkins,Killeen Shoemaker,123.65,188.24,92.99,201.85,483.08,Single-ply,SBD,M,
Boys,124.74,14,Braeland Davis,Hutto,114.94,151.95,120.2,149.69,421.84,Single-ply,SBD,M,
Boys,124.74,15,Jaeden Elizondo,Lockhart,121.2,192.78,74.84,149.69,417.3,Single-ply,SBD,M,
Boys,124.74,16,Reginald Porcher,Killeen Ellison,118.21,151.95,113.4,142.88,408.23,Single-ply,SBD,M,
Boys,124.74,17,Alexander Rodman,Elgin,111.58,79.38,63.5,136.08,278.96,Single-ply,SBD,M,
Boys,124.74+,1,Jordan Hood,Elgin,134.17,317.51,188.24,294.84,800.59,Single-ply,SBD,M,
Boys,124.74+,2,Isaiah Samaripa,Lockhart,170.82,317.51,181.44,256.28,755.23,Single-ply,SBD,M,
Boys,124.74+,3,Keanu Ramirez,Killeen Ellison,153.5,240.4,185.97,238.14,664.51,Single-ply,SBD,M,
Boys,124.74+,4,Cedric Truitt,Elgin,126.46,242.67,156.49,254.01,653.17,Single-ply,SBD,M,
Boys,124.74+,5,Victor Evans,Austin Navarro Early College,129.46,226.8,129.27,235.87,591.94,Single-ply,SBD,M,
Boys,124.74+,6,Raul Saucedo,Del Valle,128.28,226.8,149.69,213.19,589.67,Single-ply,SBD,M,
Boys,124.74+,7,Shawn Vega,Taylor,154.86,226.8,154.22,208.65,589.67,Single-ply,SBD,M,
Boys,124.74+,8,Richard Moya,Lockhart,132.99,226.8,154.22,195.04,576.06,Single-ply,SBD,M,
Boys,124.74+,9,Isaiah Arguello,Manor,151.77,219.99,129.27,215.46,564.72,Single-ply,SBD,M,
Boys,124.74+,10,Balmore Palacios,Austin Navarro Early College,128.19,219.99,124.74,206.38,551.11,Single-ply,SBD,M,
Boys,124.74+,11,Reece Kubicek,Austin Lake Travis,144.61,181.44,111.13,167.83,460.4,Single-ply,SBD,M,
Boys,124.74+,12,Devin Saucedo,Taylor,126.64,183.7,90.72,179.17,453.59,Single-ply,SBD,M,
Boys,124.74+,13,Zeon Hodge-King,Pflugerville Connally,141.97,142.88,74.84,142.88,360.61,Single-ply,SBD,M,
Boys,,NS,Armand Kirkland,Pflugerville Connally,,,,,,Single-ply,SBD,M,
Boys,,NS,Seth Aguirre,Hutto,,,,,,Single-ply,SBD,M,
Boys,,NS,Teshawn Byers,Killeen Shoemaker,,,,,,Single-ply,SBD,M,
Boys,,NS,Ruben Jarmillio,Manor,,,,,,Single-ply,SBD,M,
Boys,,NS,Makai Mitchell,Thorndale,,,,,,Single-ply,SBD,M,
Boys,,NS,Tyler Huf,Thorndale,,,,,,Single-ply,SBD,M,
Boys,,NS,Mason Liles,Thorndale,,,,,,Single-ply,SBD,M,
Boys,,NS,Christian Cravens,Bastrop Cedar Creek,,,,,,Single-ply,SBD,M,
Boys,,NS,Carlos Renaud,Elgin,,,,,,Single-ply,SBD,M,
Boys,,NS,Austin Barnum,Elgin,,,,,,Single-ply,SBD,M,
Boys,,NS,Braeden Hewlett,Liberty Hill,,,,,,Single-ply,SBD,M,
Boys,,NS,Connor Stahl,Austin Lake Travis,,,,,,Single-ply,SBD,M,
Boys,,NS,Caleb Flasch,Austin Lake Travis,,,,,,Single-ply,SBD,M,
Boys,,NS,Tyler Miller,Austin Lake Travis,,,,,,Single-ply,SBD,M,
Boys,,NS,Issiah Core,Killeen Ellison,,,,,,Single-ply,SBD,M,
Boys,,NS,Kolby Perronto,Killeen Ellison,,,,,,Single-ply,SBD,M,
Boys,,NS,Issiah Gonzales,Killeen Ellison,,,,,,Single-ply,SBD,M,
Boys,,NS,Damian Rundblad,Pflugerville Connally,,,,,,Single-ply,SBD,M,
Boys,,NS,Tucker Ensigner,Bastrop,,,,,,Single-ply,SBD,M,
Boys,,NS,Jake Lopez,Buda Hays,,,,,,Single-ply,SBD,M,
Boys,,NS,Jason Iwabuchi,Buda Hays,,,,,,Single-ply,SBD,M,
Boys,,NS,Ander Hernandez,Austin Navarro Early College,,,,,,Single-ply,SBD,M,
Boys,,NS,Alex Rojas,Austin Navarro Early College,,,,,,Single-ply,SBD,M,
Boys,,NS,Martin Rivera,Austin Navarro Early College,,,,,,Single-ply,SBD,M,
Boys,,NS,Abraham Morones,Austin Navarro Early College,,,,,,Single-ply,SBD,M,
Boys,,NS,Juan Romero,Austin Navarro Early College,,,,,,Single-ply,SBD,M,
