Sex,Name,State,WeightClassKg,Division,Team,Best3SquatKg,Best3BenchKg,Best3DeadliftKg,TotalKg,Event,Equipment,Place
M,Tyler Brown,MI,52,M-T,Watervliet,70.31,49.9,90.72,210.92,SBD,Single-ply,1
M,Mark Pacheo,MI,52,M-T,Niles,63.5,40.82,81.65,185.97,SBD,Single-ply,2
M,Richard Howard,MI,52,M-T,Watervliet,45.36,29.48,81.65,156.49,SBD,Single-ply,3
M,Ronny Bowman,MI,56,M-T,Horlick,147.42,90.72,170.1,408.23,SBD,Single-ply,1
M,Paul Van Antwerp,MI,56,M-T,Watervliet,83.91,49.9,90.72,224.53,SBD,Single-ply,2
M,Erica Schuelke,MI,56,M-T,Niles,54.43,40.82,79.38,174.63,SBD,Single-ply,3
M,Randy Karas,MI,60,M-T,Horlick,140.61,72.57,188.24,401.43,SBD,Single-ply,1
M,Ryan Warner,MI,60,M-T,Edwardsburg,79.38,72.57,120.2,272.16,SBD,Single-ply,2
M,David Jackson,MI,60,M-T,Niles,92.99,56.7,113.4,263.08,SBD,Single-ply,3
M,Stefan Pacheco,MI,60,M-T,Niles,81.65,61.23,111.13,254.01,SBD,Single-ply,4
M,Kyle Richio,MI,67.5,M-T,Horlick,190.51,102.06,226.8,519.36,SBD,Single-ply,1
M,Mike Steinmetz,MI,67.5,M-T,Horlick,172.37,111.13,195.04,478.54,SBD,Single-ply,2
M,Chris Payen,MI,67.5,M-T,Niles,136.08,88.45,131.54,356.07,SBD,Single-ply,3
M,Johan Black,MI,67.5,M-T,Edwardsburg,122.47,70.31,145.15,337.93,SBD,Single-ply,4
M,Josh Granell,MI,67.5,M-T,Niles,124.74,83.91,127.01,335.66,SBD,Single-ply,5
M,Derrick Platz,MI,67.5,M-T,Edwardsburg,99.79,92.99,142.88,335.66,SBD,Single-ply,6
M,Chad Palmer,MI,67.5,M-T,Watervliet,106.59,86.18,133.81,326.59,SBD,Single-ply,7
M,Mike Travis,MI,67.5,M-T,Watervliet,97.52,63.5,129.27,290.3,SBD,Single-ply,8
M,Joleen Kelch,MI,67.5,M-T,Niles,54.43,34.02,61.23,149.69,SBD,Single-ply,9
M,Brent Holtsclaw,MI,75,M-T,Edwardsburg,129.27,95.25,192.78,417.3,SBD,Single-ply,1
M,Steve Riggs,MI,75,M-T,Watervliet,127.01,90.72,151.95,369.68,SBD,Single-ply,2
M,Chris Schuman,MI,75,M-T,Niles,99.79,92.99,149.69,342.46,SBD,Single-ply,3
M,Rob Deverna,MI,75,M-T,Edwardsburg,111.13,79.38,145.15,335.66,SBD,Single-ply,4
M,Israel Blanco,MI,75,M-T,Watervliet,115.67,74.84,138.35,328.85,SBD,Single-ply,5
M,Dustin Locey,MI,75,M-T,Edwardsburg,111.13,81.65,129.27,322.05,SBD,Single-ply,6
M,Jason Elliot,MI,75,M-T,Watervliet,99.79,70.31,147.42,317.51,SBD,Single-ply,7
M,Joe Hartman,MI,75,M-T,Buchanan,97.52,70.31,131.54,299.37,SBD,Single-ply,8
M,Richard Locey,MI,75,M-T,Edwardsburg,113.4,102.06,61.23,276.69,SBD,Single-ply,9
M,Aaron Smith,MI,75,M-T,Niles,92.99,70.31,102.06,265.35,SBD,Single-ply,10
M,Joe Williams,MI,75,M-Jr,Ball St.,167.83,140.61,179.17,487.61,SBD,Single-ply,1
M,James Yeats,MI,75,M-M,,154.22,104.33,204.12,462.66,SBD,Single-ply,1
M,Dustin Teter,MI,82.5,M-T,Watervliet,127.01,108.86,181.44,417.3,SBD,Single-ply,1
M,Jeff Mendenhall,MI,82.5,M-T,Edwardsburg,113.4,90.72,165.56,369.68,SBD,Single-ply,2
M,Blake Paturaski,MI,82.5,M-T,Edwardsburg,113.4,97.52,154.22,365.14,SBD,Single-ply,3
M,Zack Pegura,MI,82.5,M-T,Edwardsburg,106.59,92.99,147.42,347,SBD,Single-ply,4
M,Lee Smith,MI,82.5,M-T,Watervliet,92.99,79.38,104.33,276.69,SBD,Single-ply,5
M,Jeremy Welu,MI,82.5,M-Jr,Ball St.,176.9,122.47,226.8,526.17,SBD,Single-ply,1
M,Al Davis,MI,82.5,M-Jr,Ball St.,185.97,127.01,206.38,519.36,SBD,Single-ply,2
M,Mike Sanchez,MI,90,M-T,Horlick,229.06,142.88,229.06,601.01,SBD,Single-ply,1
M,Nick Merrick,MI,90,M-T,Edwardsburg,124.74,92.99,158.76,376.48,SBD,Single-ply,2
M,Dan Cornwell,MI,90,M-T,Buchanan,115.67,83.91,158.76,358.34,SBD,Single-ply,3
M,Rob Schuelke,MI,90,M-T,Niles,122.47,81.65,136.08,340.19,SBD,Single-ply,4
M,Curtis Fleming,MI,90,M-T,Watervliet,113.4,74.84,136.08,324.32,SBD,Single-ply,5
M,Dustin Bates,MI,90,M-T,Edwardsburg,106.59,72.57,138.35,317.51,SBD,Single-ply,6
M,David Hill,MI,90,M-T,Watervliet,95.25,83.91,127.01,306.17,SBD,Single-ply,7
M,Matt Winnell,MI,90,M-T,Watervliet,83.91,74.84,108.86,267.62,SBD,Single-ply,8
M,Darryl Nelson,MI,90,M-O,,233.6,131.54,231.33,596.47,SBD,Single-ply,1
M,Ken Mullholland,MI,90,M-M,,170.1,124.74,192.78,487.61,SBD,Single-ply,1
M,Jimmy Anderson,MI,100,M-T,Niles,142.88,97.52,136.08,376.48,SBD,Single-ply,1
M,Brian Geibe,MI,110,M-T,Watervliet,147.42,104.33,192.78,444.52,SBD,Single-ply,1
M,Caleb Clingenreel,MI,110,M-T,Edwardsburg,131.54,90.72,181.44,403.7,SBD,Single-ply,2
M,Bryant Stevens,MI,110,M-T,Watervliet,106.59,99.79,129.27,335.66,SBD,Single-ply,3
M,Matt Ford,MI,110,M-T,Buchanan,113.4,83.91,136.08,333.39,SBD,Single-ply,4
M,Sean Carmody,MI,110,M-T,Niles,72.57,70.31,124.74,267.62,SBD,Single-ply,5
M,Tony Arterburn,MI,110,M-Jr,Military,263.08,199.58,263.08,725.75,SBD,Single-ply,1
M,Joey Alexander,MI,125,M-T,Niles,104.33,90.72,158.76,353.8,SBD,Single-ply,1
M,Jake Pletcher,MI,145,M-T,Niles,192.78,117.93,188.24,498.95,SBD,Single-ply,1
M,Travis Buttin,MI,145,M-Jr,Ball St.,308.44,185.97,263.08,757.5,SBD,Single-ply,1
M,Nick Berger,MI,145+,M-T,Edwardsburg,151.95,102.06,199.58,453.59,SBD,Single-ply,1
