Name,Age,Sex,Division,Tested,Event,Equipment,BodyweightKg,WeightClassKg,Squat1Kg,Squat2Kg,Squat3Kg,Best3SquatKg,Bench1Kg,Bench2Kg,Bench3Kg,Best3BenchKg,Deadlift1Kg,Deadlift2Kg,Deadlift3Kg,Best3DeadliftKg,TotalKg,Team,Place
Dick Zenzen,55,M,MM4-AD,Yes,SBD,Multi-ply,98.02,100,275,-295,307.5,307.5,125,145,-165,145,160,190,230,230,682.5,Zenzen Barbell,1
Bruce McCord,46,M,MM2-AD,Yes,SBD,Multi-ply,99.2,100,260,-285,-285,260,185,195,-200,195,235,250,-257.5,250,705,Zenzen Barbell,1
Tony Quatrochi,40,M,MM1-AD,Yes,SBD,Multi-ply,82.42,82.5,205,220,-230,220,102.5,110,115,115,200,212.5,-220,212.5,547.5,Team Carpenter,1
Mark Hibbing,39,M,MS-AD,Yes,SBD,Multi-ply,81.19,82.5,-245,-245,245,245,125,-145,-147.5,125,-195,195,-227.5,195,565,Zenzen Barbell,1
Ernie Lilliebridge Jr,20,M,MJ-AD,Yes,SBD,Multi-ply,100,100,300,322.5,337.5,337.5,200,215,227.5,227.5,250,275,-287.5,275,840,Zenzen Barbell,1
Zach Zenzen,19,M,MT3-AD,Yes,SBD,Multi-ply,99.79,100,300,-322.5,-322.5,300,195,210,215,215,250,275,-282.5,275,790,Zenzen Barbell,2
Jason Harris,31,M,MO-AD,Yes,SBD,Multi-ply,96.39,100,190,200,205,205,115,120,137.5,137.5,190,200,210,210,552.5,,1
Mark Hibbing,39,M,MO-AD,Yes,SBD,Multi-ply,81.19,82.5,-245,-245,245,245,125,-145,-147.5,125,-195,195,-227.5,195,565,Zenzen Barbell,1
Tony Quatrochi,40,M,MO-AD,Yes,SBD,Multi-ply,82.42,82.5,205,220,-230,220,102.5,110,115,115,200,212.5,-220,212.5,547.5,Team Carpenter,2
Billy Boyce,57,M,MM4,No,SBD,Multi-ply,95.62,100,147.5,-152.5,-152.5,147.5,152.5,170,,170,172.5,182.5,192.5,192.5,510,Team Carpenter,1
Ernie Lilliebridge Sr,36,M,MS,No,SBD,Multi-ply,139.98,140,385,410,-427.5,410,-275,275,-280,275,305,332.5,352.5,352.5,1037.5,Zenzen Barbell,1
Chris Carter,37,M,MS,No,SBD,Multi-ply,105.6,110,297.5,322.5,-342.5,322.5,-210,210,227.5,227.5,217.5,240,262.5,262.5,812.5,ISU,1
Matt Sahlfeld,22,M,MJ,No,SBD,Multi-ply,98.02,100,335,350,,350,230,235,-237.5,235,282.5,-290,290,290,875,Big iron Gym,1
Jake Baker,20,M,MJ,No,SBD,Multi-ply,98.02,100,240,255,272.5,272.5,170,182.5,192.5,192.5,217.5,232.5,250,250,715,Team Carpenter,2
Michael Evans,22,M,MJ,No,SBD,Multi-ply,99.61,100,177.5,190,-195,190,122.5,-135,-135,122.5,192.5,205,-210,205,517.5,,3
Eric Lilliebridge,17,M,MT2,No,SBD,Multi-ply,99.2,100,300,322.5,327.5,327.5,147.5,160,170,170,250,272.5,295,295,792.5,Zenzen Barbell,1
Ernie Lilliebridge Sr,36,M,MO,No,SBD,Multi-ply,132.77,140,385,410,-427.5,410,-275,275,-280,275,305,332.5,352.5,352.5,1037.5,Zenzen Barbell,1
Jose Garcia,30,M,MO,No,SBD,Multi-ply,115.62,125,-447.5,447.5,-462.5,447.5,250,-270,-282.5,250,342.5,365,-372.5,365,1062.5,,1
Jeremy Frey,26,M,MO,No,SBD,Multi-ply,109,110,390,410,-430,410,-290,-290,290,290,287.5,320,332.5,332.5,1032.5,Cornell College,1
Corey Akers,32,M,MO,No,SBD,Multi-ply,106.41,110,410,422.5,-440,422.5,272.5,287.5,-290,287.5,272.5,-305,-317.5,272.5,982.5,Zenzen Barbell,2
Vladimir Venglovschi,28,M,MO,No,SBD,Multi-ply,95.21,100,350,370,-390,370,220,230,235,235,325,340,-350,340,945,Tiraspol Powerlifting Team,1
Tory Judd,35,M,MO,No,SBD,Multi-ply,95.21,100,345,365,372.5,372.5,255,-262.5,262.5,262.5,280,290,295,295,930,Big Iron Gym,2
Landon Evans,26,M,MO,No,SBD,Multi-ply,89.22,90,280,297.5,312.5,312.5,190,210,-225,210,240,260,-287.5,260,782.5,ISU,1
Stanton Schneider,34,M,MO,No,SBD,Multi-ply,80.2,82.5,150,-202.5,-250,150,-102.5,-107.5,115,115,135,180,-230,180,445,Bettendorf YMCA,1
Seaver Mattison,20,M,MJ-AD,Yes,SBD,Multi-ply,66,67.5,-227.5,-227.5,-227.5,,150,-160,160,160,-195,195,-217.5,195,,Zenzen Barbell,DQ
Roger Hennigar,43,M,MM1,No,SBD,Multi-ply,89.99,90,232.5,242.5,250,250,-235,-242.5,-242.5,,,,,,,,DQ
Patti Cartee,37,F,FS-AD,Yes,B,Multi-ply,43,44,,,,,55,67.5,-70,67.5,,,,,67.5,Zenzen Barbell,1
Teresa Putchio,34,F,FO-AD,Yes,B,Multi-ply,48.99,52,,,,,92.5,-100,-100,92.5,,,,,92.5,Team Carpenter,1
Michael Happach,41,M,MM1-AD,Yes,B,Multi-ply,88.99,90,,,,,-160,160,-165,160,,,,,160,,1
Al Willie,34,M,MS-AD,Yes,B,Multi-ply,88.99,90,,,,,230,237.5,-247.5,237.5,,,,,237.5,,1
Jason Carson,34,M,MS-AD,Yes,B,Multi-ply,88.41,90,,,,,215,232.5,-240,232.5,,,,,232.5,Tadow Gym,2
John Hefel,17,M,MT2-AD,Yes,B,Multi-ply,108.59,110,,,,,-175,175,-182.5,175,,,,,175,Team Carpenter,1
Jerrod Dotson,24,M,MO-AD,Yes,B,Multi-ply,158.39,140+,,,,,195,-202.5,-202.5,195,,,,,195,,1
Tommy Harrison,34,M,MO-AD,Yes,B,Multi-ply,123.01,125,,,,,372.5,-420,-427.5,372.5,,,,,372.5,Gladiator Powerlifting,1
Jason Carson,34,M,MO-AD,Yes,B,Multi-ply,88.41,90,,,,,215,232.5,-240,232.5,,,,,232.5,Tadow Gym,1
Mark Thompson #2,19,M,MO-AD,Yes,B,Multi-ply,57.79,60,,,,,-107.5,110,-115,110,,,,,110,,1
Billy Boyce,57,M,MM4,No,B,Multi-ply,95.62,100,,,,,152.5,170,,170,,,,,170,Team Carpenter,1
Steve Egli,52,M,MM3,No,B,Multi-ply,89.58,90,,,,,170,177.5,-190,177.5,,,,,177.5,Pop's Gym,1
Scott Nutter,40,M,MM1,No,B,Multi-ply,204.62,140+,,,,,275,-287.5,-287.5,275,,,,,275,,1
Rob Kolberer,42,M,MM1,No,B,Multi-ply,139.21,140,,,,,-260,275,285,285,,,,,285,,1
John Berding,41,M,MM1,No,B,Multi-ply,97.48,100,,,,,272.5,277.5,285,285,,,,,285,,1
Dale Schmidtke,41,M,MM1,No,B,Multi-ply,99.02,100,,,,,-182.5,182.5,-192.5,182.5,,,,,182.5,,2
James Sorrell,48,M,MM2,No,B,Multi-ply,82.19,82.5,,,,,215,227.5,230,230,,,,,230,Big Iron Gym,1
John Chrencik,43,M,MM1,No,B,Multi-ply,74.98,75,,,,,-165,165,175,175,,,,,175,,1
Gary Reichert,47,M,MM2,No,B,Multi-ply,74.98,75,,,,,160,-175,-175,160,,,,,160,,2
Ryan Murphy,35,M,MS,No,B,Multi-ply,132.4,140,,,,,200,207.5,215,215,,,,,215,Two Rivers YMCA,1
Stanley Tomaszkiewicz,38,M,MS,No,B,Multi-ply,97.2,100,,,,,-220,220,230,230,,,,,230,Two Rivers YMCA,1
Brandon Roberts,20,M,MJ,No,B,Multi-ply,121.02,125,,,,,155,-165,165,165,,,,,165,,1
Dave Nelson,19,M,MT3,No,B,Multi-ply,79.2,82.5,,,,,197.5,-227.5,227.5,227.5,,,,,227.5,,1
Wes Merrill,30,M,MO,No,B,Multi-ply,137.98,140,,,,,355,-367.5,-367.5,355,,,,,355,Big Iron Gym,1
Mat Hobmeier,25,M,MO,No,B,Multi-ply,128.41,140,,,,,300,-325,-325,300,,,,,300,,2
Ryan Murphy,35,M,MO,No,B,Multi-ply,132.4,140,,,,,200,207.5,215,215,,,,,215,Two Rivers YMCA,3
Scott Barnes,39,M,MO,No,B,Multi-ply,125,125,,,,,275,285,287.5,287.5,,,,,287.5,Big Iron Gym,1
Dan Gross,29,M,MO,No,B,Multi-ply,121.2,125,,,,,275,282.5,285,285,,,,,285,Big Iron Gym,2
Richie Briggs,23,M,MO,No,B,Multi-ply,110,110,,,,,-370,370,380,380,,,,,380,Big Iron Gym,1
Jake Prazak,30,M,MO,No,B,Multi-ply,107,110,,,,,332.5,-345,345,345,,,,,345,,2
Jakob Cook,28,M,MO,No,B,Multi-ply,108.41,110,,,,,260,272.5,285,285,,,,,285,Big Iron Gym,3
Luke Tigges,28,M,MO,No,B,Multi-ply,110,110,,,,,-265,265,-272.5,265,,,,,265,Team Carpenter,4
Jacob Schmidt,24,M,MO,No,B,Multi-ply,98.02,100,,,,,215,230,235,235,,,,,235,Big Iron Gym,1
Mike Strom,27,M,MO,No,B,Multi-ply,82.5,82.5,,,,,237.5,250,255,255,,,,,255,Industrial Strength,1
Pete Thompson,25,M,MO-AD,Yes,B,Multi-ply,64,67.5,,,,,-110,-110,-110,,,,,,,,DQ
Adrian Gutierrez Jr,18,M,MT3-AD,Yes,B,Multi-ply,66.41,67.5,,,,,-142.5,-142.5,-147.5,,,,,,,Industrial Strength,DQ
Stewart Drake,41,M,MM1,No,B,Multi-ply,108.41,110,,,,,-265,-265,-265,,,,,,,,DQ
Randy Biggiam,43,M,MO-AD,Yes,B,Multi-ply,107.41,110,,,,,-247.5,-247.5,,,,,,,,Mustang Power Team,DQ
Roger Ryan,52,M,MM3-AD,Yes,B,Multi-ply,122.61,125,,,,,-295,-295,-317.5,,,,,,,Lockup Gym,DQ
Rob Luyando,37,M,MO,No,B,Multi-ply,120.02,125,,,,,-400,-420,-422.5,,,,,,,Team Carpenter,DQ
Robert Vick,34,M,MO,No,B,Multi-ply,168.19,140+,,,,,-365,-420,-442.5,,,,,,,Gladiator Powerlifting,DQ
Charlie Kadrlik,33,M,MS,No,B,Multi-ply,195,140+,,,,,-290,-290,,,,,,,,Elite Barbell,DQ
Roger Hennigar,43,M,MM1,No,B,Multi-ply,89.99,90,,,,,-235,-242.5,-242.5,,,,,,,,DQ
Amanda Quatrochi,15,F,FT1-AD,Yes,BD,Multi-ply,55.79,56,,,,,55,60,-70,60,92.5,105,-110,105,165,Team Carpenter,1
James Robinson,44,M,MM1-AD,Yes,BD,Multi-ply,171.19,140+,,,,,205,215,227.5,227.5,215,235,240,240,467.5,,1
Rod Bauer,45,M,MM2-AD,Yes,BD,Multi-ply,99.38,100,,,,,195,205,-210,205,205,217.5,-227.5,217.5,422.5,Big Iron Gym,1
Beau Syas,19,M,MT3-AD,Yes,BD,Multi-ply,105.6,110,,,,,167.5,-182.5,182.5,182.5,170,192.5,-205,192.5,375,Big Iron Gym,1
Billy Boyce,57,M,MM4,No,BD,Multi-ply,95.62,100,,,,,152.5,170,,170,172.5,182.5,192.5,192.5,362.5,Team Carpenter,1
Charles Morse,41,M,MM1,No,BD,Multi-ply,66.18,67.5,,,,,137.5,152.5,-157.5,152.5,125,205,-215,205,357.5,Zenzen Barbell,1
Dustin Leibfried,21,M,MJ,No,BD,Multi-ply,66.41,67.5,,,,,175,-182.5,-182.5,175,-217.5,222.5,232.5,232.5,407.5,Team Carpenter,1
Mike Wilcoxon,,M,MO,No,BD,Multi-ply,108,110,,,,,215,227.5,-230,227.5,305,315,320,320,547.5,Big Iron Gym,1
Rob Luyando,37,M,MO,No,BD,Multi-ply,120.02,125,,,,,400,,,400,282.5,,,282.5,682.5,Team Carpenter,1
Amanda Quatrochi,15,F,FT1-AD,Yes,D,Multi-ply,55.79,56,,,,,,,,,92.5,105,-110,105,105,Team Carpenter,1
