Place,Name,Sex,Event,Division,WeightClassKg,Equipment,BirthYear,Team,State,BodyweightKg,Squat1Kg,Squat2Kg,Squat3Kg,Best3SquatKg,Bench1Kg,Bench2Kg,Bench3Kg,Best3BenchKg,Deadlift1Kg,Deadlift2Kg,Deadlift3Kg,Best3DeadliftKg,TotalKg,Age,BirthDate
1,Jasmen Godfrey,F,SBD,F-HS,43,Single-ply,2005,Necedah Powerlifting,WI,42.9,82.5,87.5,92.5,92.5,40,45,47.5,47.5,85,92.5,100,100,240,,
2,Rhyana Herrmann,F,SBD,F-HS,43,Single-ply,2004,Necedah Powerlifting,WI,42.7,70,75,82.5,82.5,37.5,40,42.5,42.5,77.5,85,-92.5,85,210,,
3,Alisha Kulkarni,F,SBD,F-HS,43,Single-ply,2002,Germantown Powerlifting,WI,38.3,-70,70,-82.5,70,35,-37.5,-37.5,35,87.5,95,-105,95,200,,
1,Emily Michalzik,F,SBD,F-HS,52,Single-ply,2004,,WI,50.3,110,117.5,125,125,40,42.5,45,45,112.5,122.5,130,130,300,,
2,Abigail Ramsey,F,SBD,F-HS,52,Single-ply,2004,,WI,51.25,102.5,-110,110,110,42.5,-47.5,47.5,47.5,95,107.5,112.5,112.5,270,,
3,Brianna Strickland,F,SBD,F-HS,52,Single-ply,2003,,WI,50.6,97.5,-105,107.5,107.5,37.5,40,42.5,42.5,92.5,102.5,112.5,112.5,262.5,,
4,Glenna Novotny,F,SBD,F-HS,52,Single-ply,2004,Necedah Powerlifting,WI,47.25,77.5,85,95,95,40,42.5,45,45,85,95,-102.5,95,235,,
5,Caly Kobs,F,SBD,F-HS,52,Single-ply,2003,Necedah Powerlifting,WI,52,85,90,-102.5,90,35,40,47.5,47.5,87.5,95,-100,95,232.5,,
6,Mai See Xiong,F,SBD,F-HS,52,Single-ply,2005,,WI,47.2,80,-85,85,85,37.5,40,-42.5,40,82.5,-100,100,100,225,,
1,Victoria Pogorzelski,F,SBD,F-HS,57,Single-ply,2004,A-F Powerlifting,WI,55.5,-120,120,130,130,60,65,70,70,127.5,132.5,140,140,340,,
2,Tapenga Tegelman,F,SBD,F-HS,57,Single-ply,2003,Necedah Powerlifting,WI,55.5,117.5,125,-127.5,125,60,65,70,70,120,125,130,130,325,,
3,Abigail Schuerman,F,SBD,F-HS,57,Single-ply,2004,,WI,55.65,115,125,130,130,60,65,-70,65,115,127.5,-135,127.5,322.5,,
4,Sara Bollendorf,F,SBD,F-HS,57,Single-ply,2001,,WI,54.2,102.5,110,-120,110,57.5,62.5,65,65,115,122.5,132.5,132.5,307.5,,
5,Molly Wysocky,F,SBD,F-HS,57,Single-ply,2005,A-F Powerlifting,WI,53.8,-97.5,97.5,105,105,45,-50,50,50,102.5,107.5,122.5,122.5,277.5,,
6,Samantha Bodi,F,SBD,F-HS,57,Single-ply,2005,Necedah Powerlifting,WI,55.2,-107.5,107.5,117.5,117.5,40,-45,45,45,102.5,110,115,115,277.5,,
1,Angelina Battige,F,SBD,F-HS,63,Single-ply,2004,A-F Powerlifting,WI,58.35,185,190,195,195,92.5,97.5,102.5,102.5,185,190,-195,190,487.5,,
2,Brooklyn Stroik,F,SBD,F-HS,63,Single-ply,2005,Germantown Powerlifting,WI,62.25,-142.5,142.5,-155,142.5,87.5,95,-97.5,95,120,130,-135,130,367.5,,
3,Hailey Hessler,F,SBD,F-HS,63,Single-ply,2003,Germantown Powerlifting,WI,58.05,140,150,-155,150,67.5,-72.5,-72.5,67.5,130,140,-145,140,357.5,,
4,Kayelyn Hadley,F,SBD,F-HS,63,Single-ply,2002,Necedah Powerlifting,WI,59.7,120,127.5,137.5,137.5,50,55,57.5,57.5,120,127.5,135,135,330,,
5,Haleigh Calaway,F,SBD,F-HS,63,Single-ply,2002,Necedah Powerlifting,WI,61.65,122.5,130,132.5,132.5,55,57.5,60,60,125,130,135,135,327.5,,
6,Riley Ganther,F,SBD,F-HS,63,Single-ply,2001,Necedah Powerlifting,WI,59.6,127.5,132.5,135,135,52.5,55,60,60,120,125,-135,125,320,,
7,Samantha Benz,F,SBD,F-HS,63,Single-ply,2002,,WI,59.2,-112.5,112.5,125,125,57.5,62.5,67.5,67.5,110,117.5,-127.5,117.5,310,,
8,Allison Lucier,F,SBD,F-HS,63,Single-ply,2003,Necedah Powerlifting,WI,57.1,112.5,117.5,-122.5,117.5,52.5,57.5,60,60,110,115,-120,115,292.5,,
9,Arabella Husson,F,SBD,F-HS,63,Single-ply,2002,,WI,58.2,102.5,110,115,115,45,47.5,-50,47.5,102.5,110,-115,110,272.5,,
DQ,Brianna Stehling,F,SBD,F-HS,63,Single-ply,2002,,WI,59.9,-122.5,-122.5,-122.5,,57.5,62.5,-70,62.5,112.5,120,-130,120,,,
1,Machaela Exner,F,SBD,F-HS,72,Single-ply,2001,Necedah Powerlifting,WI,65.2,172.5,182.5,195,195,82.5,90,-95,90,170,180,185,185,470,,
2,Anna Renner,F,SBD,F-HS,72,Single-ply,2003,Necedah Powerlifting,WI,68.55,142.5,152.5,160,160,-62.5,62.5,67.5,67.5,142.5,150,152.5,152.5,380,,
3,Anna Zavala,F,SBD,F-HS,72,Single-ply,2004,Necedah Powerlifting,WI,65.25,125,130,137.5,137.5,62.5,67.5,75,75,115,125,-130,125,337.5,,
4,Emma Mcfarland,F,SBD,F-HS,72,Single-ply,2003,,WI,66.2,-120,122.5,132.5,132.5,50,52.5,57.5,57.5,125,-132.5,135,135,325,,
5,Lexi Kobs,F,SBD,F-HS,72,Single-ply,2005,Necedah Powerlifting,WI,65,115,120,130,130,50,55,-57.5,55,-120,125,-130,125,310,,
1,Delilah Burgos,F,SBD,F-HS,84,Single-ply,2002,,WI,83.95,187.5,192.5,197.5,197.5,95,100,105,105,137.5,150,-162.5,150,452.5,,
2,Madelynn Mcfarland,F,SBD,F-HS,84,Single-ply,2001,,WI,81.35,162.5,172.5,182.5,182.5,42.5,67.5,72.5,72.5,137.5,147.5,152.5,152.5,407.5,,
3,Abigail Liker,F,SBD,F-HS,84,Single-ply,2003,Germantown Powerlifting,WI,73.8,152.5,-160,-160,152.5,65,-67.5,67.5,67.5,137.5,147.5,152.5,152.5,372.5,,
4,Elena Marquez,F,SBD,F-HS,84,Single-ply,2001,Necedah Powerlifting,WI,73.9,127.5,137.5,142.5,142.5,77.5,85,90,90,120,130,140,140,372.5,,
5,Makenzie Exner,F,SBD,F-HS,84,Single-ply,2002,Necedah Powerlifting,WI,81.3,127.5,135,-145,135,52.5,55,60,60,127.5,137.5,142.5,142.5,337.5,,
6,Alissa Saunders,F,SBD,F-HS,84,Single-ply,2003,Necedah Powerlifting,WI,78.3,-125,-125,125,125,60,65,70,70,127.5,137.5,-142.5,137.5,332.5,,
7,Jasmine Popp,F,SBD,F-HS,84,Single-ply,2002,Necedah Powerlifting,WI,73.6,132.5,137.5,-140,137.5,60,65,72.5,72.5,105,112.5,-117.5,112.5,322.5,,
8,Avery Dunlap,F,SBD,F-HS,84,Single-ply,2005,Germantown Powerlifting,WI,83,137.5,-150,-150,137.5,-55,55,-60,55,110,117.5,125,125,317.5,,
1,Chloe Cooper,F,SBD,F-HS,84+,Single-ply,2004,,WI,84.85,170,-180,-180,170,85,90,-97.5,90,135,145,155,155,415,,
2,Zada Radcliffe,F,SBD,F-HS,84+,Single-ply,2003,Necedah Powerlifting,WI,108.95,162.5,170,175,175,70,75,77.5,77.5,127.5,137.5,142.5,142.5,395,,
3,Maddison Gister,F,SBD,F-HS,84+,Single-ply,2003,,WI,119.45,135,150,155,155,70,75,-80,75,132.5,147.5,152.5,152.5,382.5,,
4,Abigail Kreger,F,SBD,F-HS,84+,Single-ply,2004,A-F Powerlifting,WI,87.8,152.5,-157.5,157.5,157.5,75,82.5,-87.5,82.5,127.5,-142.5,-142.5,127.5,367.5,,
5,Marianna Chavez,F,SBD,F-HS,84+,Single-ply,2004,,WI,91.55,142.5,152.5,160,160,-70,70,-77.5,70,125,137.5,-142.5,137.5,367.5,,
6,Adara Johnson,F,SBD,F-HS,84+,Single-ply,2003,,WI,129.75,140,150,160,160,52.5,77.5,82.5,82.5,120,-135,-135,120,362.5,,
7,Tiffany Hatfield,F,SBD,F-HS,84+,Single-ply,2002,Mauston Powerlifting,WI,130.5,135,-145,145,145,52.5,60,65,65,130,145,-155,145,355,,
8,Arabella Gelhaar,F,SBD,F-HS,84+,Single-ply,2005,Germantown Powerlifting,WI,89.95,132.5,142.5,150,150,57.5,62.5,-67.5,62.5,125,135,137.5,137.5,350,,
9,Christina Scurto,F,SBD,F-HS,84+,Single-ply,2002,A-F Powerlifting,WI,104.9,-145,-145,145,145,40,47.5,-52.5,47.5,137.5,150,155,155,347.5,,
1,Kayda Lopez,F,SBD,FR-HS,43,Raw,2003,Laconia Powerlifting Club,WI,42.6,82.5,87.5,-92.5,87.5,32.5,35,-37.5,35,95,102.5,107.5,107.5,230,,
2,Carmen Hernandez,F,SBD,FR-HS,43,Raw,2003,Mauston Powerlifting,WI,38.65,50,-57.5,57.5,57.5,30,32.5,-35,32.5,82.5,87.5,95,95,185,,
3,Paige Lyons,F,SBD,FR-HS,43,Raw,2002,Necedah Powerlifting,WI,43,52.5,55,-57.5,55,30,-32.5,32.5,32.5,77.5,87.5,92.5,92.5,180,,
4,Andrea Laehn,F,SBD,FR-HS,43,Raw,2005,,WI,36.8,55,-60,60,60,25,-27.5,-27.5,25,60,70,77.5,77.5,162.5,,
1,Laylue Kue,F,SBD,FR-HS,47,Raw,2001,Elk Mound High School,WI,46.45,67.5,-72.5,72.5,72.5,37.5,-40,-40,37.5,100,105,-107.5,105,215,,
2,Rhea Warner,F,SBD,FR-HS,47,Raw,2004,New Richmond Tigers,WI,46.6,72.5,77.5,-82.5,77.5,-35,35,37.5,37.5,90,95,-102.5,95,210,,
3,Anna Anderson,F,SBD,FR-HS,47,Raw,2003,River Falls Powerlifting,WI,45.8,60,67.5,72.5,72.5,42.5,-45,-45,42.5,77.5,-90,90,90,205,,
4,Maddie Henderson,F,SBD,FR-HS,47,Raw,2002,,WI,44.8,52.5,57.5,60,60,35,37.5,40,40,80,87.5,92.5,92.5,192.5,,
5,Abigail Oehmcke,F,SBD,FR-HS,47,Raw,2004,Laconia Powerlifting Club,WI,46.15,72.5,75,77.5,77.5,32.5,-35,35,35,72.5,75,-77.5,75,187.5,,
6,Bethany Kurshinsky,F,SBD,FR-HS,47,Raw,2004,,WI,46.9,50,57.5,-60,57.5,30,32.5,35,35,80,87.5,92.5,92.5,185,,
7,Hailey Eggen,F,SBD,FR-HS,47,Raw,2004,River Falls Powerlifting,WI,43.75,52.5,57.5,-62.5,57.5,30,32.5,-35,32.5,77.5,85,-95,85,175,,
8,Aspen Linjer,F,SBD,FR-HS,47,Raw,2003,Manawa,WI,46.8,52.5,-57.5,57.5,57.5,27.5,32.5,-37.5,32.5,72.5,77.5,82.5,82.5,172.5,,
DQ,Madelyn Leavitt,F,SBD,FR-HS,47,Raw,2003,North Fon du Lac,WI,43.7,-55,-60,-60,,32.5,-35,-35,32.5,65,70,-75,70,,,
1,Vanessa Laundrie,F,SBD,FR-HS,52,Raw,2001,Xavier High School,WI,51.3,97.5,-100,100,100,40,45,-47.5,45,102.5,107.5,110,110,255,,
2,Ashley Wisnefske,F,SBD,FR-HS,52,Raw,2004,Winneconne,WI,50.9,80,85,-90,85,42.5,-50,-50,42.5,102.5,110,112.5,112.5,240,,
3,Emma Forst,F,SBD,FR-HS,52,Raw,2004,,WI,49.1,80,85,-90,85,47.5,-55,-55,47.5,97.5,100,102.5,102.5,235,,
4,Clare Hallum,F,SBD,FR-HS,52,Raw,2002,Elk Mound High School,WI,50.5,80,-85,-85,80,40,-42.5,-42.5,40,-110,110,-117.5,110,230,,
5,Beth Schaal,F,SBD,FR-HS,52,Raw,2003,,WI,51.5,67.5,72.5,-75,72.5,40,-45,-45,40,97.5,102.5,115,115,227.5,,
6,Rylee Ladd,F,SBD,FR-HS,52,Raw,2004,,WI,52,-67.5,67.5,-72.5,67.5,42.5,45,47.5,47.5,102.5,107.5,112.5,112.5,227.5,,
7,Hannah Halkowski,F,SBD,FR-HS,52,Raw,2002,Waterford Union High School,WI,50.55,-72.5,72.5,-77.5,72.5,37.5,40,-42.5,40,105,107.5,-112.5,107.5,220,,
8,Maria Horvath,F,SBD,FR-HS,52,Raw,2002,Laconia Powerlifting Club,WI,51.45,77.5,82.5,-85,82.5,37.5,-42.5,-42.5,37.5,90,95,100,100,220,,
9,Brianna Wilman,F,SBD,FR-HS,52,Raw,2005,,WI,48.75,-92.5,-92.5,92.5,92.5,35,40,-42.5,40,75,80,82.5,82.5,215,,
10,Nanya Kue,F,SBD,FR-HS,52,Raw,2003,Elk Mound High School,WI,51.1,-75,75,-80,75,40,-42.5,-42.5,40,100,-105,-105,100,215,,
11,Peyton Meyers,F,SBD,FR-HS,52,Raw,2001,Elk Mound High School,WI,51.5,62.5,65,67.5,67.5,35,37.5,-40,37.5,95,102.5,110,110,215,,
12,Eliana Fall,F,SBD,FR-HS,52,Raw,2002,New Richmond Tigers,WI,52,80,85,-87.5,85,30,32.5,-35,32.5,90,95,-100,95,212.5,,
13,Alyssa Braun,F,SBD,FR-HS,52,Raw,2003,North Fon du Lac,WI,50.4,-80,82.5,-90,82.5,35,37.5,-42.5,37.5,85,-90,-90,85,205,,
14,Izabella Goland,F,SBD,FR-HS,52,Raw,2001,Winneconne,WI,49.7,75,-80,-82.5,75,32.5,40,-42.5,40,82.5,87.5,-97.5,87.5,202.5,,
15,Madi Rymer,F,SBD,FR-HS,52,Raw,2003,North Fon du Lac,WI,47.55,-65,65,-72.5,65,-42.5,42.5,47.5,47.5,85,-92.5,-92.5,85,197.5,,
16,Riley Renne,F,SBD,FR-HS,52,Raw,2001,Marinette,WI,50.3,-65,65,-72.5,65,35,37.5,-40,37.5,82.5,95,-105,95,197.5,,
17,Sophie Koronkowski,F,SBD,FR-HS,52,Raw,2003,Oak Creek Powerlifting,WI,50.3,70,-75,-75,70,37.5,40,-45,40,-82.5,-82.5,82.5,82.5,192.5,,
18,Ava Fall,F,SBD,FR-HS,52,Raw,2005,New Richmond Tigers,WI,47.4,62.5,67.5,72.5,72.5,30,-32.5,32.5,32.5,65,70,77.5,77.5,182.5,,
DQ,Ncaylee Niemann,F,SBD,FR-HS,52,Raw,2003,,WI,50.7,-65,-67.5,67.5,67.5,-42.5,-45,-45,,82.5,85,90,90,,,
1,Caralee Suchomel,F,SBD,FR-HS,57,Raw,2003,7 Tails Powerlifting,WI,55.05,90,95,-97.5,95,65,70,72.5,72.5,125,130,-132.5,130,297.5,,
2,Olivia Tomasi,F,SBD,FR-HS,57,Raw,2001,,WI,52.9,92.5,97.5,-102.5,97.5,47.5,52.5,-55,52.5,112.5,120,127.5,127.5,277.5,,
3,Jesi Burds,F,SBD,FR-HS,57,Raw,2001,Holmen High School Powerlifting,WI,55.9,-95,105,-110,105,45,-50,-50,45,115,120,127.5,127.5,277.5,,
4,Morgyn Hallum,F,SBD,FR-HS,57,Raw,2004,Elk Mound High School,WI,55.1,107.5,110,112.5,112.5,45,47.5,-50,47.5,-115,115,-120,115,275,,
5,Megan Wesolek,F,SBD,FR-HS,57,Raw,2001,Necedah Powerlifting,WI,55.3,77.5,85,95,95,40,45,-50,45,92.5,110,127.5,127.5,267.5,,
6,Zoey Heimmermann,F,SBD,FR-HS,57,Raw,2002,,WI,54.7,-97.5,102.5,107.5,107.5,42.5,47.5,-50,47.5,102.5,110,-117.5,110,265,,
7,Janelle Wolter,F,SBD,FR-HS,57,Raw,2002,,WI,56.9,90,97.5,100,100,47.5,52.5,-55,52.5,97.5,105,-117.5,105,257.5,,
8,Samantha Tealey,F,SBD,FR-HS,57,Raw,2003,,WI,55.35,77.5,82.5,87.5,87.5,42.5,-45,-45,42.5,112.5,117.5,122.5,122.5,252.5,,
9,Gracie Zeller,F,SBD,FR-HS,57,Raw,2002,Winneconne,WI,55.85,77.5,85,-87.5,85,52.5,-57.5,-57.5,52.5,102.5,110,115,115,252.5,,
10,Ariana Meunier,F,SBD,FR-HS,57,Raw,2003,Necedah Powerlifting,WI,56.2,80,87.5,-90,87.5,45,-50,50,50,105,115,-120,115,252.5,,
11,Rebecca Vanhoof,F,SBD,FR-HS,57,Raw,2004,,WI,53.4,80,85,-87.5,85,42.5,47.5,-50,47.5,102.5,110,117.5,117.5,250,,
12,Kalie Freiberg,F,SBD,FR-HS,57,Raw,2003,Oak Creek Powerlifting,WI,55.1,87.5,92.5,-97.5,92.5,50,-57.5,-57.5,50,107.5,-112.5,-112.5,107.5,250,,
13,Brooke LaPlount,F,SBD,FR-HS,57,Raw,2003,Holmen High School Powerlifting,WI,56.1,95,-102.5,102.5,102.5,47.5,-52.5,-52.5,47.5,87.5,100,-112.5,100,250,,
14,Megan Thurke,F,SBD,FR-HS,57,Raw,2003,Laconia Powerlifting Club,WI,56.25,82.5,-87.5,-87.5,82.5,37.5,40,-42.5,40,110,-117.5,117.5,117.5,240,,
15,Greta Aberle,F,SBD,FR-HS,57,Raw,2004,Winneconne,WI,54.2,72.5,77.5,-82.5,77.5,32.5,35,37.5,37.5,107.5,120,-135,120,235,,
16,Karly Porter,F,SBD,FR-HS,57,Raw,2003,New Richmond Tigers,WI,54.5,72.5,77.5,82.5,82.5,32.5,35,40,40,105,110,112.5,112.5,235,,
17,Madelynn Dutzle,F,SBD,FR-HS,57,Raw,2004,Elk Mound High School,WI,55,-90,90,92.5,92.5,37.5,40,-42.5,40,97.5,102.5,-107.5,102.5,235,,
18,Sierra Braund,F,SBD,FR-HS,57,Raw,2004,,WI,52.7,77.5,87.5,95,95,45,-52.5,-52.5,45,92.5,-105,-107.5,92.5,232.5,,
19,Elizabeth Pizarro,F,SBD,FR-HS,57,Raw,2004,,WI,55.2,75,82.5,87.5,87.5,42.5,45,-47.5,45,87.5,97.5,-102.5,97.5,230,,
20,Jada Thompson,F,SBD,FR-HS,57,Raw,2005,,WI,55.7,72.5,77.5,80,80,40,42.5,-45,42.5,97.5,107.5,-110,107.5,230,,
21,Isabel Cegielski,F,SBD,FR-HS,57,Raw,2004,Winneconne,WI,56.7,80,-90,-90,80,30,32.5,-35,32.5,102.5,117.5,-120,117.5,230,,
22,Olivia Deering,F,SBD,FR-HS,57,Raw,2002,,WI,56,70,77.5,-82.5,77.5,-35,-35,35,35,105,112.5,-117.5,112.5,225,,
23,Mercedes Hay,F,SBD,FR-HS,57,Raw,2004,Elk Mound High School,WI,53.6,72.5,-77.5,-80,72.5,42.5,45,-47.5,45,97.5,-105,105,105,222.5,,
24,Chloe Nielsen,F,SBD,FR-HS,57,Raw,2005,New Richmond Tigers,WI,54.9,77.5,82.5,-85,82.5,37.5,40,42.5,42.5,90,97.5,-102.5,97.5,222.5,,
25,Jocelyn Khang,F,SBD,FR-HS,57,Raw,2004,,WI,53.7,85,92.5,-100,92.5,32.5,-40,-40,32.5,80,90,-97.5,90,215,,
26,Caitlin Nachtigal,F,SBD,FR-HS,57,Raw,2002,,WI,55.95,-75,-75,75,75,-32.5,32.5,35,35,90,100,105,105,215,,
DQ,Kylie Vandong,F,SBD,FR-HS,57,Raw,2005,,WI,54.2,65,70,72.5,72.5,-45,-50,-50,,97.5,105,112.5,112.5,,,
1,Abby Jensen,F,SBD,FR-HS,63,Raw,2003,,WI,58.3,120,130,-137.5,130,50,55,57.5,57.5,120,-130,-130,120,307.5,,
2,Anastasia McCourt,F,SBD,FR-HS,63,Raw,2001,North Fon du Lac,WI,61.75,102.5,110,115,115,47.5,55,57.5,57.5,-112.5,122.5,-135,122.5,295,,
3,Mari Stafslien,F,SBD,FR-HS,63,Raw,2002,,WI,59.8,107.5,112.5,-125,112.5,55,60,-62.5,60,120,-132.5,-137.5,120,292.5,,
4,Anna Strand,F,SBD,FR-HS,63,Raw,2004,Xavier High School,WI,57.7,97.5,-100,100,100,55,60,-62.5,60,117.5,120,125,125,285,,
5,Isabella Harmer,F,SBD,FR-HS,63,Raw,2003,Elk Mound High School,WI,61.15,90,-92.5,92.5,92.5,50,52.5,55,55,117.5,127.5,137.5,137.5,285,,
6,Alyssa Kwarciany,F,SBD,FR-HS,63,Raw,2004,,WI,62.3,97.5,105,-112.5,105,50,52.5,-55,52.5,115,122.5,127.5,127.5,285,,
7,Megan Waller,F,SBD,FR-HS,63,Raw,2003,Laconia Powerlifting Club,WI,60.4,-112.5,117.5,-120,117.5,47.5,-50,-50,47.5,112.5,115,117.5,117.5,282.5,,
8,Ashley Stigler,F,SBD,FR-HS,63,Raw,2003,Waterford Union High School,WI,59.1,97.5,102.5,-107.5,102.5,50,-55,55,55,112.5,120,-127.5,120,277.5,,
DQ,Jayda Heilig,F,SBD,FR-HS,63,Raw,2003,,WI,58.2,-95,95,-105,95,55,-60,60,60,102.5,112.5,120,120,,,
9,Mara Mulligan,F,SBD,FR-HS,63,Raw,2004,,WI,61.95,72.5,80,85,85,50,55,-60,55,117.5,125,135,135,275,,
10,Taylor Jernell,F,SBD,FR-HS,63,Raw,2002,,WI,61.65,97.5,102.5,107.5,107.5,37.5,42.5,-47.5,42.5,102.5,112.5,120,120,270,,
11,Kyla Kubera,F,SBD,FR-HS,63,Raw,2003,River Falls Powerlifting,WI,58.75,102.5,-110,-112.5,102.5,47.5,50,52.5,52.5,112.5,-130,-132.5,112.5,267.5,,
12,Maggie Amundson,F,SBD,FR-HS,63,Raw,2002,Holmen High School Powerlifting,WI,57.65,92.5,102.5,-105,102.5,47.5,50,-55,50,110,-115,-115,110,262.5,,
13,Ashleen Nagra,F,SBD,FR-HS,63,Raw,2002,,WI,59.45,72.5,-80,80,80,42.5,47.5,50,50,102.5,110,127.5,127.5,257.5,,
14,Abbigail Zeller,F,SBD,FR-HS,63,Raw,2004,Winneconne,WI,62.7,80,-85,-85,80,52.5,-55,55,55,117.5,120,-122.5,120,255,,
15,Bailey Gilbertson,F,SBD,FR-HS,63,Raw,2003,Elk Mound High School,WI,59.8,85,-92.5,-92.5,85,35,37.5,-40,37.5,117.5,122.5,127.5,127.5,250,,
16,Brynn Zwiefelhofer,F,SBD,FR-HS,63,Raw,2001,,WI,59.3,70,75,80,80,37.5,40,42.5,42.5,112.5,117.5,125,125,247.5,,
17,Ashley Patterson,F,SBD,FR-HS,63,Raw,2003,Elk Mound High School,WI,59.3,80,85,-92.5,85,37.5,-40,-40,37.5,115,-122.5,122.5,122.5,245,,
18,Allyson Wolf,F,SBD,FR-HS,63,Raw,2002,,WI,59.4,82.5,90,-95,90,37.5,45,-50,45,105,110,-115,110,245,,
19,Anastasia Angelo,F,SBD,FR-HS,63,Raw,2001,,WI,57.2,72.5,80,85,85,35,40,-45,40,112.5,117.5,-125,117.5,242.5,,
20,Savanna Knuth,F,SBD,FR-HS,63,Raw,2005,Necedah Powerlifting,WI,57.8,77.5,-82.5,85,85,45,47.5,50,50,95,105,-112.5,105,240,,
21,Cicely Kiecker,F,SBD,FR-HS,63,Raw,2005,,WI,58,82.5,87.5,92.5,92.5,40,42.5,45,45,95,102.5,-110,102.5,240,,
22,Dyllan Powers,F,SBD,FR-HS,63,Raw,2004,New Richmond Tigers,WI,58.55,-67.5,67.5,72.5,72.5,45,47.5,-50,47.5,105,115,120,120,240,,
23,Lily Powers,F,SBD,FR-HS,63,Raw,2002,Holmen High School Powerlifting,WI,59.75,87.5,92.5,-97.5,92.5,45,-47.5,-50,45,97.5,102.5,-105,102.5,240,,
24,Bryanne Fralick,F,SBD,FR-HS,63,Raw,2003,New Richmond Tigers,WI,58.15,72.5,80,-85,80,40,45,47.5,47.5,90,100,110,110,237.5,,
25,Brooke Wittrock,F,SBD,FR-HS,63,Raw,2004,,WI,59.5,72.5,77.5,-82.5,77.5,40,45,47.5,47.5,95,102.5,110,110,235,,
26,Lyndsey Saunders,F,SBD,FR-HS,63,Raw,2004,Necedah Powerlifting,WI,58.45,-85,85,92.5,92.5,37.5,40,42.5,42.5,85,92.5,97.5,97.5,232.5,,
27,Jada Johnson,F,SBD,FR-HS,63,Raw,2004,,WI,58.65,80,-82.5,-82.5,80,52.5,-55,-55,52.5,100,-102.5,-102.5,100,232.5,,
28,Breana Hunter,F,SBD,FR-HS,63,Raw,2004,,WI,59.2,80,87.5,-90,87.5,47.5,52.5,-55,52.5,80,87.5,-97.5,87.5,227.5,,
29,Megan Gillett,F,SBD,FR-HS,63,Raw,2001,,WI,59.75,70,75,80,80,37.5,42.5,-47.5,42.5,95,102.5,-105,102.5,225,,
30,Jenna Wuest,F,SBD,FR-HS,63,Raw,2003,North Fon du Lac,WI,59.45,-80,-80,80,80,35,-37.5,-37.5,35,102.5,-107.5,-107.5,102.5,217.5,,
DQ,Libby Dahl,F,SBD,FR-HS,63,Raw,2004,,WI,58.85,-85,-85,-85,,47.5,50,-55,50,120,125,-130,125,,,
DQ,Ella Schweiger,F,SBD,FR-HS,63,Raw,2004,,WI,59.35,-80,-87.5,-87.5,,35,-40,40,40,100,110,-115,110,,,
DQ,Jamie Regnier,F,SBD,FR-HS,63,Raw,2001,Necedah Powerlifting,WI,62.6,-105,-112.5,-112.5,,52.5,57.5,60,60,112.5,122.5,-130,122.5,,,
1,Nevaeh Noonan,F,SBD,FR-HS,72,Raw,2005,Osceola High School Powerlifting,WI,71.8,110,115,-125,115,57.5,60,62.5,62.5,155,162.5,-167.5,162.5,340,,
2,Hannah Jensen,F,SBD,FR-HS,72,Raw,2001,New Richmond Tigers,WI,71.9,120,125,-127.5,125,57.5,60,-62.5,60,155,-157.5,-157.5,155,340,,
3,Calley Olson,F,SBD,FR-HS,72,Raw,2004,,WI,65.95,110,115,120,120,55,57.5,60,60,152.5,157.5,-162.5,157.5,337.5,,
4,Sarah Loether,F,SBD,FR-HS,72,Raw,2001,Winneconne,WI,65.45,102.5,112.5,-120,112.5,55,60,-65,60,137.5,150,157.5,157.5,330,,
5,Brooke Ruland,F,SBD,FR-HS,72,Raw,2004,Waterford Union High School,WI,72,-127.5,127.5,-130,127.5,55,62.5,-65,62.5,130,137.5,-142.5,137.5,327.5,,
6,Brianne Wilson,F,SBD,FR-HS,72,Raw,2002,Necedah Powerlifting,WI,66.9,-127.5,127.5,-135,127.5,65,-70,-70,65,107.5,117.5,130,130,322.5,,
7,Hannah Stahmann,F,SBD,FR-HS,72,Raw,2003,Winneconne,WI,64.8,-100,105,110,110,52.5,60,-62.5,60,127.5,130,150,150,320,,
8,Emma Mcvitty,F,SBD,FR-HS,72,Raw,2002,New Richmond Tigers,WI,65.25,110,115,117.5,117.5,45,50,-52.5,50,142.5,150,-162.5,150,317.5,,
9,Eva-Maria Antoni,F,SBD,FR-HS,72,Raw,2002,,WI,69.7,107.5,112.5,-115,112.5,60,62.5,-65,62.5,130,137.5,142.5,142.5,317.5,,
10,Alyson Fleming,F,SBD,FR-HS,72,Raw,2003,,WI,65.05,122.5,-132.5,-132.5,122.5,52.5,-57.5,-57.5,52.5,130,137.5,-150,137.5,312.5,,
11,Tatum Riggleman,F,SBD,FR-HS,72,Raw,2001,,WI,66.45,102.5,110,112.5,112.5,65,-70,-70,65,130,-132.5,-132.5,130,307.5,,
12,Emily Brown,F,SBD,FR-HS,72,Raw,2004,,WI,71.55,97.5,105,-112.5,105,57.5,62.5,70,70,115,132.5,-150,132.5,307.5,,
13,Alyse Egan,F,SBD,FR-HS,72,Raw,2002,Elk Mound High School,WI,66.65,97.5,-102.5,105,105,50,52.5,-55,52.5,120,130,135,135,292.5,,
14,Suezann Wirth,F,SBD,FR-HS,72,Raw,2004,,WI,69.5,105,112.5,-117.5,112.5,47.5,50,-55,50,115,127.5,-137.5,127.5,290,,
15,Cassidy Flintrop,F,SBD,FR-HS,72,Raw,2003,Waterford Union High School,WI,71.1,102.5,107.5,-112.5,107.5,45,47.5,-50,47.5,125,-130,132.5,132.5,287.5,,
16,Marista Fraley,F,SBD,FR-HS,72,Raw,2005,Necedah Powerlifting,WI,66.4,87.5,95,-97.5,95,45,50,52.5,52.5,120,130,137.5,137.5,285,,
17,Hannah Felker,F,SBD,FR-HS,72,Raw,2001,,WI,71.15,92.5,-105,105,105,60,-65,-65,60,105,117.5,-130,117.5,282.5,,
18,Danielle Wagner,F,SBD,FR-HS,72,Raw,2002,Elk Mound High School,WI,63.85,105,-110,-112.5,105,-47.5,47.5,-50,47.5,115,120,127.5,127.5,280,,
19,Elizabeth Meyer,F,SBD,FR-HS,72,Raw,2002,Xavier High School,WI,64.7,97.5,-105,-105,97.5,45,50,-52.5,50,127.5,132.5,-137.5,132.5,280,,
20,Brianna Berger,F,SBD,FR-HS,72,Raw,2001,,WI,66.95,87.5,90,97.5,97.5,-47.5,52.5,-55,52.5,102.5,115,130,130,280,,
21,Bailey Moore,F,SBD,FR-HS,72,Raw,2003,Necedah Powerlifting,WI,69.95,87.5,92.5,97.5,97.5,50,55,57.5,57.5,107.5,117.5,125,125,280,,
22,Kaitlyn Holmgren,F,SBD,FR-HS,72,Raw,2003,,WI,66.55,80,100,-107.5,100,40,47.5,50,50,102.5,120,127.5,127.5,277.5,,
23,Julia Grabowski,F,SBD,FR-HS,72,Raw,2001,New Richmond Tigers,WI,71.45,100,105,-110,105,40,42.5,-47.5,42.5,122.5,130,-137.5,130,277.5,,
24,Faith Peltier,F,SBD,FR-HS,72,Raw,2002,,WI,66.85,-85,85,-92.5,85,42.5,45,47.5,47.5,120,127.5,140,140,272.5,,
25,Kenlee Mathews,F,SBD,FR-HS,72,Raw,2002,,WI,70.7,92.5,97.5,-102.5,97.5,42.5,47.5,-50,47.5,112.5,122.5,127.5,127.5,272.5,,
26,Larissa Fossum,F,SBD,FR-HS,72,Raw,2002,,WI,70.95,92.5,100,-105,100,52.5,55,57.5,57.5,115,,,115,272.5,,
27,Jessica Magalski,F,SBD,FR-HS,72,Raw,2002,,WI,63.4,87.5,92.5,97.5,97.5,42.5,45,-47.5,45,110,120,127.5,127.5,270,,
28,Abigail Horneck,F,SBD,FR-HS,72,Raw,2004,,WI,65.7,-90,95,102.5,102.5,50,52.5,55,55,105,110,-117.5,110,267.5,,
DQ,Samantha Morgen,F,SBD,FR-HS,72,Raw,2002,Laconia Powerlifting Club,WI,69.65,90,95,97.5,97.5,42.5,45,-47.5,45,115,125,-132.5,125,,,
29,Morgan Harwood,F,SBD,FR-HS,72,Raw,2005,Necedah Powerlifting,WI,64.45,-80,82.5,-87.5,82.5,45,50,-52.5,50,110,120,132.5,132.5,265,,
30,Elizabeth Braaten,F,SBD,FR-HS,72,Raw,2002,,WI,65.75,-82.5,87.5,-92.5,87.5,42.5,47.5,-50,47.5,110,120,127.5,127.5,262.5,,
31,Victoria Jenneman,F,SBD,FR-HS,72,Raw,2005,,WI,65.05,-90,90,97.5,97.5,40,45,47.5,47.5,100,107.5,112.5,112.5,257.5,,
32,Sara Clavette,F,SBD,FR-HS,72,Raw,2002,Oak Creek Powerlifting,WI,66.75,92.5,102.5,110,110,42.5,-50,-50,42.5,105,-115,-115,105,257.5,,
33,Kristen Patterson,F,SBD,FR-HS,72,Raw,2004,Winneconne,WI,69.5,82.5,-90,90,90,45,47.5,-50,47.5,120,-130,-130,120,257.5,,
34,Abigail Johnson,F,SBD,FR-HS,72,Raw,2004,New Richmond Tigers,WI,65.5,92.5,95,97.5,97.5,47.5,50,52.5,52.5,100,105,-115,105,255,,
35,Isabella Taleon,F,SBD,FR-HS,72,Raw,2003,Xavier High School,WI,65.75,-97.5,-97.5,97.5,97.5,40,42.5,-45,42.5,115,-120,-120,115,255,,
36,Kayla Moranchel-Sweet,F,SBD,FR-HS,72,Raw,2004,,WI,72,-102.5,-102.5,102.5,102.5,35,40,-45,40,100,112.5,-125,112.5,255,,
37,Dianeli Trinidad,F,SBD,FR-HS,72,Raw,2002,,WI,65.4,85,90,-97.5,90,42.5,45,-50,45,107.5,112.5,115,115,250,,
38,Kiersten Prahl,F,SBD,FR-HS,72,Raw,2004,Winneconne,WI,63.85,92.5,100,-102.5,100,37.5,40,-42.5,40,102.5,-120,-120,102.5,242.5,,
39,Melanie Johnson,F,SBD,FR-HS,72,Raw,2001,Necedah Powerlifting,WI,67.4,75,-82.5,-85,75,42.5,47.5,-50,47.5,120,-137.5,-137.5,120,242.5,,
DQ,Olivia Pappadopoulos,F,SBD,FR-HS,72,Raw,2001,Holmen High School Powerlifting,WI,66.5,-102.5,-105,-105,,65,-67.5,-67.5,65,137.5,150,-160,150,,,
DQ,Jacey Davis,F,SBD,FR-HS,72,Raw,2001,,WI,69.4,-25,-25,-25,,50,52.5,-55,52.5,-107.5,-107.5,-107.5,,,,
1,Stella Lobacz,F,SBD,FR-HS,84,Raw,2002,Waterford Union High School,WI,81.7,-157.5,-157.5,157.5,157.5,57.5,60,62.5,62.5,-160,160,-172.5,160,380,,
2,Somer Nolte,F,SBD,FR-HS,84,Raw,2002,Necedah Powerlifting,WI,75.6,127.5,132.5,137.5,137.5,75,82.5,87.5,87.5,130,140,-155,140,365,,
3,Isabella Mullally,F,SBD,FR-HS,84,Raw,2002,Necedah Powerlifting,WI,74.1,112.5,120,125,125,67.5,72.5,75,75,132.5,145,155,155,355,,
4,Brianna Martin,F,SBD,FR-HS,84,Raw,2004,,WI,77.35,102.5,107.5,112.5,112.5,55,57.5,60,60,-142.5,145,-152.5,145,317.5,,
5,Piper Alberg,F,SBD,FR-HS,84,Raw,2005,Necedah Powerlifting,WI,78.7,102.5,110,117.5,117.5,52.5,57.5,-62.5,57.5,120,130,140,140,315,,
6,Gabby Langer,F,SBD,FR-HS,84,Raw,2002,New Richmond Tigers,WI,79.65,112.5,117.5,122.5,122.5,55,-60,-60,55,107.5,120,127.5,127.5,305,,
7,Olivia Dunkleberger,F,SBD,FR-HS,84,Raw,2001,,WI,73.65,112.5,120,-127.5,120,40,-42.5,42.5,42.5,130,140,-157.5,140,302.5,,
8,Teagan Pahl,F,SBD,FR-HS,84,Raw,2004,Elk Mound High School,WI,77.2,-105,105,110,110,50,55,-57.5,55,122.5,130,137.5,137.5,302.5,,
9,Orianna Horel,F,SBD,FR-HS,84,Raw,2001,Elk Mound High School,WI,78,117.5,122.5,-125,122.5,47.5,-50,-50,47.5,-132.5,132.5,-140,132.5,302.5,,
10,Caitlyn Keyes,F,SBD,FR-HS,84,Raw,2003,Winneconne,WI,74.7,105,117.5,-122.5,117.5,47.5,52.5,-57.5,52.5,115,130,-142.5,130,300,,
11,Amanda Nickolai,F,SBD,FR-HS,84,Raw,2002,Necedah Powerlifting,WI,79.2,102.5,110,115,115,52.5,57.5,62.5,62.5,112.5,122.5,-127.5,122.5,300,,
12,Anna Ebben,F,SBD,FR-HS,84,Raw,2001,Xavier High School,WI,73.4,97.5,100,102.5,102.5,47.5,50,52.5,52.5,125,135,140,140,295,,
13,Aria Fischer,F,SBD,FR-HS,84,Raw,2003,,WI,75.1,95,105,-110,105,45,50,-55,50,120,132.5,140,140,295,,
14,Sabin Steinhoff,F,SBD,FR-HS,84,Raw,2004,,WI,79.6,110,-117.5,-122.5,110,47.5,50,-52.5,50,125,132.5,-137.5,132.5,292.5,,
15,Haley Huenink,F,SBD,FR-HS,84,Raw,2003,,WI,80.4,92.5,100,105,105,52.5,55,-57.5,55,-125,130,-137.5,130,290,,
16,Autumn Belongia,F,SBD,FR-HS,84,Raw,2004,North Fon du Lac,WI,73.1,97.5,105,-115,105,47.5,52.5,-55,52.5,107.5,117.5,130,130,287.5,,
17,Violet Plante,F,SBD,FR-HS,84,Raw,2001,River Falls Powerlifting,WI,76.1,105,112.5,115,115,42.5,45,-47.5,45,127.5,-142.5,-150,127.5,287.5,,
18,Elisabeth Anderson,F,SBD,FR-HS,84,Raw,2005,New Richmond Tigers,WI,77.1,110,115,-120,115,45,47.5,52.5,52.5,105,112.5,120,120,287.5,,
19,Lydia Vanderheyden,F,SBD,FR-HS,84,Raw,2002,Necedah Powerlifting,WI,83.75,92.5,102.5,107.5,107.5,52.5,55,-60,55,115,-122.5,122.5,122.5,285,,
20,Mattie Isaac,F,SBD,FR-HS,84,Raw,2005,Laconia Powerlifting Club,WI,80.4,105,110,-117.5,110,37.5,-42.5,42.5,42.5,125,-135,-140,125,277.5,,
21,Evelyn White,F,SBD,FR-HS,84,Raw,2003,New Richmond Tigers,WI,79.2,85,95,97.5,97.5,37.5,40,42.5,42.5,107.5,117.5,130,130,270,,
22,Halley Grams,F,SBD,FR-HS,84,Raw,2002,Oak Creek Powerlifting,WI,73.1,102.5,-107.5,107.5,107.5,50,52.5,-55,52.5,107.5,-115,-115,107.5,267.5,,
23,Olivia Hiltner,F,SBD,FR-HS,84,Raw,2005,New Richmond Tigers,WI,77.8,-82.5,82.5,85,85,47.5,52.5,55,55,117.5,122.5,127.5,127.5,267.5,,
24,Cindy Jeong,F,SBD,FR-HS,84,Raw,2001,Xavier High School,WI,78.1,97.5,-100,100,100,40,-45,45,45,115,120,122.5,122.5,267.5,,
25,Izzabela Lutz,F,SBD,FR-HS,84,Raw,2003,Mauston Powerlifting,WI,81,82.5,-92.5,92.5,92.5,45,50,-52.5,50,110,117.5,122.5,122.5,265,,
26,Ashley Pionke,F,SBD,FR-HS,84,Raw,2002,Laconia Powerlifting Club,WI,74.1,-100,100,105,105,45,47.5,50,50,105,-117.5,-125,105,260,,
DQ,Mika Trottier,F,SBD,FR-HS,84,Raw,2004,,WI,81.2,102.5,-107.5,-110,102.5,45,50,-52.5,50,102.5,-107.5,-107.5,102.5,,,
27,Paige Dvorak,F,SBD,FR-HS,84,Raw,2001,Osceola High School Powerlifting,WI,81.3,100,,,100,47.5,50,-52.5,50,75,85,,85,235,,
DQ,Brenna Ellison,F,SBD,FR-HS,84,Raw,2003,New Richmond Tigers,WI,73.35,-105,-105,-105,,52.5,-57.5,57.5,57.5,-107.5,107.5,-117.5,107.5,,,
DQ,Brynn Hundt,F,SBD,FR-HS,84,Raw,2004,Holmen High School Powerlifting,WI,82.4,115,-120,120,120,57.5,-60,-60,57.5,-112.5,-112.5,-112.5,,,,
1,Hailey Schwobe,F,SBD,FR-HS,84+,Raw,2002,,WI,106.6,167.5,175,-185,175,65,67.5,70,70,167.5,177.5,185,185,430,,
2,Siree Cofta,F,SBD,FR-HS,84+,Raw,2001,,WI,89,137.5,142.5,145,145,72.5,77.5,82.5,82.5,165,175,-182.5,175,402.5,,
3,Sydney Krueger,F,SBD,FR-HS,84+,Raw,2002,Winneconne,WI,93.75,-150,-160,160,160,60,65,70,70,157.5,172.5,-182.5,172.5,402.5,,
4,Ariana Guerra,F,SBD,FR-HS,84+,Raw,2002,,WI,115.45,150,-165,165,165,60,65,-67.5,65,150,157.5,165,165,395,,
5,Sydney Regan,F,SBD,FR-HS,84+,Raw,2002,Osceola High School Powerlifting,WI,121.7,162.5,-165,170,170,57.5,65,-67.5,65,142.5,155,-167.5,155,390,,
6,Sophia Larson,F,SBD,FR-HS,84+,Raw,2003,,WI,97.05,-140,147.5,155,155,70,75,77.5,77.5,145,155,-165,155,387.5,,
7,Briana Bowen,F,SBD,FR-HS,84+,Raw,2001,,WI,86.65,130,137.5,-142.5,137.5,-72.5,75,-77.5,75,-157.5,-157.5,157.5,157.5,370,,
8,Elvecia Najera,F,SBD,FR-HS,84+,Raw,2001,,WI,132.4,125,135,142.5,142.5,62.5,67.5,-72.5,67.5,145,155,160,160,370,,
9,Emma Asselin,F,SBD,FR-HS,84+,Raw,2002,,WI,138.5,137.5,145,152.5,152.5,60,65,-70,65,127.5,137.5,142.5,142.5,360,,
10,Autumn Leick,F,SBD,FR-HS,84+,Raw,2002,,WI,96.7,112.5,125,130,130,70,75,-77.5,75,127.5,137.5,142.5,142.5,347.5,,
11,Elizabeth Dimick,F,SBD,FR-HS,84+,Raw,2003,New Richmond Tigers,WI,88.75,120,127.5,130,130,62.5,65,-67.5,65,142.5,-147.5,147.5,147.5,342.5,,
12,Katherine Kridelbaugh,F,SBD,FR-HS,84+,Raw,2003,Necedah Powerlifting,WI,111.45,120,130,137.5,137.5,50,55,60,60,-122.5,122.5,130,130,327.5,,
13,Allison Cook,F,SBD,FR-HS,84+,Raw,2005,,WI,106.25,-102.5,-115,120,120,52.5,65,-70,65,105,132.5,140,140,325,,
14,Madison Newman,F,SBD,FR-HS,84+,Raw,2004,New Richmond Tigers,WI,98.05,122.5,130,135,135,52.5,55,57.5,57.5,120,125,-135,125,317.5,,
15,Emma Scott,F,SBD,FR-HS,84+,Raw,2002,,WI,88.15,107.5,115,-120,115,60,62.5,-65,62.5,122.5,137.5,-142.5,137.5,315,,
16,Sydney Herrick,F,SBD,FR-HS,84+,Raw,2002,,WI,112.8,100,110,125,125,45,50,52.5,52.5,122.5,132.5,-145,132.5,310,,
17,Emily Herz,F,SBD,FR-HS,84+,Raw,2002,,WI,96.75,-110,-115,115,115,60,62.5,65,65,120,127.5,-137.5,127.5,307.5,,
18,Marissa Loomis,F,SBD,FR-HS,84+,Raw,2003,Marinette,WI,115.45,102.5,110,115,115,37.5,42.5,-47.5,42.5,112.5,137.5,145,145,302.5,,
19,Nicole Fricke,F,SBD,FR-HS,84+,Raw,2002,,WI,102.5,102.5,112.5,122.5,122.5,50,52.5,-55,52.5,107.5,120,125,125,300,,
20,Morgyn Forster,F,SBD,FR-HS,84+,Raw,2002,,WI,136.2,85,97.5,107.5,107.5,52.5,55,-57.5,55,127.5,-140,-140,127.5,290,,
21,Allie Powell,F,SBD,FR-HS,84+,Raw,2001,,WI,88.3,-102.5,-102.5,102.5,102.5,55,-60,60,60,-115,115,125,125,287.5,,
22,Mary Geurts,F,SBD,FR-HS,84+,Raw,2001,,WI,93.75,-92.5,-100,100,100,47.5,-50,-50,47.5,125,132.5,137.5,137.5,285,,
23,Ashton Davis,F,SBD,FR-HS,84+,Raw,2003,New Richmond Tigers,WI,94.65,100,105,110,110,47.5,-50,50,50,110,117.5,122.5,122.5,282.5,,
24,Callie Zastrow,F,SBD,FR-HS,84+,Raw,2004,,WI,96.65,90,102.5,112.5,112.5,47.5,52.5,55,55,102.5,112.5,-122.5,112.5,280,,
25,Zoe Winchell,F,SBD,FR-HS,84+,Raw,2002,Holmen High School Powerlifting,WI,140.15,-110,110,-115,110,50,55,-60,55,115,-122.5,-122.5,115,280,,
26,Sydney Layland,F,SBD,FR-HS,84+,Raw,2004,Holmen High School Powerlifting,WI,114.7,-97.5,100,105,105,55,60,-65,60,-110,110,-112.5,110,275,,
27,Hope Jepson,F,SBD,FR-HS,84+,Raw,2002,,WI,91.75,-92.5,92.5,-102.5,92.5,52.5,60,65,65,115,-120,-122.5,115,272.5,,
28,Katie Swanson,F,SBD,FR-HS,84+,Raw,2005,New Richmond Tigers,WI,106.35,-100,100,-107.5,100,47.5,50,52.5,52.5,107.5,-115,115,115,267.5,,
29,Chloe Alsum,F,SBD,FR-HS,84+,Raw,2001,Laconia Powerlifting Club,WI,86.85,97.5,-102.5,-105,97.5,42.5,45,-47.5,45,115,-122.5,-122.5,115,257.5,,
30,Cami Hericks,F,SBD,FR-HS,84+,Raw,2005,,WI,101.75,87.5,92.5,-100,92.5,55,60,-65,60,92.5,102.5,-115,102.5,255,,
31,Shelby Pacholke,F,SBD,FR-HS,84+,Raw,2004,Winneconne,WI,96.7,-85,90,-100,90,40,-50,-50,40,107.5,117.5,-130,117.5,247.5,,
DQ,Alisa Tetzlaff,F,SBD,FR-HS,84+,Raw,2003,,WI,102.65,-140,-155,-155,,62.5,67.5,72.5,72.5,145,157.5,-170,157.5,,,
DQ,Alexa Kuhn,F,SBD,FR-HS,84+,Raw,2002,,WI,105.75,-142.5,-142.5,-142.5,,62.5,67.5,-72.5,67.5,140,147.5,-150,147.5,,,
DQ,Alexis Thielke,F,SBD,FR-HS,84+,Raw,2003,North Fon du Lac,WI,105.8,102.5,-115,-115,102.5,45,-47.5,-47.5,45,-135,-147.5,-147.5,,,,
DQ,Jenna Morris,F,SBD,FR-HS,84+,Raw,2003,,WI,121.2,-127.5,-127.5,-127.5,,52.5,55,-60,55,142.5,145,147.5,147.5,,,
1,Donovan Sinthasomphone,M,SBD,M-HS,59,Single-ply,2004,Oak Creek Powerlifting,WI,55.3,112.5,127.5,-130,127.5,62.5,65,-67.5,65,112.5,137.5,145,145,337.5,,
1,Brayden Londerville,M,SBD,M-HS,66,Single-ply,2002,Necedah Powerlifting,WI,63.8,167.5,177.5,185,185,80,87.5,92.5,92.5,185,200,-212.5,200,477.5,,
2,Will Hammond,M,SBD,M-HS,66,Single-ply,2003,Germantown Powerlifting,WI,63.9,172.5,-182.5,182.5,182.5,75,82.5,85,85,175,187.5,-197.5,187.5,455,,
3,Zach Gardipee,M,SBD,M-HS,66,Single-ply,2003,Germantown Powerlifting,WI,64,162.5,-182.5,-182.5,162.5,87.5,-95,95,95,172.5,182.5,-187.5,182.5,440,,
4,Matthew Youngs,M,SBD,M-HS,66,Single-ply,2002,A-F Powerlifting,WI,63.9,167.5,-177.5,-177.5,167.5,77.5,85,92.5,92.5,160,172.5,-185,172.5,432.5,,
1,Brandon Pierce,M,SBD,M-HS,74,Single-ply,2001,Germantown Powerlifting,WI,72.3,202.5,210,215,215,92.5,100,-102.5,100,212.5,222.5,-232.5,222.5,537.5,,
2,Cole Batchelor,M,SBD,M-HS,74,Single-ply,2003,Germantown Powerlifting,WI,72,187.5,-197.5,-197.5,187.5,102.5,107.5,-110,107.5,185,192.5,-200,192.5,487.5,,
1,Genesis Correa,M,SBD,M-HS,83,Single-ply,2001,,WI,81.7,262.5,275,287.5,287.5,132.5,140,145,145,222.5,237.5,250,250,682.5,,
DQ,Carson Batchelor,M,SBD,M-HS,83,Single-ply,2003,Germantown Powerlifting,WI,79.7,-212.5,-212.5,-212.5,,107.5,-115,-115,107.5,197.5,207.5,-210,207.5,,,
1,Cory Wood,M,SBD,M-HS,93,Single-ply,2001,A-F Powerlifting,WI,87.8,-237.5,237.5,-250,237.5,117.5,125,-130,125,220,230,237.5,237.5,600,,
2,Maclain Yahr,M,SBD,M-HS,93,Single-ply,2002,Germantown Powerlifting,WI,87.6,207.5,217.5,-225,217.5,122.5,130,-137.5,130,190,205,-222.5,205,552.5,,
1,Elijah Schutz,M,SBD,M-HS,105,Single-ply,2004,Germantown Powerlifting,WI,95.6,-237.5,237.5,250,250,-110,110,-117.5,110,242.5,-265,-265,242.5,602.5,,
1,Logan Cleary,M,SBD,M-HS,120+,Single-ply,2002,,WI,162.5,317.5,367.5,,367.5,237.5,262.5,-272.5,262.5,242.5,280,-300,280,910,,
2,Dayshun Rhodes,M,SBD,M-HS,120+,Single-ply,2001,Oak Creek Powerlifting,WI,121.4,217.5,-227.5,227.5,227.5,112.5,122.5,130,130,175,200,-207.5,200,557.5,,
1,Muluken Rucks,M,SBD,MR-HS,53,Raw,2004,,WI,51.9,130,140,-142.5,140,65,-72.5,72.5,72.5,-142.5,142.5,157.5,157.5,370,,
2,Dawson Fornander,M,SBD,MR-HS,53,Raw,2002,Necedah Powerlifting,WI,51.5,110,115,-122.5,115,57.5,62.5,67.5,67.5,112.5,120,125,125,307.5,,
3,Alan Jimenez,M,SBD,MR-HS,53,Raw,2003,Xavier High School,WI,51.1,105,107.5,110,110,60,65,-67.5,65,112.5,120,-125,120,295,,
4,Benjamin Henning,M,SBD,MR-HS,53,Raw,2005,Winneconne,WI,51.3,90,102.5,-110,102.5,45,52.5,-57.5,52.5,112.5,120,130,130,285,,
5,Tyson Doucette,M,SBD,MR-HS,53,Raw,2002,Winneconne,WI,51.6,87.5,-102.5,-102.5,87.5,62.5,67.5,-70,67.5,120,-135,-137.5,120,275,,
6,Timothy Story,M,SBD,MR-HS,53,Raw,2005,River Falls Powerlifting,WI,50.9,-90,90,-95,90,55,60,-62.5,60,120,122.5,-135,122.5,272.5,,
7,Devin Balts,M,SBD,MR-HS,53,Raw,2004,Elk Mound High School,WI,50.3,97.5,-102.5,-102.5,97.5,55,57.5,-60,57.5,112.5,-120,-120,112.5,267.5,,
8,Ethan Pare,M,SBD,MR-HS,53,Raw,2005,A-F Powerlifting,WI,52,75,80,87.5,87.5,47.5,50,-52.5,50,95,100,115,115,252.5,,
9,Remington Ladd,M,SBD,MR-HS,53,Raw,2002,,WI,52.3,-67.5,67.5,72.5,72.5,62.5,-67.5,-67.5,62.5,95,102.5,107.5,107.5,242.5,,
10,Ty Anderson,M,SBD,MR-HS,53,Raw,2004,Necedah Powerlifting,WI,49.4,65,-72.5,75,75,37.5,42.5,-45,42.5,102.5,110,115,115,232.5,,
11,Jacob Burns,M,SBD,MR-HS,53,Raw,2002,,WI,50.1,70,-75,75,75,40,47.5,50,50,95,102.5,-107.5,102.5,227.5,,
12,Adrian Valdes,M,SBD,MR-HS,53,Raw,2003,,WI,51,60,-65,65,65,42.5,47.5,-50,47.5,107.5,110,-115,110,222.5,,
13,Trey Oswald,M,SBD,MR-HS,53,Raw,2005,,WI,47,60,-67.5,72.5,72.5,50,55,57.5,57.5,82.5,85,-97.5,85,215,,
14,Izayah Swenson,M,SBD,MR-HS,53,Raw,2005,Necedah Powerlifting,WI,52.5,65,70,75,75,37.5,-45,-45,37.5,90,95,100,100,212.5,,
DQ,Joe Malski,M,SBD,MR-HS,53,Raw,2002,Xavier High School,WI,52,-97.5,-97.5,-97.5,,65,67.5,70,70,115,120,-125,120,,,
1,Jacob Bartelt,M,SBD,MR-HS,59,Raw,2004,Winneconne,WI,55.6,-120,127.5,135,135,-80,82.5,85,85,145,155,-160,155,375,,
2,Donavin Ramelfanger,M,SBD,MR-HS,59,Raw,2004,,WI,58,102.5,-110,115,115,82.5,-85,85,85,132.5,140,152.5,152.5,352.5,,
3,Ivan Vazquez,M,SBD,MR-HS,59,Raw,2003,,WI,55.9,-115,-120,122.5,122.5,60,-65,65,65,145,152.5,160,160,347.5,,
4,Elvis Cormican,M,SBD,MR-HS,59,Raw,2000,Osceola High School Powerlifting,WI,58.6,112.5,120,125,125,70,80,-85,80,125,142.5,-155,142.5,347.5,,
5,Jack Narduzzi,M,SBD,MR-HS,59,Raw,2002,Waterford Union High School,WI,54.7,122.5,-127.5,-127.5,122.5,72.5,75,-77.5,75,142.5,147.5,-150,147.5,345,,
6,Zander Barr,M,SBD,MR-HS,59,Raw,2004,Mauston Powerlifting,WI,58.8,102.5,107.5,110,110,60,65,-70,65,157.5,167.5,-177.5,167.5,342.5,,
7,Lane Lee,M,SBD,MR-HS,59,Raw,2002,Elk Mound High School,WI,58.4,112.5,117.5,-122.5,117.5,65,-70,-70,65,-155,155,-170,155,337.5,,
8,Taylor Jennings,M,SBD,MR-HS,59,Raw,2004,,WI,55.5,100,110,117.5,117.5,67.5,77.5,-82.5,77.5,-112.5,127.5,140,140,335,,
9,Truman Leisses,M,SBD,MR-HS,59,Raw,2003,,WI,58.8,110,115,120,120,67.5,72.5,-80,72.5,135,142.5,-145,142.5,335,,
10,Keegan Saloka,M,SBD,MR-HS,59,Raw,2005,Osceola High School Powerlifting,WI,55.2,-102.5,102.5,112.5,112.5,62.5,67.5,72.5,72.5,137.5,145,-150,145,330,,
11,Sean Ashenfelter,M,SBD,MR-HS,59,Raw,2002,North Fon du Lac,WI,58.6,110,117.5,-122.5,117.5,62.5,67.5,-75,67.5,125,137.5,145,145,330,,
12,Braedon Pederson,M,SBD,MR-HS,59,Raw,2003,Elk Mound High School,WI,57.7,-105,112.5,-115,112.5,65,70,-72.5,70,135,-145,145,145,327.5,,
13,Graham Goland,M,SBD,MR-HS,59,Raw,2001,Winneconne,WI,59,110,115,120,120,57.5,-65,-65,57.5,-137.5,137.5,147.5,147.5,325,,
14,Tyler Suchomel,M,SBD,MR-HS,59,Raw,2005,7 Tails Powerlifting,WI,54.4,90,97.5,102.5,102.5,67.5,72.5,-77.5,72.5,132.5,142.5,-150,142.5,317.5,,
15,Keanu Duel,M,SBD,MR-HS,59,Raw,2005,Laconia Powerlifting Club,WI,54.9,-120,-120,120,120,50,52.5,-55,52.5,145,-152.5,-152.5,145,317.5,,
16,Ben Rehm,M,SBD,MR-HS,59,Raw,2002,Laconia Powerlifting Club,WI,58.5,97.5,102.5,105,105,65,-72.5,-72.5,65,127.5,140,-145,140,310,,
17,Wesley Lagrange,M,SBD,MR-HS,59,Raw,2004,Holmen High School Powerlifting,WI,58.6,102.5,-112.5,112.5,112.5,75,-80,-80,75,115,122.5,-127.5,122.5,310,,
18,Reece Gehrke,M,SBD,MR-HS,59,Raw,2003,,WI,58.9,85,-92.5,92.5,92.5,62.5,67.5,-70,67.5,125,135,145,145,305,,
19,Matthew Slechta,M,SBD,MR-HS,59,Raw,2004,Osceola High School Powerlifting,WI,55,100,107.5,112.5,112.5,62.5,65,67.5,67.5,107.5,112.5,120,120,300,,
20,Caleb VanDong,M,SBD,MR-HS,59,Raw,2003,,WI,56.3,95,102.5,-107.5,102.5,62.5,65,-67.5,65,112.5,122.5,127.5,127.5,295,,
21,Caleb Canfield,M,SBD,MR-HS,59,Raw,2003,New Richmond Tigers,WI,54.4,110,-115,-115,110,60,62.5,-67.5,62.5,115,117.5,120,120,292.5,,
22,Skylar Lambert,M,SBD,MR-HS,59,Raw,2005,A-F Powerlifting,WI,55.9,-92.5,92.5,97.5,97.5,60,70,-72.5,70,115,120,125,125,292.5,,
23,Aiden Fessey,M,SBD,MR-HS,59,Raw,2004,Mauston Powerlifting,WI,56.7,80,92.5,95,95,50,-52.5,52.5,52.5,130,-140,140,140,287.5,,
24,Connor Warnke,M,SBD,MR-HS,59,Raw,2003,Waterford Union High School,WI,55,100,105,-107.5,105,-60,60,-65,60,115,117.5,-127.5,117.5,282.5,,
25,Jacob Matoushek,M,SBD,MR-HS,59,Raw,2002,,WI,54.3,80,90,-102.5,90,60,62.5,-65,62.5,117.5,127.5,-137.5,127.5,280,,
26,Cody Duel,M,SBD,MR-HS,59,Raw,2004,Winneconne,WI,55.5,87.5,105,107.5,107.5,57.5,62.5,-70,62.5,105,-122.5,-125,105,275,,
27,Jason Quintas,M,SBD,MR-HS,59,Raw,2003,,WI,55.7,72.5,77.5,-85,77.5,55,60,65,65,112.5,130,132.5,132.5,275,,
28,Vincent Delwiche,M,SBD,MR-HS,59,Raw,2005,River Falls Powerlifting,WI,54.9,80,82.5,-87.5,82.5,42.5,47.5,-50,47.5,117.5,125,135,135,265,,
29,Riley Crum,M,SBD,MR-HS,59,Raw,2003,,WI,54.8,92.5,97.5,-102.5,97.5,52.5,55,57.5,57.5,-97.5,105,-112.5,105,260,,
30,Carson Beier,M,SBD,MR-HS,59,Raw,2003,Waterford Union High School,WI,55,65,72.5,-77.5,72.5,60,62.5,-65,62.5,115,-120,-125,115,250,,
DQ,Colin Stecker,M,SBD,MR-HS,59,Raw,2004,Oak Creek Powerlifting,WI,54.9,112.5,-117.5,-120,112.5,-60,-65,-65,,,,,,,,
DQ,Evan Weiss,M,SBD,MR-HS,59,Raw,2003,Elk Mound High School,WI,55.5,92.5,-100,-100,92.5,55,-60,60,60,-115,-115,-115,,,,
DQ,Wyatt Draves,M,SBD,MR-HS,59,Raw,2004,North Fon du Lac,WI,55.6,-87.5,-95,-95,,57.5,-60,-62.5,57.5,110,-125,130,130,,,
1,Moises Medina,M,SBD,MR-HS,66,Raw,2002,,WI,64.9,192.5,202.5,207.5,207.5,120,127.5,-132.5,127.5,215,-225,,215,550,,
2,Adedapo Adeboyejo,M,SBD,MR-HS,66,Raw,2002,,WI,64.6,-167.5,167.5,-190,167.5,100,105,-107.5,105,197.5,210,220,220,492.5,,
3,Nathan Jansen,M,SBD,MR-HS,66,Raw,2001,,WI,65,165,-182.5,-182.5,165,100,-107.5,-107.5,100,185,202.5,220,220,485,,
4,Lupe Hernandez,M,SBD,MR-HS,66,Raw,2002,,WI,63.9,152.5,162.5,167.5,167.5,80,87.5,92.5,92.5,202.5,212.5,217.5,217.5,477.5,,
5,Alejandro Saldana,M,SBD,MR-HS,66,Raw,2003,,WI,66,147.5,157.5,162.5,162.5,97.5,105,107.5,107.5,165,185,190,190,460,,
6,Charles Morgan,M,SBD,MR-HS,66,Raw,2003,Elk Mound High School,WI,65.4,135,145,-152.5,145,85,92.5,97.5,97.5,177.5,192.5,205,205,447.5,,
7,Joshua Halverson,M,SBD,MR-HS,66,Raw,2002,,WI,64.7,125,142.5,-152.5,142.5,75,80,-87.5,80,195,-210,210,210,432.5,,
8,Michael Sysavan,M,SBD,MR-HS,66,Raw,2004,,WI,64.8,125,137.5,145,145,87.5,90,92.5,92.5,170,180,190,190,427.5,,
9,Sebastian Kempf,M,SBD,MR-HS,66,Raw,2004,River Falls Powerlifting,WI,65.1,137.5,142.5,150,150,82.5,-90,90,90,155,165,-175,165,405,,
10,Mason Herlitzke,M,SBD,MR-HS,66,Raw,2003,,WI,65.2,157.5,162.5,-167.5,162.5,60,62.5,-67.5,62.5,162.5,167.5,180,180,405,,
11,Sawyer Federation,M,SBD,MR-HS,66,Raw,2003,Osceola High School Powerlifting,WI,65.5,127.5,137.5,145,145,82.5,90,-92.5,90,147.5,162.5,170,170,405,,
12,Adam Chase,M,SBD,MR-HS,66,Raw,2001,,WI,64.4,137.5,-147.5,-147.5,137.5,87.5,92.5,-95,92.5,165,172.5,-185,172.5,402.5,,
13,Roger Daniels,M,SBD,MR-HS,66,Raw,2002,Necedah Powerlifting,WI,64.1,125,130,135,135,72.5,77.5,82.5,82.5,152.5,167.5,182.5,182.5,400,,
14,Nick Schuman,M,SBD,MR-HS,66,Raw,2003,,WI,63.1,115,125,130,130,75,85,-87.5,85,-170,170,182.5,182.5,397.5,,
15,Dominic Hall,M,SBD,MR-HS,66,Raw,2002,Elk Mound High School,WI,63.8,122.5,132.5,-145,132.5,82.5,87.5,-92.5,87.5,167.5,177.5,-185,177.5,397.5,,
16,Spencer Malone,M,SBD,MR-HS,66,Raw,2003,Holmen High School Powerlifting,WI,65,125,130,137.5,137.5,85,90,-92.5,90,-165,167.5,170,170,397.5,,
17,Grant Gerke,M,SBD,MR-HS,66,Raw,2003,,WI,62.7,-137.5,-137.5,137.5,137.5,82.5,85,-90,85,160,165,170,170,392.5,,
18,Blake Burlingame,M,SBD,MR-HS,66,Raw,2002,Elk Mound High School,WI,65.6,115,127.5,-135,127.5,75,82.5,87.5,87.5,162.5,177.5,-185,177.5,392.5,,
19,Mason Kelley,M,SBD,MR-HS,66,Raw,2003,Waterford Union High School,WI,65,120,-125,-125,120,105,-107.5,-107.5,105,147.5,155,160,160,385,,
20,Brady Oleszak,M,SBD,MR-HS,66,Raw,2003,Oak Creek Powerlifting,WI,65.9,-130,-130,130,130,82.5,-90,-90,82.5,142.5,155,167.5,167.5,380,,
21,Andrew Coiley,M,SBD,MR-HS,66,Raw,2002,Necedah Powerlifting,WI,64.8,125,135,140,140,65,70,72.5,72.5,150,165,-172.5,165,377.5,,
22,David Anderson,M,SBD,MR-HS,66,Raw,2002,New Richmond Tigers,WI,60,125,132.5,142.5,142.5,72.5,75,80,80,142.5,147.5,152.5,152.5,375,,
23,Mason Burke,M,SBD,MR-HS,66,Raw,2003,New Richmond Tigers,WI,65.3,107.5,115,122.5,122.5,62.5,65,67.5,67.5,172.5,185,-192.5,185,375,,
24,Rory Hemp,M,SBD,MR-HS,66,Raw,2004,Winneconne,WI,65.1,-135,135,-137.5,135,75,80,-82.5,80,157.5,-172.5,-172.5,157.5,372.5,,
25,Austin Deleon,M,SBD,MR-HS,66,Raw,2002,,WI,59.2,120,-125,125,125,87.5,-95,-95,87.5,145,152.5,-165,152.5,365,,
26,Leobardo Vargas,M,SBD,MR-HS,66,Raw,2003,,WI,59.6,110,-125,125,125,67.5,75,-80,75,137.5,145,152.5,152.5,352.5,,
28,Quentin Berhow,M,SBD,MR-HS,66,Raw,2004,New Richmond Tigers,WI,60,-112.5,122.5,127.5,127.5,60,62.5,65,65,130,142.5,150,150,342.5,,
27,Carson Junemann,M,SBD,MR-HS,66,Raw,2003,,WI,60,105,120,-130,120,62.5,67.5,72.5,72.5,107.5,-140,150,150,342.5,,
29,Steven Laverenz,M,SBD,MR-HS,66,Raw,2002,,WI,59.6,120,125,130,130,75,77.5,-80,77.5,130,132.5,-150,132.5,340,,
30,Chue Fue Khang,M,SBD,MR-HS,66,Raw,2003,,WI,59.6,102.5,127.5,-137.5,127.5,60,67.5,-72.5,67.5,120,140,-145,140,335,,
31,Adam Vanderkin,M,SBD,MR-HS,66,Raw,2001,,WI,59.3,102.5,-120,-120,102.5,52.5,57.5,62.5,62.5,135,-150,150,150,315,,
32,Matthew Henning,M,SBD,MR-HS,66,Raw,2004,Winneconne,WI,59.4,-90,95,100,100,50,-60,-60,50,145,157.5,165,165,315,,
33,Cole Delwiche,M,SBD,MR-HS,66,Raw,2003,River Falls Powerlifting,WI,59.4,100,105,110,110,57.5,60,-65,60,135,142.5,-150,142.5,312.5,,
DQ,Calvin Brueggen,M,SBD,MR-HS,66,Raw,2004,Elk Mound High School,WI,60.1,100,-105,-105,100,62.5,-65,-65,62.5,135,145,147.5,147.5,,,
34,Charles Barone,M,SBD,MR-HS,66,Raw,2003,Winneconne,WI,59.6,90,95,97.5,97.5,65,-70,-70,65,-122.5,135,145,145,307.5,,
35,Nicholas Johnson,M,SBD,MR-HS,66,Raw,2003,,WI,59.6,92.5,112.5,117.5,117.5,60,65,67.5,67.5,102.5,117.5,-130,117.5,302.5,,
36,Gavin Linjer,M,SBD,MR-HS,66,Raw,2004,Manawa,WI,59.1,85,-100,-100,85,-57.5,60,62.5,62.5,120,-132.5,-132.5,120,267.5,,
DQ,William Kamphuis,M,SBD,MR-HS,66,Raw,2004,New Richmond Tigers,WI,59.6,110,115,-120,115,-52.5,-52.5,-52.5,,137.5,145,152.5,152.5,,,
DQ,Ethan Seaton,M,SBD,MR-HS,66,Raw,2004,North Fon du Lac,WI,60,-102.5,102.5,-115,102.5,65,70,-72.5,70,-155,-155,-155,,,,
1,Jackson Jaeger,M,SBD,MR-HS,74,Raw,2001,Manawa,WI,73.4,200,-212.5,-212.5,200,112.5,115,117.5,117.5,235,240,-250,240,557.5,,
2,Jaiden Minigh,M,SBD,MR-HS,74,Raw,2002,A-F Powerlifting,WI,68.7,200,-207.5,207.5,207.5,95,100,-105,100,220,230,235,235,542.5,,
3,Brady Flasch,M,SBD,MR-HS,74,Raw,2003,Germantown Powerlifting,WI,73.2,175,-185,185,185,122.5,127.5,132.5,132.5,205,217.5,225,225,542.5,,
4,Andrew Trandahl,M,SBD,MR-HS,74,Raw,2004,New Richmond Tigers,WI,72.4,182.5,187.5,195,195,102.5,107.5,-112.5,107.5,192.5,200,210,210,512.5,,
5,Logan Bjurstrom,M,SBD,MR-HS,74,Raw,2003,,WI,72.9,-165,177.5,-182.5,177.5,110,-122.5,-122.5,110,210,225,-232.5,225,512.5,,
6,Austin Junemann,M,SBD,MR-HS,74,Raw,2004,,WI,73.4,152.5,170,182.5,182.5,90,97.5,102.5,102.5,165,187.5,200,200,485,,
7,Jordan Tibbetts,M,SBD,MR-HS,74,Raw,2004,,WI,73.2,150,165,167.5,167.5,90,95,100,100,165,182.5,192.5,192.5,460,,
8,Trenten Payne,M,SBD,MR-HS,74,Raw,2003,,WI,73.8,155,162.5,170,170,110,115,-120,115,170,175,-180,175,460,,
9,Sullivan Weiss,M,SBD,MR-HS,74,Raw,2002,New Richmond Tigers,WI,66.1,142.5,150,157.5,157.5,87.5,92.5,-97.5,92.5,180,187.5,195,195,445,,
10,Ethan Hahlbeck,M,SBD,MR-HS,74,Raw,2002,Xavier High School,WI,72.9,-177.5,177.5,-185,177.5,92.5,95,97.5,97.5,170,-182.5,-182.5,170,445,,
11,Zacary Zeznanski,M,SBD,MR-HS,74,Raw,2003,,WI,73.6,140,150,160,160,87.5,95,-102.5,95,170,182.5,190,190,445,,
12,Logan Zyduck,M,SBD,MR-HS,74,Raw,2002,River Falls Powerlifting,WI,66.9,165,175,-185,175,87.5,-92.5,92.5,92.5,175,-190,-192.5,175,442.5,,
DQ,Alex Sackett,M,SBD,MR-HS,74,Raw,2002,,WI,72.2,142.5,152.5,160,160,92.5,97.5,-107.5,97.5,150,185,-197.5,185,,,
13,Zack Burtsfield,M,SBD,MR-HS,74,Raw,2002,,WI,73.7,117.5,127.5,135,135,-92.5,102.5,107.5,107.5,180,195,-212.5,195,437.5,,
14,Shamond Rogers,M,SBD,MR-HS,74,Raw,2001,,WI,67.2,125,-140,145,145,90,95,-100,95,175,-185,192.5,192.5,432.5,,
15,Markos Cash,M,SBD,MR-HS,74,Raw,2002,Holmen High School Powerlifting,WI,67.3,122.5,140,-150,140,92.5,100,-105,100,170,180,192.5,192.5,432.5,,
16,Avery Kaanta,M,SBD,MR-HS,74,Raw,2004,Elk Mound High School,WI,69,150,-157.5,157.5,157.5,87.5,92.5,97.5,97.5,165,175,-185,175,430,,
17,Jevon Wilson,M,SBD,MR-HS,74,Raw,2002,Winneconne,WI,72.2,145,152.5,-155,152.5,82.5,87.5,90,90,185,-205,-205,185,427.5,,
18,Jack Bond,M,SBD,MR-HS,74,Raw,2001,River Falls Powerlifting,WI,72.7,125,135,142.5,142.5,90,100,-110,100,165,175,185,185,427.5,,
19,Vaughn Zwiefelhofer,M,SBD,MR-HS,74,Raw,2003,,WI,66.2,142.5,150,-157.5,150,80,85,87.5,87.5,175,180,187.5,187.5,425,,
20,Cooper Kastenschmidt,M,SBD,MR-HS,74,Raw,2001,Laconia Powerlifting Club,WI,66.4,137.5,145,155,155,72.5,75,77.5,77.5,167.5,180,192.5,192.5,425,,
21,Mason Wicinsky,M,SBD,MR-HS,74,Raw,2003,Winneconne,WI,72.9,137.5,147.5,150,150,82.5,90,-95,90,172.5,180,185,185,425,,
22,Jensen Rymer,M,SBD,MR-HS,74,Raw,2003,Necedah Powerlifting,WI,70.9,-147.5,152.5,-165,152.5,75,77.5,80,80,165,177.5,187.5,187.5,420,,
23,William Breunig,M,SBD,MR-HS,74,Raw,2002,Mauston Powerlifting,WI,69.9,137.5,145,-147.5,145,87.5,-97.5,-97.5,87.5,180,185,-190,185,417.5,,
24,Thor Sanders,M,SBD,MR-HS,74,Raw,2003,New Richmond Tigers,WI,73.2,-132.5,132.5,140,140,87.5,92.5,-97.5,92.5,165,172.5,185,185,417.5,,
25,Brannt Balfanz,M,SBD,MR-HS,74,Raw,2004,Waterford Union High School,WI,73.6,130,-135,137.5,137.5,80,82.5,85,85,182.5,192.5,-197.5,192.5,415,,
26,Isaiah Seffinga,M,SBD,MR-HS,74,Raw,2002,,WI,73.6,132.5,140,-145,140,80,82.5,85,85,177.5,182.5,187.5,187.5,412.5,,
27,Andrew Prindle,M,SBD,MR-HS,74,Raw,2002,,WI,66.4,-130,137.5,142.5,142.5,87.5,-92.5,92.5,92.5,175,-185,-195,175,410,,
28,Josiah Hanson,M,SBD,MR-HS,74,Raw,2001,New Richmond Tigers,WI,66.6,130,137.5,-142.5,137.5,72.5,-77.5,77.5,77.5,177.5,185,192.5,192.5,407.5,,
29,Zachary Panek,M,SBD,MR-HS,74,Raw,2002,New Richmond Tigers,WI,71.9,132.5,137.5,-142.5,137.5,82.5,85,-90,85,177.5,185,-192.5,185,407.5,,
30,Jacob Larsen,M,SBD,MR-HS,74,Raw,2003,Winneconne,WI,72,122.5,130,137.5,137.5,75,82.5,-85,82.5,165,185,187.5,187.5,407.5,,
31,Brady Anderson,M,SBD,MR-HS,74,Raw,2003,Waterford Union High School,WI,66.2,137.5,142.5,-150,142.5,82.5,85,-90,85,155,162.5,175,175,402.5,,
32,Peter Decorah,M,SBD,MR-HS,74,Raw,2002,Mauston Powerlifting,WI,72.2,-117.5,117.5,-132.5,117.5,77.5,82.5,85,85,182.5,192.5,200,200,402.5,,
33,Lawson Bau,M,SBD,MR-HS,74,Raw,2001,,WI,66.5,115,120,130,130,77.5,80,85,85,167.5,175,185,185,400,,
34,Sawyer Schnettler,M,SBD,MR-HS,74,Raw,2002,Laconia Powerlifting Club,WI,66.2,120,127.5,132.5,132.5,82.5,90,-95,90,160,-167.5,170,170,392.5,,
35,Aidan Henscheid,M,SBD,MR-HS,74,Raw,2003,,WI,66.5,120,127.5,132.5,132.5,97.5,-102.5,-102.5,97.5,142.5,157.5,162.5,162.5,392.5,,
DQ,Clay Riehl,M,SBD,MR-HS,74,Raw,2003,,WI,71.7,110,-120,127.5,127.5,80,85,90,90,147.5,167.5,-182.5,167.5,,,
36,Kean Caldwell,M,SBD,MR-HS,74,Raw,2004,,WI,66.2,-137.5,142.5,-150,142.5,67.5,72.5,-77.5,72.5,160,-172.5,-172.5,160,375,,
37,Grant Bristol,M,SBD,MR-HS,74,Raw,2003,Manawa,WI,66.8,130,-137.5,-137.5,130,70,75,77.5,77.5,167.5,-175,-175,167.5,375,,
38,Jacob Caron,M,SBD,MR-HS,74,Raw,2002,,WI,66.5,112.5,120,-130,120,70,-72.5,-72.5,70,150,160,175,175,365,,
DQ,Colton Steyer,M,SBD,MR-HS,74,Raw,2001,,WI,72,-197.5,-197.5,-197.5,,,,,,,,,,,,
1,Samuel Multerer,M,SBD,MR-HS,83,Raw,2001,,WI,80.6,200,212.5,222.5,222.5,115,130,140,140,200,212.5,217.5,217.5,580,,
2,Justin Blechinger,M,SBD,MR-HS,83,Raw,2003,,WI,80.5,160,175,182.5,182.5,115,132.5,142.5,142.5,205,232.5,-240,232.5,557.5,,
3,Jonathan Boehnlein,M,SBD,MR-HS,83,Raw,2001,Winneconne,WI,81,162.5,180,192.5,192.5,102.5,110,115,115,200,212.5,222.5,222.5,530,,
4,Benjamin Wellhoefer,M,SBD,MR-HS,83,Raw,2003,,WI,81.3,185,195,-205,195,110,117.5,120,120,190,205,215,215,530,,
5,Kevin Madderom,M,SBD,MR-HS,83,Raw,2002,,WI,81.4,-175,175,-190,175,122.5,130,-132.5,130,197.5,210,-217.5,210,515,,
6,Hunter Buechel,M,SBD,MR-HS,83,Raw,2002,,WI,82,182.5,190,195,195,100,105,107.5,107.5,195,207.5,212.5,212.5,515,,
7,Bryce Henrichs,M,SBD,MR-HS,83,Raw,2003,Waterford Union High School,WI,81.7,192.5,200,-205,200,100,105,107.5,107.5,192.5,205,-217.5,205,512.5,,
8,Braeden Bowman,M,SBD,MR-HS,83,Raw,2001,,WI,78.9,-175,177.5,180,180,102.5,105,-107.5,105,215,-220,-220,215,500,,
9,Josue Rojas,M,SBD,MR-HS,83,Raw,2001,,WI,81.1,155,167.5,175,175,107.5,115,-120,115,195,202.5,-215,202.5,492.5,,
10,Lucas Lazarescu,M,SBD,MR-HS,83,Raw,2002,Holmen High School Powerlifting,WI,80.5,160,167.5,175,175,97.5,-102.5,-107.5,97.5,202.5,210,-215,210,482.5,,
11,Alex Hofer,M,SBD,MR-HS,83,Raw,2001,,WI,81.3,-170,-175,175,175,110,117.5,120,120,170,177.5,187.5,187.5,482.5,,
12,Coltin Riffle,M,SBD,MR-HS,83,Raw,2003,,WI,79.6,160,-165,-165,160,110,117.5,-122.5,117.5,192.5,197.5,200,200,477.5,,
13,Sam Budig,M,SBD,MR-HS,83,Raw,2002,,WI,74.4,147.5,155,160,160,92.5,97.5,100,100,192.5,205,212.5,212.5,472.5,,
14,Jake Rockweiler,M,SBD,MR-HS,83,Raw,2003,,WI,78.4,155,162.5,-170,162.5,107.5,112.5,115,115,182.5,-207.5,-212.5,182.5,460,,
15,Ben Anhalt,M,SBD,MR-HS,83,Raw,2004,,WI,80.9,152.5,-160,160,160,87.5,92.5,100,100,190,200,-210,200,460,,
16,David Klein,M,SBD,MR-HS,83,Raw,2001,,WI,81.1,162.5,170,175,175,100,102.5,105,105,162.5,170,177.5,177.5,457.5,,
17,Myles Sawyer,M,SBD,MR-HS,83,Raw,2003,,WI,79.6,142.5,-155,162.5,162.5,100,107.5,112.5,112.5,150,172.5,-190,172.5,447.5,,
18,Maysen Best,M,SBD,MR-HS,83,Raw,2002,Holmen High School Powerlifting,WI,81.5,155,160,-172.5,160,92.5,97.5,-105,97.5,182.5,-195,-195,182.5,440,,
19,Victor Torres,M,SBD,MR-HS,83,Raw,2001,,WI,79.8,157.5,-165,-165,157.5,87.5,-90,90,90,177.5,-185,185,185,432.5,,
20,Colin Moser,M,SBD,MR-HS,83,Raw,2002,Manawa,WI,74.2,132.5,145,150,150,97.5,100,105,105,142.5,167.5,-180,167.5,422.5,,
21,Oscar Wald,M,SBD,MR-HS,83,Raw,2003,Elk Mound High School,WI,75,127.5,135,145,145,87.5,92.5,97.5,97.5,170,180,-192.5,180,422.5,,
22,Andrew VanDerKolk,M,SBD,MR-HS,83,Raw,2003,Xavier High School,WI,74.3,-150,150,-155,150,82.5,-92.5,-92.5,82.5,170,187.5,-190,187.5,420,,
23,Evan Bjorge,M,SBD,MR-HS,83,Raw,2002,Waterford Union High School,WI,74.2,-140,-140,140,140,82.5,-85,-85,82.5,165,-172.5,172.5,172.5,395,,
DQ,Landin Springstroh,M,SBD,MR-HS,83,Raw,2002,,WI,74.4,140,145,-152.5,145,-102.5,-102.5,-102.5,,,,,,,,
DQ,Andrew Bybee,M,SBD,MR-HS,83,Raw,2001,,WI,80.4,-200,-200,-200,,122.5,132.5,-140,132.5,192.5,,,192.5,,,
1,John Kubiak,M,SBD,MR-HS,93,Raw,2002,,WI,89.9,215,227.5,235,235,127.5,140,-145,140,237.5,247.5,262.5,262.5,637.5,,
2,Kaden Hansen,M,SBD,MR-HS,93,Raw,2001,,WI,88.6,225,232.5,237.5,237.5,117.5,122.5,127.5,127.5,-247.5,250,-272.5,250,615,,
3,Major Gunderson-Morris,M,SBD,MR-HS,93,Raw,2003,Elk Mound High School,WI,85,182.5,190,197.5,197.5,92.5,97.5,102.5,102.5,-227.5,-232.5,232.5,232.5,532.5,,
4,Ricky Zielinski,M,SBD,MR-HS,93,Raw,2001,Necedah Powerlifting,WI,88.5,-172.5,177.5,185,185,-107.5,112.5,115,115,205,217.5,225,225,525,,
5,Zac Holme,M,SBD,MR-HS,93,Raw,2001,,WI,89.5,-180,190,-200,190,97.5,107.5,110,110,212.5,217.5,225,225,525,,
6,Jackson Seidling,M,SBD,MR-HS,93,Raw,2001,New Richmond Tigers,WI,87,170,182.5,-185,182.5,100,102.5,105,105,215,225,230,230,517.5,,
7,Nathan Frost Frost,M,SBD,MR-HS,93,Raw,2002,,WI,89.8,157.5,175,185,185,92.5,102.5,112.5,112.5,177.5,195,210,210,507.5,,
8,Joey Leger,M,SBD,MR-HS,93,Raw,2002,,WI,88.3,172.5,180,187.5,187.5,107.5,-112.5,112.5,112.5,187.5,195,205,205,505,,
9,Mitchel Gamache,M,SBD,MR-HS,93,Raw,2004,,WI,89,-152.5,157.5,167.5,167.5,130,137.5,-147.5,137.5,185,200,-215,200,505,,
10,Nolan Nielsen,M,SBD,MR-HS,93,Raw,2001,Waterford Union High School,WI,89.8,-182.5,182.5,-187.5,182.5,102.5,-107.5,107.5,107.5,190,205,210,210,500,,
11,Christopher Heidl,M,SBD,MR-HS,93,Raw,2003,North Fon du Lac,WI,87.9,142.5,170,187.5,187.5,102.5,110,115,115,185,192.5,-205,192.5,495,,
12,Jonathan Bryan,M,SBD,MR-HS,93,Raw,2001,Xavier High School,WI,88.9,170,172.5,-177.5,172.5,90,-95,-95,90,217.5,222.5,-227.5,222.5,485,,
13,Jarrett Wunderlich,M,SBD,MR-HS,93,Raw,2002,,WI,88.3,-155,160,-167.5,160,102.5,110,115,115,-192.5,200,207.5,207.5,482.5,,
14,Sean Gadbois,M,SBD,MR-HS,93,Raw,2002,,WI,88.5,-165,172.5,-185,172.5,97.5,102.5,-107.5,102.5,197.5,-202.5,-202.5,197.5,472.5,,
15,John Klugow,M,SBD,MR-HS,93,Raw,2001,Osceola High School Powerlifting,WI,88,147.5,160,-165,160,87.5,97.5,-105,97.5,175,197.5,205,205,462.5,,
16,Nolan Winkler,M,SBD,MR-HS,93,Raw,2002,Oak Creek Powerlifting,WI,89.5,157.5,167.5,-172.5,167.5,102.5,107.5,-112.5,107.5,170,175,-177.5,175,450,,
17,Shane Gallun,M,SBD,MR-HS,93,Raw,2003,Waterford Union High School,WI,89.8,147.5,-157.5,157.5,157.5,97.5,100,-102.5,100,165,175,182.5,182.5,440,,
DQ,Luke Holmstrom,M,SBD,MR-HS,93,Raw,2002,Xavier High School,WI,88.3,-165,-165,-165,,130,135,-140,135,200,-210,-210,200,,,
DQ,Garrett Hanson,M,SBD,MR-HS,93,Raw,2002,,WI,89,-160,-162.5,-162.5,,125,-132.5,-132.5,125,175,182.5,-185,182.5,,,
DQ,Eli Peapenburg,M,SBD,MR-HS,93,Raw,2001,,WI,89.5,-197.5,-197.5,-197.5,,102.5,105,-107.5,105,197.5,-202.5,-202.5,197.5,,,
1,Zack Roovers,M,SBD,MR-HS,105,Raw,2004,,WI,97.7,205,-215,215,215,132.5,-140,-140,132.5,237.5,247.5,257.5,257.5,605,,
2,Nicholas Hoffmann,M,SBD,MR-HS,105,Raw,2001,,WI,99.6,-220,220,225,225,-132.5,132.5,-135,132.5,230,237.5,247.5,247.5,605,,
3,Mac Strand,M,SBD,MR-HS,105,Raw,2002,Xavier High School,WI,97.8,217.5,227.5,-235,227.5,97.5,-105,105,105,225,237.5,247.5,247.5,580,,
4,Josh Lescohier,M,SBD,MR-HS,105,Raw,2002,,WI,98.1,190,200,205,205,125,135,142.5,142.5,210,225,232.5,232.5,580,,
5,Andrew Niemuth,M,SBD,MR-HS,105,Raw,2003,Manawa,WI,99.8,200,210,-215,210,107.5,112.5,117.5,117.5,230,-237.5,237.5,237.5,565,,
6,Kadan Downing,M,SBD,MR-HS,105,Raw,2003,,WI,96.8,200,212.5,222.5,222.5,120,130,-137.5,130,-200,200,-215,200,552.5,,
7,Darian Frawley,M,SBD,MR-HS,105,Raw,2002,Necedah Powerlifting,WI,98.3,185,195,205,205,105,110,112.5,112.5,210,222.5,230,230,547.5,,
DQ,Ambrose Newbury,M,SBD,MR-HS,105,Raw,2002,Waterford Union High School,WI,102.2,185,-190,192.5,192.5,125,-127.5,-127.5,125,-220,225,-257.5,225,,,
8,Luke Holme,M,SBD,MR-HS,105,Raw,2001,,WI,94.9,185,197.5,207.5,207.5,97.5,102.5,107.5,107.5,202.5,217.5,-227.5,217.5,532.5,,
9,Breken Turner,M,SBD,MR-HS,105,Raw,2004,Holmen High School Powerlifting,WI,94.6,197.5,205,-212.5,205,102.5,110,-115,110,192.5,200,210,210,525,,
10,Cody Severson,M,SBD,MR-HS,105,Raw,2005,,WI,97.1,170,185,-197.5,185,100,120,125,125,175,195,205,205,515,,
11,Carter Gruse,M,SBD,MR-HS,105,Raw,2003,Winneconne,WI,97.5,157.5,175,-182.5,175,110,117.5,127.5,127.5,175,187.5,202.5,202.5,505,,
12,Austin Tackman,M,SBD,MR-HS,105,Raw,2003,Oak Creek Powerlifting,WI,97.2,185,190,-195,190,107.5,110,115,115,185,190,-197.5,190,495,,
13,Brett Sacia,M,SBD,MR-HS,105,Raw,2004,Holmen High School Powerlifting,WI,104.8,185,190,-195,190,102.5,-110,-110,102.5,192.5,200,-205,200,492.5,,
14,Logan Gillespie,M,SBD,MR-HS,105,Raw,2005,A-F Powerlifting,WI,97.7,175,182.5,187.5,187.5,90,95,97.5,97.5,165,185,195,195,480,,
15,Julian Goldstein,M,SBD,MR-HS,105,Raw,2002,,WI,101,145,152.5,-165,152.5,100,105,110,110,210,217.5,-227.5,217.5,480,,
16,Deion Stroud,M,SBD,MR-HS,105,Raw,2003,Manawa,WI,98.5,-165,165,-167.5,165,-100,100,102.5,102.5,202.5,207.5,-215,207.5,475,,
17,Austin Schindler,M,SBD,MR-HS,105,Raw,2003,,WI,98.6,155,167.5,-182.5,167.5,90,95,100,100,182.5,-200,205,205,472.5,,
18,Logan Martinson,M,SBD,MR-HS,105,Raw,2003,Waterford Union High School,WI,96.5,-170,172.5,-180,172.5,110,-112.5,-112.5,110,175,185,-195,185,467.5,,
19,Carson Delander,M,SBD,MR-HS,105,Raw,2004,River Falls Powerlifting,WI,97.9,152.5,160,170,170,95,100,-105,100,185,197.5,-210,197.5,467.5,,
20,Dylan Wilke,M,SBD,MR-HS,105,Raw,2004,,WI,98.9,160,170,-177.5,170,77.5,85,87.5,87.5,190,210,-227.5,210,467.5,,
21,Antonio Marquez-Velazquez,M,SBD,MR-HS,105,Raw,2003,,WI,99.4,-160,-167.5,167.5,167.5,97.5,102.5,-105,102.5,185,192.5,-195,192.5,462.5,,
22,Ian White,M,SBD,MR-HS,105,Raw,2003,,WI,98.3,-165,165,177.5,177.5,85,87.5,-90,87.5,182.5,190,-195,190,455,,
23,Gideon Patzner,M,SBD,MR-HS,105,Raw,2002,Xavier High School,WI,97.3,152.5,160,-165,160,85,-90,92.5,92.5,200,-210,-210,200,452.5,,
24,Nicholas Cork,M,SBD,MR-HS,105,Raw,2002,New Richmond Tigers,WI,94.8,155,160,-162.5,160,82.5,87.5,-90,87.5,195,-207.5,-207.5,195,442.5,,
DQ,Payton Roebke,M,SBD,MR-HS,105,Raw,2003,,WI,96.6,-165,-167.5,-172.5,,-92.5,-92.5,-92.5,,170,-177.5,-177.5,170,,,
DQ,Brett Deschler,M,SBD,MR-HS,105,Raw,2001,Waterford Union High School,WI,97,-227.5,-227.5,-227.5,,145,147.5,-152.5,147.5,215,-225,-225,215,,,
DQ,Brandon Bierman,M,SBD,MR-HS,105,Raw,2005,Manawa,WI,99.7,-165,-165,-165,,105,110,-112.5,110,182.5,-187.5,-187.5,182.5,,,
1,Michael Bidwell,M,SBD,MR-HS,120,Raw,2001,Winneconne,WI,116.3,225,242.5,245,245,125,130,132.5,132.5,290,-307.5,,290,667.5,,
2,Benjamin Prasko,M,SBD,MR-HS,120,Raw,2003,Necedah Powerlifting,WI,116.4,227.5,240,250,250,105,-112.5,-112.5,105,232.5,247.5,-260,247.5,602.5,,
3,Jackson Wemette,M,SBD,MR-HS,120,Raw,2001,,WI,108.4,-217.5,217.5,-222.5,217.5,130,135,140,140,227.5,242.5,-247.5,242.5,600,,
4,Nick Ludowese,M,SBD,MR-HS,120,Raw,2004,,WI,107.9,205,215,225,225,120,127.5,135,135,-217.5,232.5,-240,232.5,592.5,,
5,Robert Conde,M,SBD,MR-HS,120,Raw,2002,Osceola High School Powerlifting,WI,109,202.5,217.5,230,230,125,135,-140,135,207.5,-227.5,227.5,227.5,592.5,,
6,Kenton Dvorak,M,SBD,MR-HS,120,Raw,2002,,WI,108.8,187.5,-200,215,215,115,130,135,135,-227.5,237.5,-250,237.5,587.5,,
7,Benjamin Muhr,M,SBD,MR-HS,120,Raw,2001,,WI,108.4,185,190,-195,190,150,-152.5,-152.5,150,232.5,242.5,-250,242.5,582.5,,
8,Trevor Pye,M,SBD,MR-HS,120,Raw,2001,Waterford Union High School,WI,118,205,-215,220,220,105,107.5,110,110,210,215,-217.5,215,545,,
9,Jacob Wicklem,M,SBD,MR-HS,120,Raw,2002,New Richmond Tigers,WI,116.4,207.5,-217.5,-217.5,207.5,107.5,112.5,117.5,117.5,212.5,-217.5,-220,212.5,537.5,,
10,Jacob Regan,M,SBD,MR-HS,120,Raw,2004,Osceola High School Powerlifting,WI,119,160,175,187.5,187.5,92.5,-107.5,-107.5,92.5,230,250,-267.5,250,530,,
11,Seth Angell,M,SBD,MR-HS,120,Raw,2002,Winneconne,WI,107.7,207.5,217.5,-227.5,217.5,-112.5,112.5,-120,112.5,-190,190,195,195,525,,
12,Bryce Wojta,M,SBD,MR-HS,120,Raw,2002,,WI,106.4,180,190,192.5,192.5,110,120,-125,120,190,-207.5,207.5,207.5,520,,
13,Luke German,M,SBD,MR-HS,120,Raw,2004,,WI,107.8,172.5,-182.5,182.5,182.5,127.5,-135,135,135,-192.5,-192.5,192.5,192.5,510,,
14,Keagan Stofflet,M,SBD,MR-HS,120,Raw,2002,,WI,109,175,177.5,182.5,182.5,102.5,105,107.5,107.5,210,215,-220,215,505,,
15,Cole Bjorge,M,SBD,MR-HS,120,Raw,2002,Waterford Union High School,WI,119.6,-185,185,-190,185,100,102.5,-105,102.5,-212.5,212.5,-217.5,212.5,500,,
16,Zachary Pasch,M,SBD,MR-HS,120,Raw,2003,,WI,116.4,180,-185,185,185,97.5,102.5,-107.5,102.5,197.5,205,-212.5,205,492.5,,
17,Josh Woodington,M,SBD,MR-HS,120,Raw,2002,,WI,112.3,172.5,-182.5,-185,172.5,85,-92.5,-92.5,85,222.5,227.5,-230,227.5,485,,
18,Matthew Timm,M,SBD,MR-HS,120,Raw,2004,,WI,118,170,-177.5,177.5,177.5,100,105,-112.5,105,202.5,-227.5,-227.5,202.5,485,,
19,Cameron Anderson,M,SBD,MR-HS,120,Raw,2003,Marinette,WI,116,190,210,-227.5,210,97.5,107.5,-115,107.5,160,,,160,477.5,,
20,Matthew Schraith,M,SBD,MR-HS,120,Raw,2003,Oak Creek Powerlifting,WI,108.5,172.5,-177.5,-185,172.5,95,100,102.5,102.5,187.5,195,-205,195,470,,
21,Brady Reusser,M,SBD,MR-HS,120,Raw,2003,Oak Creek Powerlifting,WI,107.3,162.5,170,-177.5,170,100,-105,105,105,187.5,-192.5,-192.5,187.5,462.5,,
22,Elijah Gadbury,M,SBD,MR-HS,120,Raw,2004,Waterford Union High School,WI,118,160,165,170,170,82.5,85,87.5,87.5,190,195,-200,195,452.5,,
23,Seth Bernarde,M,SBD,MR-HS,120,Raw,2004,,WI,110.7,-160,160,-170,160,92.5,100,-102.5,100,182.5,-187.5,-187.5,182.5,442.5,,
24,Christian Jacobsen,M,SBD,MR-HS,120,Raw,2003,,WI,116.1,165,170,-175,170,-82.5,82.5,85,85,167.5,180,-200,180,435,,
DQ,Brett Mahnke,M,SBD,MR-HS,120,Raw,2001,,WI,107,-175,175,-180,175,-105,-105,-105,,175,180,-185,180,,,
DQ,Kevin Lopez,M,SBD,MR-HS,120,Raw,2002,,WI,108.5,177.5,182.5,187.5,187.5,-125,-125,-125,,227.5,-240,-257.5,227.5,,,
DQ,Ulises Escamilla,M,SBD,MR-HS,120,Raw,2002,North Fon du Lac,WI,111.6,165,182.5,-197.5,182.5,-97.5,-102.5,-102.5,,-185,-185,185,185,,,
1,Ryan Blokhuis,M,SBD,MR-HS,120+,Raw,2001,,WI,151.2,225,247.5,270,270,125,137.5,-145,137.5,250,275,-295,275,682.5,,
2,Gavyn Anton,M,SBD,MR-HS,120+,Raw,2002,,WI,122,205,210,217.5,217.5,160,167.5,170,170,205,217.5,227.5,227.5,615,,
3,Cole Cook,M,SBD,MR-HS,120+,Raw,2002,,WI,122,195,232.5,245,245,107.5,122.5,-132.5,122.5,195,220,-235,220,587.5,,
4,Quinntell Phillips,M,SBD,MR-HS,120+,Raw,2002,,WI,140.6,205,212.5,-215,212.5,127.5,135,137.5,137.5,207.5,210,217.5,217.5,567.5,,
5,Even Mahlum,M,SBD,MR-HS,120+,Raw,2002,Holmen High School Powerlifting,WI,130.1,197.5,-210,-210,197.5,-132.5,132.5,-135,132.5,207.5,225,227.5,227.5,557.5,,
6,Calvin Mitch,M,SBD,MR-HS,120+,Raw,2003,,WI,138.6,-192.5,192.5,-200,192.5,115,120,-125,120,-227.5,227.5,-247.5,227.5,540,,
7,Bryan Mcclurg,M,SBD,MR-HS,120+,Raw,2002,Marinette,WI,124.3,-227.5,245,-267.5,245,95,100,-105,100,-182.5,185,-202.5,185,530,,
8,Ian Schaal,M,SBD,MR-HS,120+,Raw,2002,Waterford Union High School,WI,125.6,185,190,195,195,97.5,102.5,-107.5,102.5,227.5,230,232.5,232.5,530,,
9,Mark Weins,M,SBD,MR-HS,120+,Raw,2002,Oak Creek Powerlifting,WI,137.3,215,-220,-220,215,95,-100,-100,95,215,-217.5,217.5,217.5,527.5,,
10,James Scott,M,SBD,MR-HS,120+,Raw,2002,Manawa,WI,166,177.5,185,195,195,105,110,112.5,112.5,205,217.5,-227.5,217.5,525,,
11,Alex Pethan,M,SBD,MR-HS,120+,Raw,2003,Oak Creek Powerlifting,WI,131.4,-180,-180,180,180,97.5,105,-110,105,185,190,-195,190,475,,
12,Chase Aspengren,M,SBD,MR-HS,120+,Raw,2002,,WI,144.3,147.5,160,172.5,172.5,105,112.5,117.5,117.5,167.5,180,-190,180,470,,
13,Hayden Eades,M,SBD,MR-HS,120+,Raw,2004,,WI,143,162.5,167.5,172.5,172.5,87.5,95,-102.5,95,182.5,190,200,200,467.5,,
14,Turner Norum,M,SBD,MR-HS,120+,Raw,2002,River Falls Powerlifting,WI,152,172.5,185,-200,185,95,102.5,107.5,107.5,160,175,-190,175,467.5,,
15,Samuel Brouillet,M,SBD,MR-HS,120+,Raw,2002,,WI,123.9,-165,165,-175,165,110,115,-120,115,-185,-185,185,185,465,,
DQ,Alan Burdette,M,SBD,MR-HS,120+,Raw,2002,Oak Creek Powerlifting,WI,122.1,165,-170,-170,165,95,-100,-100,95,-205,-205,-205,,,,
DQ,Ethan Huffman,M,SBD,MR-HS,120+,Raw,2002,,WI,123.1,-160,-185,-185,,77.5,-85,-85,77.5,170,-190,-195,170,,,
DQ,Gordon Langer,M,SBD,MR-HS,120+,Raw,2004,Marinette,WI,163.9,-182.5,-182.5,-182.5,,92.5,-102.5,102.5,102.5,-192.5,192.5,-205,192.5,,,
