Place,Name,Sex,Event,Division,WeightClassKg,Equipment,BirthYear,State,BodyweightKg,Squat1Kg,Squat2Kg,Squat3Kg,Best3SquatKg,Bench1Kg,Bench2Kg,Bench3Kg,Best3BenchKg,Deadlift1Kg,Deadlift2Kg,Deadlift3Kg,Best3DeadliftKg,TotalKg,Age,BirthDate
1,John Sykes,M,B,MR-M,120,Raw,1965,MS,115.7,,,,,-145,-155,155,155,,,,,155,,
1,Steve LeMarie,M,D,M-M,105,Single-ply,1962,LA,96.4,,,,,,,,,262.5,282.5,-287.5,282.5,282.5,,
1,Misty Trosclair,F,SBD,FR-M,84+,Raw,1977,MS,98.3,110,122.5,-137.5,122.5,70,75,77.5,77.5,155,165,170,170,370,,
1,Melinda Farve,F,SBD,FR-O,57,Raw,1986,MS,54.8,82.5,87.5,-92.5,87.5,40,-42.5,-45,40,110,120,-127.5,120,247.5,,
1,Leiloni Davenport,F,SBD,FR-O,72,Raw,1995,MS,65.3,90,100,-105,100,45,47.5,-50,47.5,110,120,127.5,127.5,275,,
1,Sienna Woods,F,SBD,FR-O,84,Raw,1999,MS,77.2,-112.5,-117.5,117.5,117.5,65,72.5,-77.5,72.5,127.5,142.5,-157.5,142.5,332.5,,
1,Kenna Stuart,F,SBD,FR-T,72,Raw,2000,MS,64,90,100,-105,100,52.5,55,-57.5,55,110,125,-142.5,125,280,,
1,MaryClaire Dale,F,SBD,FR-T,84,Raw,2002,MS,81.7,120,135,137.5,137.5,57.5,-62.5,62.5,62.5,140,152.5,162.5,162.5,362.5,,
1,Temple Williamson,F,SBD,FR-Y,84,Raw,2009,MS,83,-55,55,60,60,32.5,35,37.5,37.5,65,70,75,75,172.5,,
1,Shelby Starks,F,SBD,F-T,47,Single-ply,2000,MS,43.3,-102.5,102.5,107.5,107.5,35,-45,45,45,120,130,140,140,292.5,,
2,Raleigh Grace Parker,F,SBD,F-T,47,Single-ply,2001,MS,46.8,102.5,107.5,-112.5,107.5,42.5,-45,-47.5,42.5,107.5,112.5,117.5,117.5,267.5,,
1,Kaitlyn Kirk,F,SBD,F-T,63,Single-ply,2000,MS,60.2,105,117.5,-127.5,117.5,57.5,-65,-65,57.5,107.5,115,-125,115,290,,
DQ,Bailee LeBlanc,F,SBD,F-T,72,Single-ply,2002,LA,66.8,120,130,-135,130,50,55,-57.5,55,-150,-150,-150,,,,
DQ,Breana Massey,F,SBD,F-T,84,Single-ply,2001,MS,72.3,-137.5,-137.5,-137.5,,45,47.5,-50,47.5,125,135,142.5,142.5,,,
1,Madisyn Herron,F,SBD,F-T,84+,Single-ply,2001,MS,173.5,245,255,275,275,102.5,-112.5,-112.5,102.5,165,177.5,187.5,187.5,565,,
1,Everett Daughtry,M,SBD,M-M,74,Single-ply,1974,MS,73.6,185,-195,195,195,120,-127.5,127.5,127.5,215,227.5,-235,227.5,550,,
1,Ted Longo,M,SBD,M-M,83,Single-ply,1963,MS,81.8,165,182.5,-190,182.5,107.5,112.5,-120,112.5,195,202.5,210,210,505,,
1,Nick Pridmore,M,SBD,M-O,66,Single-ply,2001,MS,65.1,185,195,-207.5,195,80,-85,-85,80,182.5,197.5,-212.5,197.5,472.5,,
1,Jacob Willard,M,SBD,M-O,83,Single-ply,2000,TX,78,-175,175,-195,175,100,-107.5,-107.5,100,197.5,-212.5,-212.5,197.5,472.5,,
1,Seth Gibson-Todd,M,SBD,M-O,105,Single-ply,2000,MS,101.1,215,227.5,235,235,125,137.5,145,145,225,240,255,255,635,,
1,Hunter Little,M,SBD,M-O,120,Single-ply,1999,MS,118,260,-272.5,-272.5,260,142.5,147.5,-150,147.5,237.5,252.5,260,260,667.5,,
1,Caleb Stephens,M,SBD,M-O,120+,Single-ply,1999,MS,121,250,-260,-260,250,122.5,-127.5,-127.5,122.5,207.5,227.5,-245,227.5,600,,
1,Rodney Taylor,M,SBD,MR-M,105,Raw,1968,MS,96.5,177.5,-185,-185,177.5,120,127.5,-130,127.5,160,170,180,180,485,,
1,Jeffrey Johnson,M,SBD,MR-O,83,Raw,1989,MS,80.1,185,192.5,200,200,135,142.5,-147.5,142.5,225,237.5,247.5,247.5,590,,
2,Andrew Gilmore,M,SBD,MR-O,83,Raw,1997,GA,80.7,180,187.5,192.5,192.5,105,-117.5,-120,105,230,247.5,-255,247.5,545,,
3,Justin Boleware,M,SBD,MR-O,83,Raw,1995,MS,82.1,175,180,-185,180,137.5,-140,-140,137.5,175,-182.5,182.5,182.5,500,,
DQ,Andrew Nuss,M,SBD,MR-O,83,Raw,1998,AL,74.5,-190,-190,-190,,-117.5,-117.5,,,-210,,,,,,
DQ,Charles Williams,M,SBD,MR-O,83,Raw,1996,MS,79.9,-187.5,187.5,-202.5,187.5,-130,-130,-130,,230,242.5,250,250,,,
DQ,William Boren,M,SBD,MR-O,83,Raw,1992,MS,81.1,-162.5,-170,-177.5,,102.5,105,110,110,192.5,-197.5,197.5,197.5,,,
1,Johnathan Tentoni,M,SBD,MR-O,93,Raw,1990,MS,89.9,227.5,237.5,242.5,242.5,162.5,-167.5,167.5,167.5,277.5,287.5,-295,287.5,697.5,,
2,Colton Bradley,M,SBD,MR-O,93,Raw,1996,AL,90.2,185,192.5,200,200,130,132.5,-135,132.5,230,237.5,245,245,577.5,,
3,Morgan Wood,M,SBD,MR-O,93,Raw,2000,AL,89.9,175,190,-200,190,110,122.5,-130,122.5,175,190,200,200,512.5,,
4,Altman Biggs,M,SBD,MR-O,93,Raw,2000,MS,88.9,170,185,-192.5,185,110,-122.5,-122.5,110,185,200,212.5,212.5,507.5,,
5,Cortland Goff,M,SBD,MR-O,93,Raw,1999,MS,87.5,137.5,147.5,155,155,92.5,-100,100,100,200,215,-220,215,470,,
6,Zachary Edwards,M,SBD,MR-O,93,Raw,2001,MS,90.8,132.5,147.5,162.5,162.5,-95,100,-122.5,100,172.5,185,-195,185,447.5,,
1,Rodney Taylor,M,SBD,MR-O,105,Raw,1968,MS,96.5,177.5,-185,-185,177.5,120,127.5,-130,127.5,160,170,180,180,485,,
2,Jeremy Rawls,M,SBD,MR-O,105,Raw,1982,MS,103.7,145,155,165,165,115,125,130,130,155,165,175,175,470,,
1,Christopher Hubbard,M,SBD,MR-O,120,Raw,1990,TN,107,205,220,235,235,137.5,-145,150,150,237.5,260,272.5,272.5,657.5,,
2,Joshua Butler,M,SBD,MR-O,120,Raw,1999,MS,117,205,215,230,230,127.5,137.5,145,145,240,250,260,260,635,,
3,James Garraway,M,SBD,MR-O,120,Raw,1994,MS,105.7,192.5,-210,220,220,-152.5,162.5,-170,162.5,192.5,207.5,217.5,217.5,600,,
1,Joshua Jennings,M,SBD,MR-T,74,Raw,2001,TN,74,172.5,-182.5,187.5,187.5,120,125,-130,125,187.5,202.5,210,210,522.5,,
2,Johnkyle Buckley,M,SBD,MR-T,74,Raw,2001,MS,71.2,-192.5,-200,200,200,-97.5,102.5,107.5,107.5,192.5,202.5,-222.5,202.5,510,,
1,Zachary Edwards,M,SBD,MR-T,93,Raw,2001,MS,90.8,132.5,147.5,162.5,162.5,-95,100,-122.5,100,172.5,185,-195,185,447.5,,
1,Tanner Elkins,M,SBD,MR-Y,83,Raw,2006,MS,77.2,95,-102.5,110,110,60,-65,65,65,110,125,-137.5,125,300,,
1,Dylan Williamson,M,SBD,MR-Y,93,Raw,2007,MS,85.2,87.5,-97.5,-97.5,87.5,42.5,45,-47.5,45,95,-105,-105,95,227.5,,
1,Cordarius Harris,M,SBD,M-T,59,Single-ply,2000,MS,59,197.5,205,-210,205,115,120,-125,120,220,227.5,235,235,560,,
1,Jonathan Hayes,M,SBD,M-T,66,Single-ply,2000,MS,64.3,200,207.5,-217.5,207.5,102.5,110,-112.5,110,-220,227.5,235,235,552.5,,
1,Jared Bowens,M,SBD,M-T,74,Single-ply,2000,AL,72.8,205,212.5,-217.5,212.5,-107.5,107.5,115,115,220,235,242.5,242.5,570,,
DQ,Calvin Dukes,M,SBD,M-T,74,Single-ply,2000,MS,73.2,-230,230,-235,230,-137.5,-137.5,-137.5,,255,-267.5,-267.5,255,,,
1,Gabriel Pipkin,M,SBD,M-T,93,Single-ply,2000,AL,93,-200,-200,200,200,-125,-125,125,125,190,210,-230,210,535,,
1,Xavian Herod,M,SBD,M-T,105,Single-ply,2000,MS,104,-300,-300,300,300,167.5,172.5,-180,172.5,265,282.5,300,300,772.5,,
2,Benjamin Rivers,M,SBD,M-T,105,Single-ply,2000,MS,100.9,250,-262.5,-262.5,250,137.5,142.5,150,150,220,230,235,235,635,,
